ServeStarted
ActiveObject_abs.backend.java.lib.runtime.COG_-1f61cf00-14f3bddeade--7fef--0eaf30401f49d231--1f61cf00-14f3bddeade--8000
34
Wrapper for method=getID, sender=ActiveObject_abs.backend.java.lib.runtime.COG_-613e2820-14f3bdde9ec--7ff2--068760b28f267db7--613e2820-14f3bdde9ec--8000, sequenceNumber=2008732893
1439818471469
ServeStopped
ActiveObject_abs.backend.java.lib.runtime.COG_-1f61cf00-14f3bddeade--7fef--0eaf30401f49d231--1f61cf00-14f3bddeade--8000
34
Wrapper for method=getID, sender=ActiveObject_abs.backend.java.lib.runtime.COG_-613e2820-14f3bdde9ec--7ff2--068760b28f267db7--613e2820-14f3bdde9ec--8000, sequenceNumber=2008732893
1439818471487
ServeStarted
ActiveObject_abs.backend.java.lib.runtime.COG_-1f61cf00-14f3bddeade--7fef--0eaf30401f49d231--1f61cf00-14f3bddeade--8000
34
Wrapper for method=getRuntime, sender=ActiveObject_abs.backend.java.lib.runtime.COG_-613e2820-14f3bdde9ec--7ff2--068760b28f267db7--613e2820-14f3bdde9ec--8000, sequenceNumber=2008732897
1439818471497
ServeStopped
ActiveObject_abs.backend.java.lib.runtime.COG_-1f61cf00-14f3bddeade--7fef--0eaf30401f49d231--1f61cf00-14f3bddeade--8000
34
Wrapper for method=getRuntime, sender=ActiveObject_abs.backend.java.lib.runtime.COG_-613e2820-14f3bdde9ec--7ff2--068760b28f267db7--613e2820-14f3bdde9ec--8000, sequenceNumber=2008732897
1439818471504
ServeStarted
ActiveObject_abs.backend.java.lib.runtime.COG_-1f61cf00-14f3bddeade--7fef--0eaf30401f49d231--1f61cf00-14f3bddeade--8000
34
Wrapper for method=register, sender=ActiveObject_abs.backend.java.lib.runtime.COG_-613e2820-14f3bdde9ec--7ff2--068760b28f267db7--613e2820-14f3bdde9ec--8000, sequenceNumber=2008732898
1439818471537
ServeStopped
ActiveObject_abs.backend.java.lib.runtime.COG_-1f61cf00-14f3bddeade--7fef--0eaf30401f49d231--1f61cf00-14f3bddeade--8000
34
Wrapper for method=register, sender=ActiveObject_abs.backend.java.lib.runtime.COG_-613e2820-14f3bdde9ec--7ff2--068760b28f267db7--613e2820-14f3bdde9ec--8000, sequenceNumber=2008732898
1439818471538
ServeStarted
ActiveObject_abs.backend.java.lib.runtime.COG_-1f61cf00-14f3bddeade--7fef--0eaf30401f49d231--1f61cf00-14f3bddeade--8000
34
Wrapper for method=objectCreated, sender=ActiveObject_abs.backend.java.lib.runtime.COG_-613e2820-14f3bdde9ec--7ff2--068760b28f267db7--613e2820-14f3bdde9ec--8000, sequenceNumber=2008732899
1439818471631
ServeStopped
ActiveObject_abs.backend.java.lib.runtime.COG_-1f61cf00-14f3bddeade--7fef--0eaf30401f49d231--1f61cf00-14f3bddeade--8000
34
Wrapper for method=objectCreated, sender=ActiveObject_abs.backend.java.lib.runtime.COG_-613e2820-14f3bdde9ec--7ff2--068760b28f267db7--613e2820-14f3bdde9ec--8000, sequenceNumber=2008732899
1439818471632
ServeStarted
ActiveObject_abs.backend.java.lib.runtime.COG_-1f61cf00-14f3bddeade--7fef--0eaf30401f49d231--1f61cf00-14f3bddeade--8000
34
Wrapper for method=objectInitialized, sender=ActiveObject_abs.backend.java.lib.runtime.COG_-613e2820-14f3bdde9ec--7ff2--068760b28f267db7--613e2820-14f3bdde9ec--8000, sequenceNumber=2008732900
1439818471672
ServeStopped
ActiveObject_abs.backend.java.lib.runtime.COG_-1f61cf00-14f3bddeade--7fef--0eaf30401f49d231--1f61cf00-14f3bddeade--8000
34
Wrapper for method=objectInitialized, sender=ActiveObject_abs.backend.java.lib.runtime.COG_-613e2820-14f3bdde9ec--7ff2--068760b28f267db7--613e2820-14f3bdde9ec--8000, sequenceNumber=2008732900
1439818471673
ServeStarted
ActiveObject_abs.backend.java.lib.runtime.COG_-1f61cf00-14f3bddeade--7fef--0eaf30401f49d231--1f61cf00-14f3bddeade--8000
34
Wrapper for method=registerObject, sender=ActiveObject_abs.backend.java.lib.runtime.COG_-613e2820-14f3bdde9ec--7ff2--068760b28f267db7--613e2820-14f3bdde9ec--8000, sequenceNumber=2008732901
1439818471712
ServeStopped
ActiveObject_abs.backend.java.lib.runtime.COG_-1f61cf00-14f3bddeade--7fef--0eaf30401f49d231--1f61cf00-14f3bddeade--8000
34
Wrapper for method=registerObject, sender=ActiveObject_abs.backend.java.lib.runtime.COG_-613e2820-14f3bdde9ec--7ff2--068760b28f267db7--613e2820-14f3bdde9ec--8000, sequenceNumber=2008732901
1439818471713
ServeStarted
ActiveObject_abs.backend.java.lib.runtime.COG_-1f61cf00-14f3bddeade--7fef--0eaf30401f49d231--1f61cf00-14f3bddeade--8000
34
Wrapper for method=execute, sender=ActiveObject_abs.backend.java.lib.runtime.COG_-613e2820-14f3bdde9ec--7ff2--068760b28f267db7--613e2820-14f3bdde9ec--8000, sequenceNumber=2008732984
1439818476157
ServeStarted
ActiveObject_abs.backend.java.lib.runtime.COG_-1f61cf00-14f3bddeade--7fef--0eaf30401f49d231--1f61cf00-14f3bddeade--8000
46
Wrapper for method=getRuntime, sender=ActiveObject_abs.backend.java.lib.runtime.COG_-1f61cf00-14f3bddeade--7fef--0eaf30401f49d231--1f61cf00-14f3bddeade--8000, sequenceNumber=2008733135
1439818478143
ServeStopped
ActiveObject_abs.backend.java.lib.runtime.COG_-1f61cf00-14f3bddeade--7fef--0eaf30401f49d231--1f61cf00-14f3bddeade--8000
46
Wrapper for method=getRuntime, sender=ActiveObject_abs.backend.java.lib.runtime.COG_-1f61cf00-14f3bddeade--7fef--0eaf30401f49d231--1f61cf00-14f3bddeade--8000, sequenceNumber=2008733135
1439818478147
ServeStarted
ActiveObject_abs.backend.java.lib.runtime.COG_-1f61cf00-14f3bddeade--7fef--0eaf30401f49d231--1f61cf00-14f3bddeade--8000
46
Wrapper for method=getRuntime, sender=ActiveObject_abs.backend.java.lib.runtime.COG_-1f61cf00-14f3bddeade--7fef--0eaf30401f49d231--1f61cf00-14f3bddeade--8000, sequenceNumber=2008733136
1439818478149
ServeStopped
ActiveObject_abs.backend.java.lib.runtime.COG_-1f61cf00-14f3bddeade--7fef--0eaf30401f49d231--1f61cf00-14f3bddeade--8000
46
Wrapper for method=getRuntime, sender=ActiveObject_abs.backend.java.lib.runtime.COG_-1f61cf00-14f3bddeade--7fef--0eaf30401f49d231--1f61cf00-14f3bddeade--8000, sequenceNumber=2008733136
1439818478152
ServeStarted
ActiveObject_abs.backend.java.lib.runtime.COG_-1f61cf00-14f3bddeade--7fef--0eaf30401f49d231--1f61cf00-14f3bddeade--8000
46
Wrapper for method=getRuntime, sender=ActiveObject_abs.backend.java.lib.runtime.COG_-1f61cf00-14f3bddeade--7fef--0eaf30401f49d231--1f61cf00-14f3bddeade--8000, sequenceNumber=2008733137
1439818478154
ServeStopped
ActiveObject_abs.backend.java.lib.runtime.COG_-1f61cf00-14f3bddeade--7fef--0eaf30401f49d231--1f61cf00-14f3bddeade--8000
46
Wrapper for method=getRuntime, sender=ActiveObject_abs.backend.java.lib.runtime.COG_-1f61cf00-14f3bddeade--7fef--0eaf30401f49d231--1f61cf00-14f3bddeade--8000, sequenceNumber=2008733137
1439818478157
ServeStarted
ActiveObject_abs.backend.java.lib.runtime.COG_-1f61cf00-14f3bddeade--7fef--0eaf30401f49d231--1f61cf00-14f3bddeade--8000
46
Wrapper for method=getRuntime, sender=ActiveObject_abs.backend.java.lib.runtime.COG_-1f61cf00-14f3bddeade--7fef--0eaf30401f49d231--1f61cf00-14f3bddeade--8000, sequenceNumber=2008733138
1439818478159
ServeStopped
ActiveObject_abs.backend.java.lib.runtime.COG_-1f61cf00-14f3bddeade--7fef--0eaf30401f49d231--1f61cf00-14f3bddeade--8000
46
Wrapper for method=getRuntime, sender=ActiveObject_abs.backend.java.lib.runtime.COG_-1f61cf00-14f3bddeade--7fef--0eaf30401f49d231--1f61cf00-14f3bddeade--8000, sequenceNumber=2008733138
1439818478163
ServeStarted
ActiveObject_abs.backend.java.lib.runtime.COG_-1f61cf00-14f3bddeade--7fef--0eaf30401f49d231--1f61cf00-14f3bddeade--8000
46
Wrapper for method=suspend, sender=ActiveObject_abs.backend.java.lib.runtime.COG_-1f61cf00-14f3bddeade--7fef--0eaf30401f49d231--1f61cf00-14f3bddeade--8000, sequenceNumber=2008733139
1439818478300
ServeStopped
ActiveObject_abs.backend.java.lib.runtime.COG_-1f61cf00-14f3bddeade--7fef--0eaf30401f49d231--1f61cf00-14f3bddeade--8000
46
Wrapper for method=suspend, sender=ActiveObject_abs.backend.java.lib.runtime.COG_-1f61cf00-14f3bddeade--7fef--0eaf30401f49d231--1f61cf00-14f3bddeade--8000, sequenceNumber=2008733139
1439818478307
ServeStarted
ActiveObject_abs.backend.java.lib.runtime.COG_-1f61cf00-14f3bddeade--7fef--0eaf30401f49d231--1f61cf00-14f3bddeade--8000
46
Wrapper for method=getRuntime, sender=ActiveObject_abs.backend.java.lib.runtime.COG_-1f61cf00-14f3bddeade--7fef--0eaf30401f49d231--1f61cf00-14f3bddeade--8000, sequenceNumber=2008733140
1439818485783
ServeStopped
ActiveObject_abs.backend.java.lib.runtime.COG_-1f61cf00-14f3bddeade--7fef--0eaf30401f49d231--1f61cf00-14f3bddeade--8000
46
Wrapper for method=getRuntime, sender=ActiveObject_abs.backend.java.lib.runtime.COG_-1f61cf00-14f3bddeade--7fef--0eaf30401f49d231--1f61cf00-14f3bddeade--8000, sequenceNumber=2008733140
1439818485787
ServeStarted
ActiveObject_abs.backend.java.lib.runtime.COG_-1f61cf00-14f3bddeade--7fef--0eaf30401f49d231--1f61cf00-14f3bddeade--8000
46
Wrapper for method=getRuntime, sender=ActiveObject_abs.backend.java.lib.runtime.COG_-1f61cf00-14f3bddeade--7fef--0eaf30401f49d231--1f61cf00-14f3bddeade--8000, sequenceNumber=2008733141
1439818485789
ServeStopped
ActiveObject_abs.backend.java.lib.runtime.COG_-1f61cf00-14f3bddeade--7fef--0eaf30401f49d231--1f61cf00-14f3bddeade--8000
46
Wrapper for method=getRuntime, sender=ActiveObject_abs.backend.java.lib.runtime.COG_-1f61cf00-14f3bddeade--7fef--0eaf30401f49d231--1f61cf00-14f3bddeade--8000, sequenceNumber=2008733141
1439818485793
ServeStarted
ActiveObject_abs.backend.java.lib.runtime.COG_-1f61cf00-14f3bddeade--7fef--0eaf30401f49d231--1f61cf00-14f3bddeade--8000
46
Wrapper for method=getRuntime, sender=ActiveObject_abs.backend.java.lib.runtime.COG_-1f61cf00-14f3bddeade--7fef--0eaf30401f49d231--1f61cf00-14f3bddeade--8000, sequenceNumber=2008733142
1439818485795
ServeStopped
ActiveObject_abs.backend.java.lib.runtime.COG_-1f61cf00-14f3bddeade--7fef--0eaf30401f49d231--1f61cf00-14f3bddeade--8000
46
Wrapper for method=getRuntime, sender=ActiveObject_abs.backend.java.lib.runtime.COG_-1f61cf00-14f3bddeade--7fef--0eaf30401f49d231--1f61cf00-14f3bddeade--8000, sequenceNumber=2008733142
1439818485798
ServeStarted
ActiveObject_abs.backend.java.lib.runtime.COG_-1f61cf00-14f3bddeade--7fef--0eaf30401f49d231--1f61cf00-14f3bddeade--8000
46
Wrapper for method=getRuntime, sender=ActiveObject_abs.backend.java.lib.runtime.COG_-1f61cf00-14f3bddeade--7fef--0eaf30401f49d231--1f61cf00-14f3bddeade--8000, sequenceNumber=2008733143
1439818485799
ServeStopped
ActiveObject_abs.backend.java.lib.runtime.COG_-1f61cf00-14f3bddeade--7fef--0eaf30401f49d231--1f61cf00-14f3bddeade--8000
46
Wrapper for method=getRuntime, sender=ActiveObject_abs.backend.java.lib.runtime.COG_-1f61cf00-14f3bddeade--7fef--0eaf30401f49d231--1f61cf00-14f3bddeade--8000, sequenceNumber=2008733143
1439818485803
ServeStarted
ActiveObject_abs.backend.java.lib.runtime.COG_-1f61cf00-14f3bddeade--7fef--0eaf30401f49d231--1f61cf00-14f3bddeade--8000
46
Wrapper for method=getRuntime, sender=ActiveObject_abs.backend.java.lib.runtime.COG_-1f61cf00-14f3bddeade--7fef--0eaf30401f49d231--1f61cf00-14f3bddeade--8000, sequenceNumber=2008733144
1439818485804
ServeStopped
ActiveObject_abs.backend.java.lib.runtime.COG_-1f61cf00-14f3bddeade--7fef--0eaf30401f49d231--1f61cf00-14f3bddeade--8000
46
Wrapper for method=getRuntime, sender=ActiveObject_abs.backend.java.lib.runtime.COG_-1f61cf00-14f3bddeade--7fef--0eaf30401f49d231--1f61cf00-14f3bddeade--8000, sequenceNumber=2008733144
1439818485807
ServeStarted
ActiveObject_abs.backend.java.lib.runtime.COG_-1f61cf00-14f3bddeade--7fef--0eaf30401f49d231--1f61cf00-14f3bddeade--8000
46
Wrapper for method=getRuntime, sender=ActiveObject_abs.backend.java.lib.runtime.COG_-1f61cf00-14f3bddeade--7fef--0eaf30401f49d231--1f61cf00-14f3bddeade--8000, sequenceNumber=2008733145
1439818485810
ServeStopped
ActiveObject_abs.backend.java.lib.runtime.COG_-1f61cf00-14f3bddeade--7fef--0eaf30401f49d231--1f61cf00-14f3bddeade--8000
46
Wrapper for method=getRuntime, sender=ActiveObject_abs.backend.java.lib.runtime.COG_-1f61cf00-14f3bddeade--7fef--0eaf30401f49d231--1f61cf00-14f3bddeade--8000, sequenceNumber=2008733145
1439818485813
ServeStarted
ActiveObject_abs.backend.java.lib.runtime.COG_-1f61cf00-14f3bddeade--7fef--0eaf30401f49d231--1f61cf00-14f3bddeade--8000
46
Wrapper for method=getRuntime, sender=ActiveObject_abs.backend.java.lib.runtime.COG_-1f61cf00-14f3bddeade--7fef--0eaf30401f49d231--1f61cf00-14f3bddeade--8000, sequenceNumber=2008733146
1439818485814
ServeStopped
ActiveObject_abs.backend.java.lib.runtime.COG_-1f61cf00-14f3bddeade--7fef--0eaf30401f49d231--1f61cf00-14f3bddeade--8000
46
Wrapper for method=getRuntime, sender=ActiveObject_abs.backend.java.lib.runtime.COG_-1f61cf00-14f3bddeade--7fef--0eaf30401f49d231--1f61cf00-14f3bddeade--8000, sequenceNumber=2008733146
1439818485817
ServeStarted
ActiveObject_abs.backend.java.lib.runtime.COG_-1f61cf00-14f3bddeade--7fef--0eaf30401f49d231--1f61cf00-14f3bddeade--8000
46
Wrapper for method=getRuntime, sender=ActiveObject_abs.backend.java.lib.runtime.COG_-1f61cf00-14f3bddeade--7fef--0eaf30401f49d231--1f61cf00-14f3bddeade--8000, sequenceNumber=2008733148
1439818485965
ServeStopped
ActiveObject_abs.backend.java.lib.runtime.COG_-1f61cf00-14f3bddeade--7fef--0eaf30401f49d231--1f61cf00-14f3bddeade--8000
46
Wrapper for method=getRuntime, sender=ActiveObject_abs.backend.java.lib.runtime.COG_-1f61cf00-14f3bddeade--7fef--0eaf30401f49d231--1f61cf00-14f3bddeade--8000, sequenceNumber=2008733148
1439818485968
ServeStopped
ActiveObject_abs.backend.java.lib.runtime.COG_-1f61cf00-14f3bddeade--7fef--0eaf30401f49d231--1f61cf00-14f3bddeade--8000
34
Wrapper for method=execute, sender=ActiveObject_abs.backend.java.lib.runtime.COG_-613e2820-14f3bdde9ec--7ff2--068760b28f267db7--613e2820-14f3bdde9ec--8000, sequenceNumber=2008732984
1439818485973
ServeStarted
ActiveObject_abs.backend.java.lib.runtime.COG_-1f61cf00-14f3bddeade--7fef--0eaf30401f49d231--1f61cf00-14f3bddeade--8000
34
Wrapper for method=execute, sender=ActiveObject_abs.backend.java.lib.runtime.COG_-613e2820-14f3bdde9ec--7ff2--068760b28f267db7--613e2820-14f3bdde9ec--8000, sequenceNumber=2008733428
1439818512844
ServeStarted
ActiveObject_abs.backend.java.lib.runtime.COG_-1f61cf00-14f3bddeade--7fef--0eaf30401f49d231--1f61cf00-14f3bddeade--8000
46
Wrapper for method=getRuntime, sender=ActiveObject_abs.backend.java.lib.runtime.COG_-1f61cf00-14f3bddeade--7fef--0eaf30401f49d231--1f61cf00-14f3bddeade--8000, sequenceNumber=2008733150
1439818512849
ServeStopped
ActiveObject_abs.backend.java.lib.runtime.COG_-1f61cf00-14f3bddeade--7fef--0eaf30401f49d231--1f61cf00-14f3bddeade--8000
46
Wrapper for method=getRuntime, sender=ActiveObject_abs.backend.java.lib.runtime.COG_-1f61cf00-14f3bddeade--7fef--0eaf30401f49d231--1f61cf00-14f3bddeade--8000, sequenceNumber=2008733150
1439818512853
ServeStarted
ActiveObject_abs.backend.java.lib.runtime.COG_-1f61cf00-14f3bddeade--7fef--0eaf30401f49d231--1f61cf00-14f3bddeade--8000
46
Wrapper for method=getRuntime, sender=ActiveObject_abs.backend.java.lib.runtime.COG_-1f61cf00-14f3bddeade--7fef--0eaf30401f49d231--1f61cf00-14f3bddeade--8000, sequenceNumber=2008733151
1439818512855
ServeStopped
ActiveObject_abs.backend.java.lib.runtime.COG_-1f61cf00-14f3bddeade--7fef--0eaf30401f49d231--1f61cf00-14f3bddeade--8000
46
Wrapper for method=getRuntime, sender=ActiveObject_abs.backend.java.lib.runtime.COG_-1f61cf00-14f3bddeade--7fef--0eaf30401f49d231--1f61cf00-14f3bddeade--8000, sequenceNumber=2008733151
1439818512858
ServeStarted
ActiveObject_abs.backend.java.lib.runtime.COG_-1f61cf00-14f3bddeade--7fef--0eaf30401f49d231--1f61cf00-14f3bddeade--8000
46
Wrapper for method=getRuntime, sender=ActiveObject_abs.backend.java.lib.runtime.COG_-1f61cf00-14f3bddeade--7fef--0eaf30401f49d231--1f61cf00-14f3bddeade--8000, sequenceNumber=2008733152
1439818512859
ServeStopped
ActiveObject_abs.backend.java.lib.runtime.COG_-1f61cf00-14f3bddeade--7fef--0eaf30401f49d231--1f61cf00-14f3bddeade--8000
46
Wrapper for method=getRuntime, sender=ActiveObject_abs.backend.java.lib.runtime.COG_-1f61cf00-14f3bddeade--7fef--0eaf30401f49d231--1f61cf00-14f3bddeade--8000, sequenceNumber=2008733152
1439818512862
ServeStarted
ActiveObject_abs.backend.java.lib.runtime.COG_-1f61cf00-14f3bddeade--7fef--0eaf30401f49d231--1f61cf00-14f3bddeade--8000
46
Wrapper for method=getRuntime, sender=ActiveObject_abs.backend.java.lib.runtime.COG_-1f61cf00-14f3bddeade--7fef--0eaf30401f49d231--1f61cf00-14f3bddeade--8000, sequenceNumber=2008733153
1439818512868
ServeStopped
ActiveObject_abs.backend.java.lib.runtime.COG_-1f61cf00-14f3bddeade--7fef--0eaf30401f49d231--1f61cf00-14f3bddeade--8000
46
Wrapper for method=getRuntime, sender=ActiveObject_abs.backend.java.lib.runtime.COG_-1f61cf00-14f3bddeade--7fef--0eaf30401f49d231--1f61cf00-14f3bddeade--8000, sequenceNumber=2008733153
1439818512875
ServeStarted
ActiveObject_abs.backend.java.lib.runtime.COG_-1f61cf00-14f3bddeade--7fef--0eaf30401f49d231--1f61cf00-14f3bddeade--8000
48
Wrapper for method=suspend, sender=ActiveObject_abs.backend.java.lib.runtime.COG_-1f61cf00-14f3bddeade--7fef--0eaf30401f49d231--1f61cf00-14f3bddeade--8000, sequenceNumber=2008733154
1439818512876
ServeStopped
ActiveObject_abs.backend.java.lib.runtime.COG_-1f61cf00-14f3bddeade--7fef--0eaf30401f49d231--1f61cf00-14f3bddeade--8000
48
Wrapper for method=suspend, sender=ActiveObject_abs.backend.java.lib.runtime.COG_-1f61cf00-14f3bddeade--7fef--0eaf30401f49d231--1f61cf00-14f3bddeade--8000, sequenceNumber=2008733154
1439818512885
ServeStarted
ActiveObject_abs.backend.java.lib.runtime.COG_-1f61cf00-14f3bddeade--7fef--0eaf30401f49d231--1f61cf00-14f3bddeade--8000
48
Wrapper for method=getRuntime, sender=ActiveObject_abs.backend.java.lib.runtime.COG_-1f61cf00-14f3bddeade--7fef--0eaf30401f49d231--1f61cf00-14f3bddeade--8000, sequenceNumber=2008733155
1439818519972
ServeStopped
ActiveObject_abs.backend.java.lib.runtime.COG_-1f61cf00-14f3bddeade--7fef--0eaf30401f49d231--1f61cf00-14f3bddeade--8000
48
Wrapper for method=getRuntime, sender=ActiveObject_abs.backend.java.lib.runtime.COG_-1f61cf00-14f3bddeade--7fef--0eaf30401f49d231--1f61cf00-14f3bddeade--8000, sequenceNumber=2008733155
1439818519976
ServeStarted
ActiveObject_abs.backend.java.lib.runtime.COG_-1f61cf00-14f3bddeade--7fef--0eaf30401f49d231--1f61cf00-14f3bddeade--8000
48
Wrapper for method=getRuntime, sender=ActiveObject_abs.backend.java.lib.runtime.COG_-1f61cf00-14f3bddeade--7fef--0eaf30401f49d231--1f61cf00-14f3bddeade--8000, sequenceNumber=2008733156
1439818519978
ServeStopped
ActiveObject_abs.backend.java.lib.runtime.COG_-1f61cf00-14f3bddeade--7fef--0eaf30401f49d231--1f61cf00-14f3bddeade--8000
48
Wrapper for method=getRuntime, sender=ActiveObject_abs.backend.java.lib.runtime.COG_-1f61cf00-14f3bddeade--7fef--0eaf30401f49d231--1f61cf00-14f3bddeade--8000, sequenceNumber=2008733156
1439818519981
ServeStarted
ActiveObject_abs.backend.java.lib.runtime.COG_-1f61cf00-14f3bddeade--7fef--0eaf30401f49d231--1f61cf00-14f3bddeade--8000
48
Wrapper for method=getRuntime, sender=ActiveObject_abs.backend.java.lib.runtime.COG_-1f61cf00-14f3bddeade--7fef--0eaf30401f49d231--1f61cf00-14f3bddeade--8000, sequenceNumber=2008733157
1439818519982
ServeStopped
ActiveObject_abs.backend.java.lib.runtime.COG_-1f61cf00-14f3bddeade--7fef--0eaf30401f49d231--1f61cf00-14f3bddeade--8000
48
Wrapper for method=getRuntime, sender=ActiveObject_abs.backend.java.lib.runtime.COG_-1f61cf00-14f3bddeade--7fef--0eaf30401f49d231--1f61cf00-14f3bddeade--8000, sequenceNumber=2008733157
1439818519985
ServeStarted
ActiveObject_abs.backend.java.lib.runtime.COG_-1f61cf00-14f3bddeade--7fef--0eaf30401f49d231--1f61cf00-14f3bddeade--8000
48
Wrapper for method=getRuntime, sender=ActiveObject_abs.backend.java.lib.runtime.COG_-1f61cf00-14f3bddeade--7fef--0eaf30401f49d231--1f61cf00-14f3bddeade--8000, sequenceNumber=2008733158
1439818519986
ServeStopped
ActiveObject_abs.backend.java.lib.runtime.COG_-1f61cf00-14f3bddeade--7fef--0eaf30401f49d231--1f61cf00-14f3bddeade--8000
48
Wrapper for method=getRuntime, sender=ActiveObject_abs.backend.java.lib.runtime.COG_-1f61cf00-14f3bddeade--7fef--0eaf30401f49d231--1f61cf00-14f3bddeade--8000, sequenceNumber=2008733158
1439818519990
ServeStarted
ActiveObject_abs.backend.java.lib.runtime.COG_-1f61cf00-14f3bddeade--7fef--0eaf30401f49d231--1f61cf00-14f3bddeade--8000
48
Wrapper for method=getRuntime, sender=ActiveObject_abs.backend.java.lib.runtime.COG_-1f61cf00-14f3bddeade--7fef--0eaf30401f49d231--1f61cf00-14f3bddeade--8000, sequenceNumber=2008733159
1439818519991
ServeStopped
ActiveObject_abs.backend.java.lib.runtime.COG_-1f61cf00-14f3bddeade--7fef--0eaf30401f49d231--1f61cf00-14f3bddeade--8000
48
Wrapper for method=getRuntime, sender=ActiveObject_abs.backend.java.lib.runtime.COG_-1f61cf00-14f3bddeade--7fef--0eaf30401f49d231--1f61cf00-14f3bddeade--8000, sequenceNumber=2008733159
1439818519994
ServeStarted
ActiveObject_abs.backend.java.lib.runtime.COG_-1f61cf00-14f3bddeade--7fef--0eaf30401f49d231--1f61cf00-14f3bddeade--8000
48
Wrapper for method=getRuntime, sender=ActiveObject_abs.backend.java.lib.runtime.COG_-1f61cf00-14f3bddeade--7fef--0eaf30401f49d231--1f61cf00-14f3bddeade--8000, sequenceNumber=2008733160
1439818519996
ServeStopped
ActiveObject_abs.backend.java.lib.runtime.COG_-1f61cf00-14f3bddeade--7fef--0eaf30401f49d231--1f61cf00-14f3bddeade--8000
48
Wrapper for method=getRuntime, sender=ActiveObject_abs.backend.java.lib.runtime.COG_-1f61cf00-14f3bddeade--7fef--0eaf30401f49d231--1f61cf00-14f3bddeade--8000, sequenceNumber=2008733160
1439818520000
ServeStarted
ActiveObject_abs.backend.java.lib.runtime.COG_-1f61cf00-14f3bddeade--7fef--0eaf30401f49d231--1f61cf00-14f3bddeade--8000
48
Wrapper for method=getRuntime, sender=ActiveObject_abs.backend.java.lib.runtime.COG_-1f61cf00-14f3bddeade--7fef--0eaf30401f49d231--1f61cf00-14f3bddeade--8000, sequenceNumber=2008733161
1439818520001
ServeStopped
ActiveObject_abs.backend.java.lib.runtime.COG_-1f61cf00-14f3bddeade--7fef--0eaf30401f49d231--1f61cf00-14f3bddeade--8000
48
Wrapper for method=getRuntime, sender=ActiveObject_abs.backend.java.lib.runtime.COG_-1f61cf00-14f3bddeade--7fef--0eaf30401f49d231--1f61cf00-14f3bddeade--8000, sequenceNumber=2008733161
1439818520004
ServeStarted
ActiveObject_abs.backend.java.lib.runtime.COG_-1f61cf00-14f3bddeade--7fef--0eaf30401f49d231--1f61cf00-14f3bddeade--8000
48
Wrapper for method=getRuntime, sender=ActiveObject_abs.backend.java.lib.runtime.COG_-1f61cf00-14f3bddeade--7fef--0eaf30401f49d231--1f61cf00-14f3bddeade--8000, sequenceNumber=2008733163
1439818520038
ServeStopped
ActiveObject_abs.backend.java.lib.runtime.COG_-1f61cf00-14f3bddeade--7fef--0eaf30401f49d231--1f61cf00-14f3bddeade--8000
48
Wrapper for method=getRuntime, sender=ActiveObject_abs.backend.java.lib.runtime.COG_-1f61cf00-14f3bddeade--7fef--0eaf30401f49d231--1f61cf00-14f3bddeade--8000, sequenceNumber=2008733163
1439818520041
ServeStopped
ActiveObject_abs.backend.java.lib.runtime.COG_-1f61cf00-14f3bddeade--7fef--0eaf30401f49d231--1f61cf00-14f3bddeade--8000
34
Wrapper for method=execute, sender=ActiveObject_abs.backend.java.lib.runtime.COG_-613e2820-14f3bdde9ec--7ff2--068760b28f267db7--613e2820-14f3bdde9ec--8000, sequenceNumber=2008733428
1439818520046
