ServeStarted
ActiveObject_abs.backend.java.lib.runtime.COG_6b1f7325-14f3bddeb2a--7fef--d1b05a4e2c0cf2d6-6b1f7325-14f3bddeb2a--8000
32
Wrapper for method=getID, sender=ActiveObject_abs.backend.java.lib.runtime.COG_-613e2820-14f3bdde9ec--7ff2--068760b28f267db7--613e2820-14f3bdde9ec--8000, sequenceNumber=2008732989
1439818476686
ServeStopped
ActiveObject_abs.backend.java.lib.runtime.COG_6b1f7325-14f3bddeb2a--7fef--d1b05a4e2c0cf2d6-6b1f7325-14f3bddeb2a--8000
32
Wrapper for method=getID, sender=ActiveObject_abs.backend.java.lib.runtime.COG_-613e2820-14f3bdde9ec--7ff2--068760b28f267db7--613e2820-14f3bdde9ec--8000, sequenceNumber=2008732989
1439818476704
ServeStarted
ActiveObject_abs.backend.java.lib.runtime.COG_6b1f7325-14f3bddeb2a--7fef--d1b05a4e2c0cf2d6-6b1f7325-14f3bddeb2a--8000
32
Wrapper for method=getRuntime, sender=ActiveObject_abs.backend.java.lib.runtime.COG_-613e2820-14f3bdde9ec--7ff2--068760b28f267db7--613e2820-14f3bdde9ec--8000, sequenceNumber=2008732993
1439818476714
ServeStopped
ActiveObject_abs.backend.java.lib.runtime.COG_6b1f7325-14f3bddeb2a--7fef--d1b05a4e2c0cf2d6-6b1f7325-14f3bddeb2a--8000
32
Wrapper for method=getRuntime, sender=ActiveObject_abs.backend.java.lib.runtime.COG_-613e2820-14f3bdde9ec--7ff2--068760b28f267db7--613e2820-14f3bdde9ec--8000, sequenceNumber=2008732993
1439818476720
ServeStarted
ActiveObject_abs.backend.java.lib.runtime.COG_6b1f7325-14f3bddeb2a--7fef--d1b05a4e2c0cf2d6-6b1f7325-14f3bddeb2a--8000
32
Wrapper for method=register, sender=ActiveObject_abs.backend.java.lib.runtime.COG_-613e2820-14f3bdde9ec--7ff2--068760b28f267db7--613e2820-14f3bdde9ec--8000, sequenceNumber=2008732994
1439818476754
ServeStopped
ActiveObject_abs.backend.java.lib.runtime.COG_6b1f7325-14f3bddeb2a--7fef--d1b05a4e2c0cf2d6-6b1f7325-14f3bddeb2a--8000
32
Wrapper for method=register, sender=ActiveObject_abs.backend.java.lib.runtime.COG_-613e2820-14f3bdde9ec--7ff2--068760b28f267db7--613e2820-14f3bdde9ec--8000, sequenceNumber=2008732994
1439818476754
ServeStarted
ActiveObject_abs.backend.java.lib.runtime.COG_6b1f7325-14f3bddeb2a--7fef--d1b05a4e2c0cf2d6-6b1f7325-14f3bddeb2a--8000
32
Wrapper for method=objectCreated, sender=ActiveObject_abs.backend.java.lib.runtime.COG_-613e2820-14f3bdde9ec--7ff2--068760b28f267db7--613e2820-14f3bdde9ec--8000, sequenceNumber=2008732995
1439818476933
ServeStopped
ActiveObject_abs.backend.java.lib.runtime.COG_6b1f7325-14f3bddeb2a--7fef--d1b05a4e2c0cf2d6-6b1f7325-14f3bddeb2a--8000
32
Wrapper for method=objectCreated, sender=ActiveObject_abs.backend.java.lib.runtime.COG_-613e2820-14f3bdde9ec--7ff2--068760b28f267db7--613e2820-14f3bdde9ec--8000, sequenceNumber=2008732995
1439818476933
ServeStarted
ActiveObject_abs.backend.java.lib.runtime.COG_6b1f7325-14f3bddeb2a--7fef--d1b05a4e2c0cf2d6-6b1f7325-14f3bddeb2a--8000
32
Wrapper for method=objectInitialized, sender=ActiveObject_abs.backend.java.lib.runtime.COG_-613e2820-14f3bdde9ec--7ff2--068760b28f267db7--613e2820-14f3bdde9ec--8000, sequenceNumber=2008732996
1439818477010
ServeStopped
ActiveObject_abs.backend.java.lib.runtime.COG_6b1f7325-14f3bddeb2a--7fef--d1b05a4e2c0cf2d6-6b1f7325-14f3bddeb2a--8000
32
Wrapper for method=objectInitialized, sender=ActiveObject_abs.backend.java.lib.runtime.COG_-613e2820-14f3bdde9ec--7ff2--068760b28f267db7--613e2820-14f3bdde9ec--8000, sequenceNumber=2008732996
1439818477010
ServeStarted
ActiveObject_abs.backend.java.lib.runtime.COG_6b1f7325-14f3bddeb2a--7fef--d1b05a4e2c0cf2d6-6b1f7325-14f3bddeb2a--8000
32
Wrapper for method=registerObject, sender=ActiveObject_abs.backend.java.lib.runtime.COG_-613e2820-14f3bdde9ec--7ff2--068760b28f267db7--613e2820-14f3bdde9ec--8000, sequenceNumber=2008732997
1439818477083
ServeStopped
ActiveObject_abs.backend.java.lib.runtime.COG_6b1f7325-14f3bddeb2a--7fef--d1b05a4e2c0cf2d6-6b1f7325-14f3bddeb2a--8000
32
Wrapper for method=registerObject, sender=ActiveObject_abs.backend.java.lib.runtime.COG_-613e2820-14f3bdde9ec--7ff2--068760b28f267db7--613e2820-14f3bdde9ec--8000, sequenceNumber=2008732997
1439818477084
ServeStarted
ActiveObject_abs.backend.java.lib.runtime.COG_6b1f7325-14f3bddeb2a--7fef--d1b05a4e2c0cf2d6-6b1f7325-14f3bddeb2a--8000
32
Wrapper for method=execute, sender=ActiveObject_abs.backend.java.lib.runtime.COG_-613e2820-14f3bdde9ec--7ff2--068760b28f267db7--613e2820-14f3bdde9ec--8000, sequenceNumber=2008733207
1439818492678
ServeStarted
ActiveObject_abs.backend.java.lib.runtime.COG_6b1f7325-14f3bddeb2a--7fef--d1b05a4e2c0cf2d6-6b1f7325-14f3bddeb2a--8000
59
Wrapper for method=getRuntime, sender=ActiveObject_abs.backend.java.lib.runtime.COG_6b1f7325-14f3bddeb2a--7fef--d1b05a4e2c0cf2d6-6b1f7325-14f3bddeb2a--8000, sequenceNumber=2008733287
1439818494739
ServeStopped
ActiveObject_abs.backend.java.lib.runtime.COG_6b1f7325-14f3bddeb2a--7fef--d1b05a4e2c0cf2d6-6b1f7325-14f3bddeb2a--8000
59
Wrapper for method=getRuntime, sender=ActiveObject_abs.backend.java.lib.runtime.COG_6b1f7325-14f3bddeb2a--7fef--d1b05a4e2c0cf2d6-6b1f7325-14f3bddeb2a--8000, sequenceNumber=2008733287
1439818494743
ServeStarted
ActiveObject_abs.backend.java.lib.runtime.COG_6b1f7325-14f3bddeb2a--7fef--d1b05a4e2c0cf2d6-6b1f7325-14f3bddeb2a--8000
59
Wrapper for method=getRuntime, sender=ActiveObject_abs.backend.java.lib.runtime.COG_6b1f7325-14f3bddeb2a--7fef--d1b05a4e2c0cf2d6-6b1f7325-14f3bddeb2a--8000, sequenceNumber=2008733288
1439818494745
ServeStopped
ActiveObject_abs.backend.java.lib.runtime.COG_6b1f7325-14f3bddeb2a--7fef--d1b05a4e2c0cf2d6-6b1f7325-14f3bddeb2a--8000
59
Wrapper for method=getRuntime, sender=ActiveObject_abs.backend.java.lib.runtime.COG_6b1f7325-14f3bddeb2a--7fef--d1b05a4e2c0cf2d6-6b1f7325-14f3bddeb2a--8000, sequenceNumber=2008733288
1439818494748
ServeStarted
ActiveObject_abs.backend.java.lib.runtime.COG_6b1f7325-14f3bddeb2a--7fef--d1b05a4e2c0cf2d6-6b1f7325-14f3bddeb2a--8000
59
Wrapper for method=getRuntime, sender=ActiveObject_abs.backend.java.lib.runtime.COG_6b1f7325-14f3bddeb2a--7fef--d1b05a4e2c0cf2d6-6b1f7325-14f3bddeb2a--8000, sequenceNumber=2008733289
1439818494749
ServeStopped
ActiveObject_abs.backend.java.lib.runtime.COG_6b1f7325-14f3bddeb2a--7fef--d1b05a4e2c0cf2d6-6b1f7325-14f3bddeb2a--8000
59
Wrapper for method=getRuntime, sender=ActiveObject_abs.backend.java.lib.runtime.COG_6b1f7325-14f3bddeb2a--7fef--d1b05a4e2c0cf2d6-6b1f7325-14f3bddeb2a--8000, sequenceNumber=2008733289
1439818494753
ServeStarted
ActiveObject_abs.backend.java.lib.runtime.COG_6b1f7325-14f3bddeb2a--7fef--d1b05a4e2c0cf2d6-6b1f7325-14f3bddeb2a--8000
59
Wrapper for method=getRuntime, sender=ActiveObject_abs.backend.java.lib.runtime.COG_6b1f7325-14f3bddeb2a--7fef--d1b05a4e2c0cf2d6-6b1f7325-14f3bddeb2a--8000, sequenceNumber=2008733290
1439818494755
ServeStopped
ActiveObject_abs.backend.java.lib.runtime.COG_6b1f7325-14f3bddeb2a--7fef--d1b05a4e2c0cf2d6-6b1f7325-14f3bddeb2a--8000
59
Wrapper for method=getRuntime, sender=ActiveObject_abs.backend.java.lib.runtime.COG_6b1f7325-14f3bddeb2a--7fef--d1b05a4e2c0cf2d6-6b1f7325-14f3bddeb2a--8000, sequenceNumber=2008733290
1439818494758
ServeStarted
ActiveObject_abs.backend.java.lib.runtime.COG_6b1f7325-14f3bddeb2a--7fef--d1b05a4e2c0cf2d6-6b1f7325-14f3bddeb2a--8000
59
Wrapper for method=suspend, sender=ActiveObject_abs.backend.java.lib.runtime.COG_6b1f7325-14f3bddeb2a--7fef--d1b05a4e2c0cf2d6-6b1f7325-14f3bddeb2a--8000, sequenceNumber=2008733291
1439818494924
ServeStopped
ActiveObject_abs.backend.java.lib.runtime.COG_6b1f7325-14f3bddeb2a--7fef--d1b05a4e2c0cf2d6-6b1f7325-14f3bddeb2a--8000
59
Wrapper for method=suspend, sender=ActiveObject_abs.backend.java.lib.runtime.COG_6b1f7325-14f3bddeb2a--7fef--d1b05a4e2c0cf2d6-6b1f7325-14f3bddeb2a--8000, sequenceNumber=2008733291
1439818494930
ServeStarted
ActiveObject_abs.backend.java.lib.runtime.COG_6b1f7325-14f3bddeb2a--7fef--d1b05a4e2c0cf2d6-6b1f7325-14f3bddeb2a--8000
59
Wrapper for method=getRuntime, sender=ActiveObject_abs.backend.java.lib.runtime.COG_6b1f7325-14f3bddeb2a--7fef--d1b05a4e2c0cf2d6-6b1f7325-14f3bddeb2a--8000, sequenceNumber=2008733292
1439818503266
ServeStopped
ActiveObject_abs.backend.java.lib.runtime.COG_6b1f7325-14f3bddeb2a--7fef--d1b05a4e2c0cf2d6-6b1f7325-14f3bddeb2a--8000
59
Wrapper for method=getRuntime, sender=ActiveObject_abs.backend.java.lib.runtime.COG_6b1f7325-14f3bddeb2a--7fef--d1b05a4e2c0cf2d6-6b1f7325-14f3bddeb2a--8000, sequenceNumber=2008733292
1439818503270
ServeStarted
ActiveObject_abs.backend.java.lib.runtime.COG_6b1f7325-14f3bddeb2a--7fef--d1b05a4e2c0cf2d6-6b1f7325-14f3bddeb2a--8000
59
Wrapper for method=getRuntime, sender=ActiveObject_abs.backend.java.lib.runtime.COG_6b1f7325-14f3bddeb2a--7fef--d1b05a4e2c0cf2d6-6b1f7325-14f3bddeb2a--8000, sequenceNumber=2008733293
1439818503272
ServeStopped
ActiveObject_abs.backend.java.lib.runtime.COG_6b1f7325-14f3bddeb2a--7fef--d1b05a4e2c0cf2d6-6b1f7325-14f3bddeb2a--8000
59
Wrapper for method=getRuntime, sender=ActiveObject_abs.backend.java.lib.runtime.COG_6b1f7325-14f3bddeb2a--7fef--d1b05a4e2c0cf2d6-6b1f7325-14f3bddeb2a--8000, sequenceNumber=2008733293
1439818503276
ServeStarted
ActiveObject_abs.backend.java.lib.runtime.COG_6b1f7325-14f3bddeb2a--7fef--d1b05a4e2c0cf2d6-6b1f7325-14f3bddeb2a--8000
59
Wrapper for method=getRuntime, sender=ActiveObject_abs.backend.java.lib.runtime.COG_6b1f7325-14f3bddeb2a--7fef--d1b05a4e2c0cf2d6-6b1f7325-14f3bddeb2a--8000, sequenceNumber=2008733294
1439818503277
ServeStopped
ActiveObject_abs.backend.java.lib.runtime.COG_6b1f7325-14f3bddeb2a--7fef--d1b05a4e2c0cf2d6-6b1f7325-14f3bddeb2a--8000
59
Wrapper for method=getRuntime, sender=ActiveObject_abs.backend.java.lib.runtime.COG_6b1f7325-14f3bddeb2a--7fef--d1b05a4e2c0cf2d6-6b1f7325-14f3bddeb2a--8000, sequenceNumber=2008733294
1439818503280
ServeStarted
ActiveObject_abs.backend.java.lib.runtime.COG_6b1f7325-14f3bddeb2a--7fef--d1b05a4e2c0cf2d6-6b1f7325-14f3bddeb2a--8000
59
Wrapper for method=getRuntime, sender=ActiveObject_abs.backend.java.lib.runtime.COG_6b1f7325-14f3bddeb2a--7fef--d1b05a4e2c0cf2d6-6b1f7325-14f3bddeb2a--8000, sequenceNumber=2008733295
1439818503282
ServeStopped
ActiveObject_abs.backend.java.lib.runtime.COG_6b1f7325-14f3bddeb2a--7fef--d1b05a4e2c0cf2d6-6b1f7325-14f3bddeb2a--8000
59
Wrapper for method=getRuntime, sender=ActiveObject_abs.backend.java.lib.runtime.COG_6b1f7325-14f3bddeb2a--7fef--d1b05a4e2c0cf2d6-6b1f7325-14f3bddeb2a--8000, sequenceNumber=2008733295
1439818503284
ServeStarted
ActiveObject_abs.backend.java.lib.runtime.COG_6b1f7325-14f3bddeb2a--7fef--d1b05a4e2c0cf2d6-6b1f7325-14f3bddeb2a--8000
59
Wrapper for method=getRuntime, sender=ActiveObject_abs.backend.java.lib.runtime.COG_6b1f7325-14f3bddeb2a--7fef--d1b05a4e2c0cf2d6-6b1f7325-14f3bddeb2a--8000, sequenceNumber=2008733296
1439818503286
ServeStopped
ActiveObject_abs.backend.java.lib.runtime.COG_6b1f7325-14f3bddeb2a--7fef--d1b05a4e2c0cf2d6-6b1f7325-14f3bddeb2a--8000
59
Wrapper for method=getRuntime, sender=ActiveObject_abs.backend.java.lib.runtime.COG_6b1f7325-14f3bddeb2a--7fef--d1b05a4e2c0cf2d6-6b1f7325-14f3bddeb2a--8000, sequenceNumber=2008733296
1439818503289
ServeStarted
ActiveObject_abs.backend.java.lib.runtime.COG_6b1f7325-14f3bddeb2a--7fef--d1b05a4e2c0cf2d6-6b1f7325-14f3bddeb2a--8000
59
Wrapper for method=getRuntime, sender=ActiveObject_abs.backend.java.lib.runtime.COG_6b1f7325-14f3bddeb2a--7fef--d1b05a4e2c0cf2d6-6b1f7325-14f3bddeb2a--8000, sequenceNumber=2008733297
1439818503291
ServeStopped
ActiveObject_abs.backend.java.lib.runtime.COG_6b1f7325-14f3bddeb2a--7fef--d1b05a4e2c0cf2d6-6b1f7325-14f3bddeb2a--8000
59
Wrapper for method=getRuntime, sender=ActiveObject_abs.backend.java.lib.runtime.COG_6b1f7325-14f3bddeb2a--7fef--d1b05a4e2c0cf2d6-6b1f7325-14f3bddeb2a--8000, sequenceNumber=2008733297
1439818503294
ServeStarted
ActiveObject_abs.backend.java.lib.runtime.COG_6b1f7325-14f3bddeb2a--7fef--d1b05a4e2c0cf2d6-6b1f7325-14f3bddeb2a--8000
59
Wrapper for method=getRuntime, sender=ActiveObject_abs.backend.java.lib.runtime.COG_6b1f7325-14f3bddeb2a--7fef--d1b05a4e2c0cf2d6-6b1f7325-14f3bddeb2a--8000, sequenceNumber=2008733298
1439818503295
ServeStopped
ActiveObject_abs.backend.java.lib.runtime.COG_6b1f7325-14f3bddeb2a--7fef--d1b05a4e2c0cf2d6-6b1f7325-14f3bddeb2a--8000
59
Wrapper for method=getRuntime, sender=ActiveObject_abs.backend.java.lib.runtime.COG_6b1f7325-14f3bddeb2a--7fef--d1b05a4e2c0cf2d6-6b1f7325-14f3bddeb2a--8000, sequenceNumber=2008733298
1439818503298
ServeStarted
ActiveObject_abs.backend.java.lib.runtime.COG_6b1f7325-14f3bddeb2a--7fef--d1b05a4e2c0cf2d6-6b1f7325-14f3bddeb2a--8000
59
Wrapper for method=getRuntime, sender=ActiveObject_abs.backend.java.lib.runtime.COG_6b1f7325-14f3bddeb2a--7fef--d1b05a4e2c0cf2d6-6b1f7325-14f3bddeb2a--8000, sequenceNumber=2008733300
1439818503483
ServeStopped
ActiveObject_abs.backend.java.lib.runtime.COG_6b1f7325-14f3bddeb2a--7fef--d1b05a4e2c0cf2d6-6b1f7325-14f3bddeb2a--8000
59
Wrapper for method=getRuntime, sender=ActiveObject_abs.backend.java.lib.runtime.COG_6b1f7325-14f3bddeb2a--7fef--d1b05a4e2c0cf2d6-6b1f7325-14f3bddeb2a--8000, sequenceNumber=2008733300
1439818503486
ServeStopped
ActiveObject_abs.backend.java.lib.runtime.COG_6b1f7325-14f3bddeb2a--7fef--d1b05a4e2c0cf2d6-6b1f7325-14f3bddeb2a--8000
32
Wrapper for method=execute, sender=ActiveObject_abs.backend.java.lib.runtime.COG_-613e2820-14f3bdde9ec--7ff2--068760b28f267db7--613e2820-14f3bdde9ec--8000, sequenceNumber=2008733207
1439818503490
ServeStarted
ActiveObject_abs.backend.java.lib.runtime.COG_6b1f7325-14f3bddeb2a--7fef--d1b05a4e2c0cf2d6-6b1f7325-14f3bddeb2a--8000
32
Wrapper for method=execute, sender=ActiveObject_abs.backend.java.lib.runtime.COG_-613e2820-14f3bdde9ec--7ff2--068760b28f267db7--613e2820-14f3bdde9ec--8000, sequenceNumber=2008733532
1439818513306
ServeStarted
ActiveObject_abs.backend.java.lib.runtime.COG_6b1f7325-14f3bddeb2a--7fef--d1b05a4e2c0cf2d6-6b1f7325-14f3bddeb2a--8000
59
Wrapper for method=getRuntime, sender=ActiveObject_abs.backend.java.lib.runtime.COG_6b1f7325-14f3bddeb2a--7fef--d1b05a4e2c0cf2d6-6b1f7325-14f3bddeb2a--8000, sequenceNumber=2008733302
1439818513310
ServeStopped
ActiveObject_abs.backend.java.lib.runtime.COG_6b1f7325-14f3bddeb2a--7fef--d1b05a4e2c0cf2d6-6b1f7325-14f3bddeb2a--8000
59
Wrapper for method=getRuntime, sender=ActiveObject_abs.backend.java.lib.runtime.COG_6b1f7325-14f3bddeb2a--7fef--d1b05a4e2c0cf2d6-6b1f7325-14f3bddeb2a--8000, sequenceNumber=2008733302
1439818513313
ServeStarted
ActiveObject_abs.backend.java.lib.runtime.COG_6b1f7325-14f3bddeb2a--7fef--d1b05a4e2c0cf2d6-6b1f7325-14f3bddeb2a--8000
59
Wrapper for method=getRuntime, sender=ActiveObject_abs.backend.java.lib.runtime.COG_6b1f7325-14f3bddeb2a--7fef--d1b05a4e2c0cf2d6-6b1f7325-14f3bddeb2a--8000, sequenceNumber=2008733303
1439818513315
ServeStopped
ActiveObject_abs.backend.java.lib.runtime.COG_6b1f7325-14f3bddeb2a--7fef--d1b05a4e2c0cf2d6-6b1f7325-14f3bddeb2a--8000
59
Wrapper for method=getRuntime, sender=ActiveObject_abs.backend.java.lib.runtime.COG_6b1f7325-14f3bddeb2a--7fef--d1b05a4e2c0cf2d6-6b1f7325-14f3bddeb2a--8000, sequenceNumber=2008733303
1439818513318
ServeStarted
ActiveObject_abs.backend.java.lib.runtime.COG_6b1f7325-14f3bddeb2a--7fef--d1b05a4e2c0cf2d6-6b1f7325-14f3bddeb2a--8000
59
Wrapper for method=getRuntime, sender=ActiveObject_abs.backend.java.lib.runtime.COG_6b1f7325-14f3bddeb2a--7fef--d1b05a4e2c0cf2d6-6b1f7325-14f3bddeb2a--8000, sequenceNumber=2008733304
1439818513320
ServeStopped
ActiveObject_abs.backend.java.lib.runtime.COG_6b1f7325-14f3bddeb2a--7fef--d1b05a4e2c0cf2d6-6b1f7325-14f3bddeb2a--8000
59
Wrapper for method=getRuntime, sender=ActiveObject_abs.backend.java.lib.runtime.COG_6b1f7325-14f3bddeb2a--7fef--d1b05a4e2c0cf2d6-6b1f7325-14f3bddeb2a--8000, sequenceNumber=2008733304
1439818513323
ServeStarted
ActiveObject_abs.backend.java.lib.runtime.COG_6b1f7325-14f3bddeb2a--7fef--d1b05a4e2c0cf2d6-6b1f7325-14f3bddeb2a--8000
59
Wrapper for method=getRuntime, sender=ActiveObject_abs.backend.java.lib.runtime.COG_6b1f7325-14f3bddeb2a--7fef--d1b05a4e2c0cf2d6-6b1f7325-14f3bddeb2a--8000, sequenceNumber=2008733305
1439818513325
ServeStopped
ActiveObject_abs.backend.java.lib.runtime.COG_6b1f7325-14f3bddeb2a--7fef--d1b05a4e2c0cf2d6-6b1f7325-14f3bddeb2a--8000
59
Wrapper for method=getRuntime, sender=ActiveObject_abs.backend.java.lib.runtime.COG_6b1f7325-14f3bddeb2a--7fef--d1b05a4e2c0cf2d6-6b1f7325-14f3bddeb2a--8000, sequenceNumber=2008733305
1439818513329
ServeStarted
ActiveObject_abs.backend.java.lib.runtime.COG_6b1f7325-14f3bddeb2a--7fef--d1b05a4e2c0cf2d6-6b1f7325-14f3bddeb2a--8000
59
Wrapper for method=suspend, sender=ActiveObject_abs.backend.java.lib.runtime.COG_6b1f7325-14f3bddeb2a--7fef--d1b05a4e2c0cf2d6-6b1f7325-14f3bddeb2a--8000, sequenceNumber=2008733306
1439818513332
ServeStopped
ActiveObject_abs.backend.java.lib.runtime.COG_6b1f7325-14f3bddeb2a--7fef--d1b05a4e2c0cf2d6-6b1f7325-14f3bddeb2a--8000
59
Wrapper for method=suspend, sender=ActiveObject_abs.backend.java.lib.runtime.COG_6b1f7325-14f3bddeb2a--7fef--d1b05a4e2c0cf2d6-6b1f7325-14f3bddeb2a--8000, sequenceNumber=2008733306
1439818513333
ServeStarted
ActiveObject_abs.backend.java.lib.runtime.COG_6b1f7325-14f3bddeb2a--7fef--d1b05a4e2c0cf2d6-6b1f7325-14f3bddeb2a--8000
59
Wrapper for method=getRuntime, sender=ActiveObject_abs.backend.java.lib.runtime.COG_6b1f7325-14f3bddeb2a--7fef--d1b05a4e2c0cf2d6-6b1f7325-14f3bddeb2a--8000, sequenceNumber=2008733307
1439818520436
ServeStopped
ActiveObject_abs.backend.java.lib.runtime.COG_6b1f7325-14f3bddeb2a--7fef--d1b05a4e2c0cf2d6-6b1f7325-14f3bddeb2a--8000
59
Wrapper for method=getRuntime, sender=ActiveObject_abs.backend.java.lib.runtime.COG_6b1f7325-14f3bddeb2a--7fef--d1b05a4e2c0cf2d6-6b1f7325-14f3bddeb2a--8000, sequenceNumber=2008733307
1439818520439
ServeStarted
ActiveObject_abs.backend.java.lib.runtime.COG_6b1f7325-14f3bddeb2a--7fef--d1b05a4e2c0cf2d6-6b1f7325-14f3bddeb2a--8000
59
Wrapper for method=getRuntime, sender=ActiveObject_abs.backend.java.lib.runtime.COG_6b1f7325-14f3bddeb2a--7fef--d1b05a4e2c0cf2d6-6b1f7325-14f3bddeb2a--8000, sequenceNumber=2008733308
1439818520441
ServeStopped
ActiveObject_abs.backend.java.lib.runtime.COG_6b1f7325-14f3bddeb2a--7fef--d1b05a4e2c0cf2d6-6b1f7325-14f3bddeb2a--8000
59
Wrapper for method=getRuntime, sender=ActiveObject_abs.backend.java.lib.runtime.COG_6b1f7325-14f3bddeb2a--7fef--d1b05a4e2c0cf2d6-6b1f7325-14f3bddeb2a--8000, sequenceNumber=2008733308
1439818520444
ServeStarted
ActiveObject_abs.backend.java.lib.runtime.COG_6b1f7325-14f3bddeb2a--7fef--d1b05a4e2c0cf2d6-6b1f7325-14f3bddeb2a--8000
59
Wrapper for method=getRuntime, sender=ActiveObject_abs.backend.java.lib.runtime.COG_6b1f7325-14f3bddeb2a--7fef--d1b05a4e2c0cf2d6-6b1f7325-14f3bddeb2a--8000, sequenceNumber=2008733309
1439818520446
ServeStopped
ActiveObject_abs.backend.java.lib.runtime.COG_6b1f7325-14f3bddeb2a--7fef--d1b05a4e2c0cf2d6-6b1f7325-14f3bddeb2a--8000
59
Wrapper for method=getRuntime, sender=ActiveObject_abs.backend.java.lib.runtime.COG_6b1f7325-14f3bddeb2a--7fef--d1b05a4e2c0cf2d6-6b1f7325-14f3bddeb2a--8000, sequenceNumber=2008733309
1439818520449
ServeStarted
ActiveObject_abs.backend.java.lib.runtime.COG_6b1f7325-14f3bddeb2a--7fef--d1b05a4e2c0cf2d6-6b1f7325-14f3bddeb2a--8000
59
Wrapper for method=getRuntime, sender=ActiveObject_abs.backend.java.lib.runtime.COG_6b1f7325-14f3bddeb2a--7fef--d1b05a4e2c0cf2d6-6b1f7325-14f3bddeb2a--8000, sequenceNumber=2008733310
1439818520451
ServeStopped
ActiveObject_abs.backend.java.lib.runtime.COG_6b1f7325-14f3bddeb2a--7fef--d1b05a4e2c0cf2d6-6b1f7325-14f3bddeb2a--8000
59
Wrapper for method=getRuntime, sender=ActiveObject_abs.backend.java.lib.runtime.COG_6b1f7325-14f3bddeb2a--7fef--d1b05a4e2c0cf2d6-6b1f7325-14f3bddeb2a--8000, sequenceNumber=2008733310
1439818520454
ServeStarted
ActiveObject_abs.backend.java.lib.runtime.COG_6b1f7325-14f3bddeb2a--7fef--d1b05a4e2c0cf2d6-6b1f7325-14f3bddeb2a--8000
59
Wrapper for method=getRuntime, sender=ActiveObject_abs.backend.java.lib.runtime.COG_6b1f7325-14f3bddeb2a--7fef--d1b05a4e2c0cf2d6-6b1f7325-14f3bddeb2a--8000, sequenceNumber=2008733311
1439818520456
ServeStopped
ActiveObject_abs.backend.java.lib.runtime.COG_6b1f7325-14f3bddeb2a--7fef--d1b05a4e2c0cf2d6-6b1f7325-14f3bddeb2a--8000
59
Wrapper for method=getRuntime, sender=ActiveObject_abs.backend.java.lib.runtime.COG_6b1f7325-14f3bddeb2a--7fef--d1b05a4e2c0cf2d6-6b1f7325-14f3bddeb2a--8000, sequenceNumber=2008733311
1439818520459
ServeStarted
ActiveObject_abs.backend.java.lib.runtime.COG_6b1f7325-14f3bddeb2a--7fef--d1b05a4e2c0cf2d6-6b1f7325-14f3bddeb2a--8000
59
Wrapper for method=getRuntime, sender=ActiveObject_abs.backend.java.lib.runtime.COG_6b1f7325-14f3bddeb2a--7fef--d1b05a4e2c0cf2d6-6b1f7325-14f3bddeb2a--8000, sequenceNumber=2008733312
1439818520461
ServeStopped
ActiveObject_abs.backend.java.lib.runtime.COG_6b1f7325-14f3bddeb2a--7fef--d1b05a4e2c0cf2d6-6b1f7325-14f3bddeb2a--8000
59
Wrapper for method=getRuntime, sender=ActiveObject_abs.backend.java.lib.runtime.COG_6b1f7325-14f3bddeb2a--7fef--d1b05a4e2c0cf2d6-6b1f7325-14f3bddeb2a--8000, sequenceNumber=2008733312
1439818520464
ServeStarted
ActiveObject_abs.backend.java.lib.runtime.COG_6b1f7325-14f3bddeb2a--7fef--d1b05a4e2c0cf2d6-6b1f7325-14f3bddeb2a--8000
59
Wrapper for method=getRuntime, sender=ActiveObject_abs.backend.java.lib.runtime.COG_6b1f7325-14f3bddeb2a--7fef--d1b05a4e2c0cf2d6-6b1f7325-14f3bddeb2a--8000, sequenceNumber=2008733313
1439818520466
ServeStopped
ActiveObject_abs.backend.java.lib.runtime.COG_6b1f7325-14f3bddeb2a--7fef--d1b05a4e2c0cf2d6-6b1f7325-14f3bddeb2a--8000
59
Wrapper for method=getRuntime, sender=ActiveObject_abs.backend.java.lib.runtime.COG_6b1f7325-14f3bddeb2a--7fef--d1b05a4e2c0cf2d6-6b1f7325-14f3bddeb2a--8000, sequenceNumber=2008733313
1439818520469
ServeStarted
ActiveObject_abs.backend.java.lib.runtime.COG_6b1f7325-14f3bddeb2a--7fef--d1b05a4e2c0cf2d6-6b1f7325-14f3bddeb2a--8000
59
Wrapper for method=getRuntime, sender=ActiveObject_abs.backend.java.lib.runtime.COG_6b1f7325-14f3bddeb2a--7fef--d1b05a4e2c0cf2d6-6b1f7325-14f3bddeb2a--8000, sequenceNumber=2008733315
1439818520521
ServeStopped
ActiveObject_abs.backend.java.lib.runtime.COG_6b1f7325-14f3bddeb2a--7fef--d1b05a4e2c0cf2d6-6b1f7325-14f3bddeb2a--8000
59
Wrapper for method=getRuntime, sender=ActiveObject_abs.backend.java.lib.runtime.COG_6b1f7325-14f3bddeb2a--7fef--d1b05a4e2c0cf2d6-6b1f7325-14f3bddeb2a--8000, sequenceNumber=2008733315
1439818520524
ServeStopped
ActiveObject_abs.backend.java.lib.runtime.COG_6b1f7325-14f3bddeb2a--7fef--d1b05a4e2c0cf2d6-6b1f7325-14f3bddeb2a--8000
32
Wrapper for method=execute, sender=ActiveObject_abs.backend.java.lib.runtime.COG_-613e2820-14f3bdde9ec--7ff2--068760b28f267db7--613e2820-14f3bdde9ec--8000, sequenceNumber=2008733532
1439818520532
