ServeStarted
ActiveObject_abs.backend.java.lib.runtime.COG_5547e7fa-14f3bddea98--7fef--10874b87309ffd3e-5547e7fa-14f3bddea98--8000
32
Wrapper for method=getID, sender=ActiveObject_abs.backend.java.lib.runtime.COG_-613e2820-14f3bdde9ec--7ff2--068760b28f267db7--613e2820-14f3bdde9ec--8000, sequenceNumber=2008733058
1439818480721
ServeStopped
ActiveObject_abs.backend.java.lib.runtime.COG_5547e7fa-14f3bddea98--7fef--10874b87309ffd3e-5547e7fa-14f3bddea98--8000
32
Wrapper for method=getID, sender=ActiveObject_abs.backend.java.lib.runtime.COG_-613e2820-14f3bdde9ec--7ff2--068760b28f267db7--613e2820-14f3bdde9ec--8000, sequenceNumber=2008733058
1439818480737
ServeStarted
ActiveObject_abs.backend.java.lib.runtime.COG_5547e7fa-14f3bddea98--7fef--10874b87309ffd3e-5547e7fa-14f3bddea98--8000
32
Wrapper for method=getRuntime, sender=ActiveObject_abs.backend.java.lib.runtime.COG_-613e2820-14f3bdde9ec--7ff2--068760b28f267db7--613e2820-14f3bdde9ec--8000, sequenceNumber=2008733062
1439818480746
ServeStopped
ActiveObject_abs.backend.java.lib.runtime.COG_5547e7fa-14f3bddea98--7fef--10874b87309ffd3e-5547e7fa-14f3bddea98--8000
32
Wrapper for method=getRuntime, sender=ActiveObject_abs.backend.java.lib.runtime.COG_-613e2820-14f3bdde9ec--7ff2--068760b28f267db7--613e2820-14f3bdde9ec--8000, sequenceNumber=2008733062
1439818480753
ServeStarted
ActiveObject_abs.backend.java.lib.runtime.COG_5547e7fa-14f3bddea98--7fef--10874b87309ffd3e-5547e7fa-14f3bddea98--8000
32
Wrapper for method=register, sender=ActiveObject_abs.backend.java.lib.runtime.COG_-613e2820-14f3bdde9ec--7ff2--068760b28f267db7--613e2820-14f3bdde9ec--8000, sequenceNumber=2008733063
1439818480786
ServeStopped
ActiveObject_abs.backend.java.lib.runtime.COG_5547e7fa-14f3bddea98--7fef--10874b87309ffd3e-5547e7fa-14f3bddea98--8000
32
Wrapper for method=register, sender=ActiveObject_abs.backend.java.lib.runtime.COG_-613e2820-14f3bdde9ec--7ff2--068760b28f267db7--613e2820-14f3bdde9ec--8000, sequenceNumber=2008733063
1439818480787
ServeStarted
ActiveObject_abs.backend.java.lib.runtime.COG_5547e7fa-14f3bddea98--7fef--10874b87309ffd3e-5547e7fa-14f3bddea98--8000
32
Wrapper for method=objectCreated, sender=ActiveObject_abs.backend.java.lib.runtime.COG_-613e2820-14f3bdde9ec--7ff2--068760b28f267db7--613e2820-14f3bdde9ec--8000, sequenceNumber=2008733064
1439818481049
ServeStopped
ActiveObject_abs.backend.java.lib.runtime.COG_5547e7fa-14f3bddea98--7fef--10874b87309ffd3e-5547e7fa-14f3bddea98--8000
32
Wrapper for method=objectCreated, sender=ActiveObject_abs.backend.java.lib.runtime.COG_-613e2820-14f3bdde9ec--7ff2--068760b28f267db7--613e2820-14f3bdde9ec--8000, sequenceNumber=2008733064
1439818481050
ServeStarted
ActiveObject_abs.backend.java.lib.runtime.COG_5547e7fa-14f3bddea98--7fef--10874b87309ffd3e-5547e7fa-14f3bddea98--8000
32
Wrapper for method=objectInitialized, sender=ActiveObject_abs.backend.java.lib.runtime.COG_-613e2820-14f3bdde9ec--7ff2--068760b28f267db7--613e2820-14f3bdde9ec--8000, sequenceNumber=2008733065
1439818481167
ServeStopped
ActiveObject_abs.backend.java.lib.runtime.COG_5547e7fa-14f3bddea98--7fef--10874b87309ffd3e-5547e7fa-14f3bddea98--8000
32
Wrapper for method=objectInitialized, sender=ActiveObject_abs.backend.java.lib.runtime.COG_-613e2820-14f3bdde9ec--7ff2--068760b28f267db7--613e2820-14f3bdde9ec--8000, sequenceNumber=2008733065
1439818481168
ServeStarted
ActiveObject_abs.backend.java.lib.runtime.COG_5547e7fa-14f3bddea98--7fef--10874b87309ffd3e-5547e7fa-14f3bddea98--8000
32
Wrapper for method=registerObject, sender=ActiveObject_abs.backend.java.lib.runtime.COG_-613e2820-14f3bdde9ec--7ff2--068760b28f267db7--613e2820-14f3bdde9ec--8000, sequenceNumber=2008733066
1439818481269
ServeStopped
ActiveObject_abs.backend.java.lib.runtime.COG_5547e7fa-14f3bddea98--7fef--10874b87309ffd3e-5547e7fa-14f3bddea98--8000
32
Wrapper for method=registerObject, sender=ActiveObject_abs.backend.java.lib.runtime.COG_-613e2820-14f3bdde9ec--7ff2--068760b28f267db7--613e2820-14f3bdde9ec--8000, sequenceNumber=2008733066
1439818481270
ServeStarted
ActiveObject_abs.backend.java.lib.runtime.COG_5547e7fa-14f3bddea98--7fef--10874b87309ffd3e-5547e7fa-14f3bddea98--8000
32
Wrapper for method=execute, sender=ActiveObject_abs.backend.java.lib.runtime.COG_-613e2820-14f3bdde9ec--7ff2--068760b28f267db7--613e2820-14f3bdde9ec--8000, sequenceNumber=2008733379
1439818510843
ServeStarted
ActiveObject_abs.backend.java.lib.runtime.COG_5547e7fa-14f3bddea98--7fef--10874b87309ffd3e-5547e7fa-14f3bddea98--8000
65
Wrapper for method=getRuntime, sender=ActiveObject_abs.backend.java.lib.runtime.COG_5547e7fa-14f3bddea98--7fef--10874b87309ffd3e-5547e7fa-14f3bddea98--8000, sequenceNumber=2008732995
1439818512815
ServeStopped
ActiveObject_abs.backend.java.lib.runtime.COG_5547e7fa-14f3bddea98--7fef--10874b87309ffd3e-5547e7fa-14f3bddea98--8000
65
Wrapper for method=getRuntime, sender=ActiveObject_abs.backend.java.lib.runtime.COG_5547e7fa-14f3bddea98--7fef--10874b87309ffd3e-5547e7fa-14f3bddea98--8000, sequenceNumber=2008732995
1439818512819
ServeStarted
ActiveObject_abs.backend.java.lib.runtime.COG_5547e7fa-14f3bddea98--7fef--10874b87309ffd3e-5547e7fa-14f3bddea98--8000
65
Wrapper for method=getRuntime, sender=ActiveObject_abs.backend.java.lib.runtime.COG_5547e7fa-14f3bddea98--7fef--10874b87309ffd3e-5547e7fa-14f3bddea98--8000, sequenceNumber=2008732996
1439818512821
ServeStopped
ActiveObject_abs.backend.java.lib.runtime.COG_5547e7fa-14f3bddea98--7fef--10874b87309ffd3e-5547e7fa-14f3bddea98--8000
65
Wrapper for method=getRuntime, sender=ActiveObject_abs.backend.java.lib.runtime.COG_5547e7fa-14f3bddea98--7fef--10874b87309ffd3e-5547e7fa-14f3bddea98--8000, sequenceNumber=2008732996
1439818512824
ServeStarted
ActiveObject_abs.backend.java.lib.runtime.COG_5547e7fa-14f3bddea98--7fef--10874b87309ffd3e-5547e7fa-14f3bddea98--8000
65
Wrapper for method=getRuntime, sender=ActiveObject_abs.backend.java.lib.runtime.COG_5547e7fa-14f3bddea98--7fef--10874b87309ffd3e-5547e7fa-14f3bddea98--8000, sequenceNumber=2008732997
1439818512825
ServeStopped
ActiveObject_abs.backend.java.lib.runtime.COG_5547e7fa-14f3bddea98--7fef--10874b87309ffd3e-5547e7fa-14f3bddea98--8000
65
Wrapper for method=getRuntime, sender=ActiveObject_abs.backend.java.lib.runtime.COG_5547e7fa-14f3bddea98--7fef--10874b87309ffd3e-5547e7fa-14f3bddea98--8000, sequenceNumber=2008732997
1439818512828
ServeStarted
ActiveObject_abs.backend.java.lib.runtime.COG_5547e7fa-14f3bddea98--7fef--10874b87309ffd3e-5547e7fa-14f3bddea98--8000
65
Wrapper for method=getRuntime, sender=ActiveObject_abs.backend.java.lib.runtime.COG_5547e7fa-14f3bddea98--7fef--10874b87309ffd3e-5547e7fa-14f3bddea98--8000, sequenceNumber=2008732998
1439818512830
ServeStopped
ActiveObject_abs.backend.java.lib.runtime.COG_5547e7fa-14f3bddea98--7fef--10874b87309ffd3e-5547e7fa-14f3bddea98--8000
65
Wrapper for method=getRuntime, sender=ActiveObject_abs.backend.java.lib.runtime.COG_5547e7fa-14f3bddea98--7fef--10874b87309ffd3e-5547e7fa-14f3bddea98--8000, sequenceNumber=2008732998
1439818512833
ServeStarted
ActiveObject_abs.backend.java.lib.runtime.COG_5547e7fa-14f3bddea98--7fef--10874b87309ffd3e-5547e7fa-14f3bddea98--8000
65
Wrapper for method=suspend, sender=ActiveObject_abs.backend.java.lib.runtime.COG_5547e7fa-14f3bddea98--7fef--10874b87309ffd3e-5547e7fa-14f3bddea98--8000, sequenceNumber=2008732999
1439818513018
ServeStopped
ActiveObject_abs.backend.java.lib.runtime.COG_5547e7fa-14f3bddea98--7fef--10874b87309ffd3e-5547e7fa-14f3bddea98--8000
65
Wrapper for method=suspend, sender=ActiveObject_abs.backend.java.lib.runtime.COG_5547e7fa-14f3bddea98--7fef--10874b87309ffd3e-5547e7fa-14f3bddea98--8000, sequenceNumber=2008732999
1439818513025
ServeStarted
ActiveObject_abs.backend.java.lib.runtime.COG_5547e7fa-14f3bddea98--7fef--10874b87309ffd3e-5547e7fa-14f3bddea98--8000
65
Wrapper for method=getRuntime, sender=ActiveObject_abs.backend.java.lib.runtime.COG_5547e7fa-14f3bddea98--7fef--10874b87309ffd3e-5547e7fa-14f3bddea98--8000, sequenceNumber=2008733000
1439818520561
ServeStopped
ActiveObject_abs.backend.java.lib.runtime.COG_5547e7fa-14f3bddea98--7fef--10874b87309ffd3e-5547e7fa-14f3bddea98--8000
65
Wrapper for method=getRuntime, sender=ActiveObject_abs.backend.java.lib.runtime.COG_5547e7fa-14f3bddea98--7fef--10874b87309ffd3e-5547e7fa-14f3bddea98--8000, sequenceNumber=2008733000
1439818520565
ServeStarted
ActiveObject_abs.backend.java.lib.runtime.COG_5547e7fa-14f3bddea98--7fef--10874b87309ffd3e-5547e7fa-14f3bddea98--8000
65
Wrapper for method=getRuntime, sender=ActiveObject_abs.backend.java.lib.runtime.COG_5547e7fa-14f3bddea98--7fef--10874b87309ffd3e-5547e7fa-14f3bddea98--8000, sequenceNumber=2008733001
1439818520566
ServeStopped
ActiveObject_abs.backend.java.lib.runtime.COG_5547e7fa-14f3bddea98--7fef--10874b87309ffd3e-5547e7fa-14f3bddea98--8000
65
Wrapper for method=getRuntime, sender=ActiveObject_abs.backend.java.lib.runtime.COG_5547e7fa-14f3bddea98--7fef--10874b87309ffd3e-5547e7fa-14f3bddea98--8000, sequenceNumber=2008733001
1439818520570
ServeStarted
ActiveObject_abs.backend.java.lib.runtime.COG_5547e7fa-14f3bddea98--7fef--10874b87309ffd3e-5547e7fa-14f3bddea98--8000
65
Wrapper for method=getRuntime, sender=ActiveObject_abs.backend.java.lib.runtime.COG_5547e7fa-14f3bddea98--7fef--10874b87309ffd3e-5547e7fa-14f3bddea98--8000, sequenceNumber=2008733002
1439818520571
ServeStopped
ActiveObject_abs.backend.java.lib.runtime.COG_5547e7fa-14f3bddea98--7fef--10874b87309ffd3e-5547e7fa-14f3bddea98--8000
65
Wrapper for method=getRuntime, sender=ActiveObject_abs.backend.java.lib.runtime.COG_5547e7fa-14f3bddea98--7fef--10874b87309ffd3e-5547e7fa-14f3bddea98--8000, sequenceNumber=2008733002
1439818520575
ServeStarted
ActiveObject_abs.backend.java.lib.runtime.COG_5547e7fa-14f3bddea98--7fef--10874b87309ffd3e-5547e7fa-14f3bddea98--8000
65
Wrapper for method=getRuntime, sender=ActiveObject_abs.backend.java.lib.runtime.COG_5547e7fa-14f3bddea98--7fef--10874b87309ffd3e-5547e7fa-14f3bddea98--8000, sequenceNumber=2008733003
1439818520576
ServeStopped
ActiveObject_abs.backend.java.lib.runtime.COG_5547e7fa-14f3bddea98--7fef--10874b87309ffd3e-5547e7fa-14f3bddea98--8000
65
Wrapper for method=getRuntime, sender=ActiveObject_abs.backend.java.lib.runtime.COG_5547e7fa-14f3bddea98--7fef--10874b87309ffd3e-5547e7fa-14f3bddea98--8000, sequenceNumber=2008733003
1439818520580
ServeStarted
ActiveObject_abs.backend.java.lib.runtime.COG_5547e7fa-14f3bddea98--7fef--10874b87309ffd3e-5547e7fa-14f3bddea98--8000
65
Wrapper for method=getRuntime, sender=ActiveObject_abs.backend.java.lib.runtime.COG_5547e7fa-14f3bddea98--7fef--10874b87309ffd3e-5547e7fa-14f3bddea98--8000, sequenceNumber=2008733004
1439818520581
ServeStopped
ActiveObject_abs.backend.java.lib.runtime.COG_5547e7fa-14f3bddea98--7fef--10874b87309ffd3e-5547e7fa-14f3bddea98--8000
65
Wrapper for method=getRuntime, sender=ActiveObject_abs.backend.java.lib.runtime.COG_5547e7fa-14f3bddea98--7fef--10874b87309ffd3e-5547e7fa-14f3bddea98--8000, sequenceNumber=2008733004
1439818520584
ServeStarted
ActiveObject_abs.backend.java.lib.runtime.COG_5547e7fa-14f3bddea98--7fef--10874b87309ffd3e-5547e7fa-14f3bddea98--8000
65
Wrapper for method=getRuntime, sender=ActiveObject_abs.backend.java.lib.runtime.COG_5547e7fa-14f3bddea98--7fef--10874b87309ffd3e-5547e7fa-14f3bddea98--8000, sequenceNumber=2008733005
1439818520587
ServeStopped
ActiveObject_abs.backend.java.lib.runtime.COG_5547e7fa-14f3bddea98--7fef--10874b87309ffd3e-5547e7fa-14f3bddea98--8000
65
Wrapper for method=getRuntime, sender=ActiveObject_abs.backend.java.lib.runtime.COG_5547e7fa-14f3bddea98--7fef--10874b87309ffd3e-5547e7fa-14f3bddea98--8000, sequenceNumber=2008733005
1439818520590
ServeStarted
ActiveObject_abs.backend.java.lib.runtime.COG_5547e7fa-14f3bddea98--7fef--10874b87309ffd3e-5547e7fa-14f3bddea98--8000
65
Wrapper for method=getRuntime, sender=ActiveObject_abs.backend.java.lib.runtime.COG_5547e7fa-14f3bddea98--7fef--10874b87309ffd3e-5547e7fa-14f3bddea98--8000, sequenceNumber=2008733006
1439818520591
ServeStopped
ActiveObject_abs.backend.java.lib.runtime.COG_5547e7fa-14f3bddea98--7fef--10874b87309ffd3e-5547e7fa-14f3bddea98--8000
65
Wrapper for method=getRuntime, sender=ActiveObject_abs.backend.java.lib.runtime.COG_5547e7fa-14f3bddea98--7fef--10874b87309ffd3e-5547e7fa-14f3bddea98--8000, sequenceNumber=2008733006
1439818520594
ServeStarted
ActiveObject_abs.backend.java.lib.runtime.COG_5547e7fa-14f3bddea98--7fef--10874b87309ffd3e-5547e7fa-14f3bddea98--8000
65
Wrapper for method=getRuntime, sender=ActiveObject_abs.backend.java.lib.runtime.COG_5547e7fa-14f3bddea98--7fef--10874b87309ffd3e-5547e7fa-14f3bddea98--8000, sequenceNumber=2008733008
1439818520808
ServeStopped
ActiveObject_abs.backend.java.lib.runtime.COG_5547e7fa-14f3bddea98--7fef--10874b87309ffd3e-5547e7fa-14f3bddea98--8000
65
Wrapper for method=getRuntime, sender=ActiveObject_abs.backend.java.lib.runtime.COG_5547e7fa-14f3bddea98--7fef--10874b87309ffd3e-5547e7fa-14f3bddea98--8000, sequenceNumber=2008733008
1439818520811
ServeStopped
ActiveObject_abs.backend.java.lib.runtime.COG_5547e7fa-14f3bddea98--7fef--10874b87309ffd3e-5547e7fa-14f3bddea98--8000
32
Wrapper for method=execute, sender=ActiveObject_abs.backend.java.lib.runtime.COG_-613e2820-14f3bdde9ec--7ff2--068760b28f267db7--613e2820-14f3bdde9ec--8000, sequenceNumber=2008733379
1439818520818
