ServeStarted
ActiveObject_abs.backend.java.lib.runtime.COG_-1baf136a-14f3bddea2e--7fef--038eae23f0ad2b0a--1baf136a-14f3bddea2e--8000
34
Wrapper for method=getID, sender=ActiveObject_abs.backend.java.lib.runtime.COG_-613e2820-14f3bdde9ec--7ff2--068760b28f267db7--613e2820-14f3bdde9ec--8000, sequenceNumber=2008732797
1439818465987
ServeStopped
ActiveObject_abs.backend.java.lib.runtime.COG_-1baf136a-14f3bddea2e--7fef--038eae23f0ad2b0a--1baf136a-14f3bddea2e--8000
34
Wrapper for method=getID, sender=ActiveObject_abs.backend.java.lib.runtime.COG_-613e2820-14f3bdde9ec--7ff2--068760b28f267db7--613e2820-14f3bdde9ec--8000, sequenceNumber=2008732797
1439818466006
ServeStarted
ActiveObject_abs.backend.java.lib.runtime.COG_-1baf136a-14f3bddea2e--7fef--038eae23f0ad2b0a--1baf136a-14f3bddea2e--8000
34
Wrapper for method=getRuntime, sender=ActiveObject_abs.backend.java.lib.runtime.COG_-613e2820-14f3bdde9ec--7ff2--068760b28f267db7--613e2820-14f3bdde9ec--8000, sequenceNumber=2008732798
1439818466016
ServeStopped
ActiveObject_abs.backend.java.lib.runtime.COG_-1baf136a-14f3bddea2e--7fef--038eae23f0ad2b0a--1baf136a-14f3bddea2e--8000
34
Wrapper for method=getRuntime, sender=ActiveObject_abs.backend.java.lib.runtime.COG_-613e2820-14f3bdde9ec--7ff2--068760b28f267db7--613e2820-14f3bdde9ec--8000, sequenceNumber=2008732798
1439818466024
ServeStarted
ActiveObject_abs.backend.java.lib.runtime.COG_-1baf136a-14f3bddea2e--7fef--038eae23f0ad2b0a--1baf136a-14f3bddea2e--8000
34
Wrapper for method=register, sender=ActiveObject_abs.backend.java.lib.runtime.COG_-613e2820-14f3bdde9ec--7ff2--068760b28f267db7--613e2820-14f3bdde9ec--8000, sequenceNumber=2008732799
1439818466058
ServeStopped
ActiveObject_abs.backend.java.lib.runtime.COG_-1baf136a-14f3bddea2e--7fef--038eae23f0ad2b0a--1baf136a-14f3bddea2e--8000
34
Wrapper for method=register, sender=ActiveObject_abs.backend.java.lib.runtime.COG_-613e2820-14f3bdde9ec--7ff2--068760b28f267db7--613e2820-14f3bdde9ec--8000, sequenceNumber=2008732799
1439818466059
ServeStarted
ActiveObject_abs.backend.java.lib.runtime.COG_-1baf136a-14f3bddea2e--7fef--038eae23f0ad2b0a--1baf136a-14f3bddea2e--8000
34
Wrapper for method=objectCreated, sender=ActiveObject_abs.backend.java.lib.runtime.COG_-613e2820-14f3bdde9ec--7ff2--068760b28f267db7--613e2820-14f3bdde9ec--8000, sequenceNumber=2008732800
1439818466095
ServeStopped
ActiveObject_abs.backend.java.lib.runtime.COG_-1baf136a-14f3bddea2e--7fef--038eae23f0ad2b0a--1baf136a-14f3bddea2e--8000
34
Wrapper for method=objectCreated, sender=ActiveObject_abs.backend.java.lib.runtime.COG_-613e2820-14f3bdde9ec--7ff2--068760b28f267db7--613e2820-14f3bdde9ec--8000, sequenceNumber=2008732800
1439818466096
ServeStarted
ActiveObject_abs.backend.java.lib.runtime.COG_-1baf136a-14f3bddea2e--7fef--038eae23f0ad2b0a--1baf136a-14f3bddea2e--8000
34
Wrapper for method=objectInitialized, sender=ActiveObject_abs.backend.java.lib.runtime.COG_-613e2820-14f3bdde9ec--7ff2--068760b28f267db7--613e2820-14f3bdde9ec--8000, sequenceNumber=2008732801
1439818466112
ServeStopped
ActiveObject_abs.backend.java.lib.runtime.COG_-1baf136a-14f3bddea2e--7fef--038eae23f0ad2b0a--1baf136a-14f3bddea2e--8000
34
Wrapper for method=objectInitialized, sender=ActiveObject_abs.backend.java.lib.runtime.COG_-613e2820-14f3bdde9ec--7ff2--068760b28f267db7--613e2820-14f3bdde9ec--8000, sequenceNumber=2008732801
1439818466113
ServeStarted
ActiveObject_abs.backend.java.lib.runtime.COG_-1baf136a-14f3bddea2e--7fef--038eae23f0ad2b0a--1baf136a-14f3bddea2e--8000
34
Wrapper for method=registerObject, sender=ActiveObject_abs.backend.java.lib.runtime.COG_-613e2820-14f3bdde9ec--7ff2--068760b28f267db7--613e2820-14f3bdde9ec--8000, sequenceNumber=2008732802
1439818466129
ServeStopped
ActiveObject_abs.backend.java.lib.runtime.COG_-1baf136a-14f3bddea2e--7fef--038eae23f0ad2b0a--1baf136a-14f3bddea2e--8000
34
Wrapper for method=registerObject, sender=ActiveObject_abs.backend.java.lib.runtime.COG_-613e2820-14f3bdde9ec--7ff2--068760b28f267db7--613e2820-14f3bdde9ec--8000, sequenceNumber=2008732802
1439818466129
ServeStarted
ActiveObject_abs.backend.java.lib.runtime.COG_-1baf136a-14f3bddea2e--7fef--038eae23f0ad2b0a--1baf136a-14f3bddea2e--8000
34
Wrapper for method=execute, sender=ActiveObject_abs.backend.java.lib.runtime.COG_-613e2820-14f3bdde9ec--7ff2--068760b28f267db7--613e2820-14f3bdde9ec--8000, sequenceNumber=2008732805
1439818466164
ServeStarted
ActiveObject_abs.backend.java.lib.runtime.COG_-1baf136a-14f3bddea2e--7fef--038eae23f0ad2b0a--1baf136a-14f3bddea2e--8000
36
Wrapper for method=getRuntime, sender=ActiveObject_abs.backend.java.lib.runtime.COG_-1baf136a-14f3bddea2e--7fef--038eae23f0ad2b0a--1baf136a-14f3bddea2e--8000, sequenceNumber=2008732783
1439818468190
ServeStopped
ActiveObject_abs.backend.java.lib.runtime.COG_-1baf136a-14f3bddea2e--7fef--038eae23f0ad2b0a--1baf136a-14f3bddea2e--8000
36
Wrapper for method=getRuntime, sender=ActiveObject_abs.backend.java.lib.runtime.COG_-1baf136a-14f3bddea2e--7fef--038eae23f0ad2b0a--1baf136a-14f3bddea2e--8000, sequenceNumber=2008732783
1439818468195
ServeStarted
ActiveObject_abs.backend.java.lib.runtime.COG_-1baf136a-14f3bddea2e--7fef--038eae23f0ad2b0a--1baf136a-14f3bddea2e--8000
36
Wrapper for method=getRuntime, sender=ActiveObject_abs.backend.java.lib.runtime.COG_-1baf136a-14f3bddea2e--7fef--038eae23f0ad2b0a--1baf136a-14f3bddea2e--8000, sequenceNumber=2008732784
1439818468196
ServeStopped
ActiveObject_abs.backend.java.lib.runtime.COG_-1baf136a-14f3bddea2e--7fef--038eae23f0ad2b0a--1baf136a-14f3bddea2e--8000
36
Wrapper for method=getRuntime, sender=ActiveObject_abs.backend.java.lib.runtime.COG_-1baf136a-14f3bddea2e--7fef--038eae23f0ad2b0a--1baf136a-14f3bddea2e--8000, sequenceNumber=2008732784
1439818468200
ServeStarted
ActiveObject_abs.backend.java.lib.runtime.COG_-1baf136a-14f3bddea2e--7fef--038eae23f0ad2b0a--1baf136a-14f3bddea2e--8000
36
Wrapper for method=getRuntime, sender=ActiveObject_abs.backend.java.lib.runtime.COG_-1baf136a-14f3bddea2e--7fef--038eae23f0ad2b0a--1baf136a-14f3bddea2e--8000, sequenceNumber=2008732785
1439818468201
ServeStopped
ActiveObject_abs.backend.java.lib.runtime.COG_-1baf136a-14f3bddea2e--7fef--038eae23f0ad2b0a--1baf136a-14f3bddea2e--8000
36
Wrapper for method=getRuntime, sender=ActiveObject_abs.backend.java.lib.runtime.COG_-1baf136a-14f3bddea2e--7fef--038eae23f0ad2b0a--1baf136a-14f3bddea2e--8000, sequenceNumber=2008732785
1439818468205
ServeStarted
ActiveObject_abs.backend.java.lib.runtime.COG_-1baf136a-14f3bddea2e--7fef--038eae23f0ad2b0a--1baf136a-14f3bddea2e--8000
36
Wrapper for method=getRuntime, sender=ActiveObject_abs.backend.java.lib.runtime.COG_-1baf136a-14f3bddea2e--7fef--038eae23f0ad2b0a--1baf136a-14f3bddea2e--8000, sequenceNumber=2008732786
1439818468207
ServeStopped
ActiveObject_abs.backend.java.lib.runtime.COG_-1baf136a-14f3bddea2e--7fef--038eae23f0ad2b0a--1baf136a-14f3bddea2e--8000
36
Wrapper for method=getRuntime, sender=ActiveObject_abs.backend.java.lib.runtime.COG_-1baf136a-14f3bddea2e--7fef--038eae23f0ad2b0a--1baf136a-14f3bddea2e--8000, sequenceNumber=2008732786
1439818468214
ServeStarted
ActiveObject_abs.backend.java.lib.runtime.COG_-1baf136a-14f3bddea2e--7fef--038eae23f0ad2b0a--1baf136a-14f3bddea2e--8000
36
Wrapper for method=suspend, sender=ActiveObject_abs.backend.java.lib.runtime.COG_-1baf136a-14f3bddea2e--7fef--038eae23f0ad2b0a--1baf136a-14f3bddea2e--8000, sequenceNumber=2008732787
1439818468372
ServeStopped
ActiveObject_abs.backend.java.lib.runtime.COG_-1baf136a-14f3bddea2e--7fef--038eae23f0ad2b0a--1baf136a-14f3bddea2e--8000
36
Wrapper for method=suspend, sender=ActiveObject_abs.backend.java.lib.runtime.COG_-1baf136a-14f3bddea2e--7fef--038eae23f0ad2b0a--1baf136a-14f3bddea2e--8000, sequenceNumber=2008732787
1439818468379
ServeStarted
ActiveObject_abs.backend.java.lib.runtime.COG_-1baf136a-14f3bddea2e--7fef--038eae23f0ad2b0a--1baf136a-14f3bddea2e--8000
36
Wrapper for method=getRuntime, sender=ActiveObject_abs.backend.java.lib.runtime.COG_-1baf136a-14f3bddea2e--7fef--038eae23f0ad2b0a--1baf136a-14f3bddea2e--8000, sequenceNumber=2008732788
1439818475770
ServeStopped
ActiveObject_abs.backend.java.lib.runtime.COG_-1baf136a-14f3bddea2e--7fef--038eae23f0ad2b0a--1baf136a-14f3bddea2e--8000
36
Wrapper for method=getRuntime, sender=ActiveObject_abs.backend.java.lib.runtime.COG_-1baf136a-14f3bddea2e--7fef--038eae23f0ad2b0a--1baf136a-14f3bddea2e--8000, sequenceNumber=2008732788
1439818475775
ServeStarted
ActiveObject_abs.backend.java.lib.runtime.COG_-1baf136a-14f3bddea2e--7fef--038eae23f0ad2b0a--1baf136a-14f3bddea2e--8000
36
Wrapper for method=getRuntime, sender=ActiveObject_abs.backend.java.lib.runtime.COG_-1baf136a-14f3bddea2e--7fef--038eae23f0ad2b0a--1baf136a-14f3bddea2e--8000, sequenceNumber=2008732789
1439818475776
ServeStopped
ActiveObject_abs.backend.java.lib.runtime.COG_-1baf136a-14f3bddea2e--7fef--038eae23f0ad2b0a--1baf136a-14f3bddea2e--8000
36
Wrapper for method=getRuntime, sender=ActiveObject_abs.backend.java.lib.runtime.COG_-1baf136a-14f3bddea2e--7fef--038eae23f0ad2b0a--1baf136a-14f3bddea2e--8000, sequenceNumber=2008732789
1439818475781
ServeStarted
ActiveObject_abs.backend.java.lib.runtime.COG_-1baf136a-14f3bddea2e--7fef--038eae23f0ad2b0a--1baf136a-14f3bddea2e--8000
36
Wrapper for method=getRuntime, sender=ActiveObject_abs.backend.java.lib.runtime.COG_-1baf136a-14f3bddea2e--7fef--038eae23f0ad2b0a--1baf136a-14f3bddea2e--8000, sequenceNumber=2008732790
1439818475783
ServeStopped
ActiveObject_abs.backend.java.lib.runtime.COG_-1baf136a-14f3bddea2e--7fef--038eae23f0ad2b0a--1baf136a-14f3bddea2e--8000
36
Wrapper for method=getRuntime, sender=ActiveObject_abs.backend.java.lib.runtime.COG_-1baf136a-14f3bddea2e--7fef--038eae23f0ad2b0a--1baf136a-14f3bddea2e--8000, sequenceNumber=2008732790
1439818475787
ServeStarted
ActiveObject_abs.backend.java.lib.runtime.COG_-1baf136a-14f3bddea2e--7fef--038eae23f0ad2b0a--1baf136a-14f3bddea2e--8000
36
Wrapper for method=getRuntime, sender=ActiveObject_abs.backend.java.lib.runtime.COG_-1baf136a-14f3bddea2e--7fef--038eae23f0ad2b0a--1baf136a-14f3bddea2e--8000, sequenceNumber=2008732791
1439818475788
ServeStopped
ActiveObject_abs.backend.java.lib.runtime.COG_-1baf136a-14f3bddea2e--7fef--038eae23f0ad2b0a--1baf136a-14f3bddea2e--8000
36
Wrapper for method=getRuntime, sender=ActiveObject_abs.backend.java.lib.runtime.COG_-1baf136a-14f3bddea2e--7fef--038eae23f0ad2b0a--1baf136a-14f3bddea2e--8000, sequenceNumber=2008732791
1439818475793
ServeStarted
ActiveObject_abs.backend.java.lib.runtime.COG_-1baf136a-14f3bddea2e--7fef--038eae23f0ad2b0a--1baf136a-14f3bddea2e--8000
37
Wrapper for method=getRuntime, sender=ActiveObject_abs.backend.java.lib.runtime.COG_-1baf136a-14f3bddea2e--7fef--038eae23f0ad2b0a--1baf136a-14f3bddea2e--8000, sequenceNumber=2008732792
1439818475794
ServeStopped
ActiveObject_abs.backend.java.lib.runtime.COG_-1baf136a-14f3bddea2e--7fef--038eae23f0ad2b0a--1baf136a-14f3bddea2e--8000
37
Wrapper for method=getRuntime, sender=ActiveObject_abs.backend.java.lib.runtime.COG_-1baf136a-14f3bddea2e--7fef--038eae23f0ad2b0a--1baf136a-14f3bddea2e--8000, sequenceNumber=2008732792
1439818475797
ServeStarted
ActiveObject_abs.backend.java.lib.runtime.COG_-1baf136a-14f3bddea2e--7fef--038eae23f0ad2b0a--1baf136a-14f3bddea2e--8000
37
Wrapper for method=getRuntime, sender=ActiveObject_abs.backend.java.lib.runtime.COG_-1baf136a-14f3bddea2e--7fef--038eae23f0ad2b0a--1baf136a-14f3bddea2e--8000, sequenceNumber=2008732793
1439818475799
ServeStopped
ActiveObject_abs.backend.java.lib.runtime.COG_-1baf136a-14f3bddea2e--7fef--038eae23f0ad2b0a--1baf136a-14f3bddea2e--8000
37
Wrapper for method=getRuntime, sender=ActiveObject_abs.backend.java.lib.runtime.COG_-1baf136a-14f3bddea2e--7fef--038eae23f0ad2b0a--1baf136a-14f3bddea2e--8000, sequenceNumber=2008732793
1439818475803
ServeStarted
ActiveObject_abs.backend.java.lib.runtime.COG_-1baf136a-14f3bddea2e--7fef--038eae23f0ad2b0a--1baf136a-14f3bddea2e--8000
37
Wrapper for method=getRuntime, sender=ActiveObject_abs.backend.java.lib.runtime.COG_-1baf136a-14f3bddea2e--7fef--038eae23f0ad2b0a--1baf136a-14f3bddea2e--8000, sequenceNumber=2008732794
1439818475804
ServeStopped
ActiveObject_abs.backend.java.lib.runtime.COG_-1baf136a-14f3bddea2e--7fef--038eae23f0ad2b0a--1baf136a-14f3bddea2e--8000
37
Wrapper for method=getRuntime, sender=ActiveObject_abs.backend.java.lib.runtime.COG_-1baf136a-14f3bddea2e--7fef--038eae23f0ad2b0a--1baf136a-14f3bddea2e--8000, sequenceNumber=2008732794
1439818475808
ServeStarted
ActiveObject_abs.backend.java.lib.runtime.COG_-1baf136a-14f3bddea2e--7fef--038eae23f0ad2b0a--1baf136a-14f3bddea2e--8000
37
Wrapper for method=getRuntime, sender=ActiveObject_abs.backend.java.lib.runtime.COG_-1baf136a-14f3bddea2e--7fef--038eae23f0ad2b0a--1baf136a-14f3bddea2e--8000, sequenceNumber=2008732796
1439818475946
ServeStopped
ActiveObject_abs.backend.java.lib.runtime.COG_-1baf136a-14f3bddea2e--7fef--038eae23f0ad2b0a--1baf136a-14f3bddea2e--8000
37
Wrapper for method=getRuntime, sender=ActiveObject_abs.backend.java.lib.runtime.COG_-1baf136a-14f3bddea2e--7fef--038eae23f0ad2b0a--1baf136a-14f3bddea2e--8000, sequenceNumber=2008732796
1439818475950
ServeStopped
ActiveObject_abs.backend.java.lib.runtime.COG_-1baf136a-14f3bddea2e--7fef--038eae23f0ad2b0a--1baf136a-14f3bddea2e--8000
34
Wrapper for method=execute, sender=ActiveObject_abs.backend.java.lib.runtime.COG_-613e2820-14f3bdde9ec--7ff2--068760b28f267db7--613e2820-14f3bdde9ec--8000, sequenceNumber=2008732805
1439818475955
ServeStarted
ActiveObject_abs.backend.java.lib.runtime.COG_-1baf136a-14f3bddea2e--7fef--038eae23f0ad2b0a--1baf136a-14f3bddea2e--8000
34
Wrapper for method=execute, sender=ActiveObject_abs.backend.java.lib.runtime.COG_-613e2820-14f3bdde9ec--7ff2--068760b28f267db7--613e2820-14f3bdde9ec--8000, sequenceNumber=2008733180
1439818489867
ServeStarted
ActiveObject_abs.backend.java.lib.runtime.COG_-1baf136a-14f3bddea2e--7fef--038eae23f0ad2b0a--1baf136a-14f3bddea2e--8000
37
Wrapper for method=getRuntime, sender=ActiveObject_abs.backend.java.lib.runtime.COG_-1baf136a-14f3bddea2e--7fef--038eae23f0ad2b0a--1baf136a-14f3bddea2e--8000, sequenceNumber=2008732798
1439818489871
ServeStopped
ActiveObject_abs.backend.java.lib.runtime.COG_-1baf136a-14f3bddea2e--7fef--038eae23f0ad2b0a--1baf136a-14f3bddea2e--8000
37
Wrapper for method=getRuntime, sender=ActiveObject_abs.backend.java.lib.runtime.COG_-1baf136a-14f3bddea2e--7fef--038eae23f0ad2b0a--1baf136a-14f3bddea2e--8000, sequenceNumber=2008732798
1439818489877
ServeStarted
ActiveObject_abs.backend.java.lib.runtime.COG_-1baf136a-14f3bddea2e--7fef--038eae23f0ad2b0a--1baf136a-14f3bddea2e--8000
37
Wrapper for method=getRuntime, sender=ActiveObject_abs.backend.java.lib.runtime.COG_-1baf136a-14f3bddea2e--7fef--038eae23f0ad2b0a--1baf136a-14f3bddea2e--8000, sequenceNumber=2008732799
1439818489878
ServeStopped
ActiveObject_abs.backend.java.lib.runtime.COG_-1baf136a-14f3bddea2e--7fef--038eae23f0ad2b0a--1baf136a-14f3bddea2e--8000
37
Wrapper for method=getRuntime, sender=ActiveObject_abs.backend.java.lib.runtime.COG_-1baf136a-14f3bddea2e--7fef--038eae23f0ad2b0a--1baf136a-14f3bddea2e--8000, sequenceNumber=2008732799
1439818489882
ServeStarted
ActiveObject_abs.backend.java.lib.runtime.COG_-1baf136a-14f3bddea2e--7fef--038eae23f0ad2b0a--1baf136a-14f3bddea2e--8000
37
Wrapper for method=getRuntime, sender=ActiveObject_abs.backend.java.lib.runtime.COG_-1baf136a-14f3bddea2e--7fef--038eae23f0ad2b0a--1baf136a-14f3bddea2e--8000, sequenceNumber=2008732800
1439818489883
ServeStopped
ActiveObject_abs.backend.java.lib.runtime.COG_-1baf136a-14f3bddea2e--7fef--038eae23f0ad2b0a--1baf136a-14f3bddea2e--8000
37
Wrapper for method=getRuntime, sender=ActiveObject_abs.backend.java.lib.runtime.COG_-1baf136a-14f3bddea2e--7fef--038eae23f0ad2b0a--1baf136a-14f3bddea2e--8000, sequenceNumber=2008732800
1439818489889
ServeStarted
ActiveObject_abs.backend.java.lib.runtime.COG_-1baf136a-14f3bddea2e--7fef--038eae23f0ad2b0a--1baf136a-14f3bddea2e--8000
37
Wrapper for method=getRuntime, sender=ActiveObject_abs.backend.java.lib.runtime.COG_-1baf136a-14f3bddea2e--7fef--038eae23f0ad2b0a--1baf136a-14f3bddea2e--8000, sequenceNumber=2008732801
1439818489890
ServeStopped
ActiveObject_abs.backend.java.lib.runtime.COG_-1baf136a-14f3bddea2e--7fef--038eae23f0ad2b0a--1baf136a-14f3bddea2e--8000
37
Wrapper for method=getRuntime, sender=ActiveObject_abs.backend.java.lib.runtime.COG_-1baf136a-14f3bddea2e--7fef--038eae23f0ad2b0a--1baf136a-14f3bddea2e--8000, sequenceNumber=2008732801
1439818489894
ServeStarted
ActiveObject_abs.backend.java.lib.runtime.COG_-1baf136a-14f3bddea2e--7fef--038eae23f0ad2b0a--1baf136a-14f3bddea2e--8000
37
Wrapper for method=suspend, sender=ActiveObject_abs.backend.java.lib.runtime.COG_-1baf136a-14f3bddea2e--7fef--038eae23f0ad2b0a--1baf136a-14f3bddea2e--8000, sequenceNumber=2008732802
1439818489897
ServeStopped
ActiveObject_abs.backend.java.lib.runtime.COG_-1baf136a-14f3bddea2e--7fef--038eae23f0ad2b0a--1baf136a-14f3bddea2e--8000
37
Wrapper for method=suspend, sender=ActiveObject_abs.backend.java.lib.runtime.COG_-1baf136a-14f3bddea2e--7fef--038eae23f0ad2b0a--1baf136a-14f3bddea2e--8000, sequenceNumber=2008732802
1439818489899
ServeStarted
ActiveObject_abs.backend.java.lib.runtime.COG_-1baf136a-14f3bddea2e--7fef--038eae23f0ad2b0a--1baf136a-14f3bddea2e--8000
37
Wrapper for method=getRuntime, sender=ActiveObject_abs.backend.java.lib.runtime.COG_-1baf136a-14f3bddea2e--7fef--038eae23f0ad2b0a--1baf136a-14f3bddea2e--8000, sequenceNumber=2008732803
1439818496696
ServeStopped
ActiveObject_abs.backend.java.lib.runtime.COG_-1baf136a-14f3bddea2e--7fef--038eae23f0ad2b0a--1baf136a-14f3bddea2e--8000
37
Wrapper for method=getRuntime, sender=ActiveObject_abs.backend.java.lib.runtime.COG_-1baf136a-14f3bddea2e--7fef--038eae23f0ad2b0a--1baf136a-14f3bddea2e--8000, sequenceNumber=2008732803
1439818496700
ServeStarted
ActiveObject_abs.backend.java.lib.runtime.COG_-1baf136a-14f3bddea2e--7fef--038eae23f0ad2b0a--1baf136a-14f3bddea2e--8000
37
Wrapper for method=getRuntime, sender=ActiveObject_abs.backend.java.lib.runtime.COG_-1baf136a-14f3bddea2e--7fef--038eae23f0ad2b0a--1baf136a-14f3bddea2e--8000, sequenceNumber=2008732804
1439818496702
ServeStopped
ActiveObject_abs.backend.java.lib.runtime.COG_-1baf136a-14f3bddea2e--7fef--038eae23f0ad2b0a--1baf136a-14f3bddea2e--8000
37
Wrapper for method=getRuntime, sender=ActiveObject_abs.backend.java.lib.runtime.COG_-1baf136a-14f3bddea2e--7fef--038eae23f0ad2b0a--1baf136a-14f3bddea2e--8000, sequenceNumber=2008732804
1439818496705
ServeStarted
ActiveObject_abs.backend.java.lib.runtime.COG_-1baf136a-14f3bddea2e--7fef--038eae23f0ad2b0a--1baf136a-14f3bddea2e--8000
37
Wrapper for method=getRuntime, sender=ActiveObject_abs.backend.java.lib.runtime.COG_-1baf136a-14f3bddea2e--7fef--038eae23f0ad2b0a--1baf136a-14f3bddea2e--8000, sequenceNumber=2008732805
1439818496706
ServeStopped
ActiveObject_abs.backend.java.lib.runtime.COG_-1baf136a-14f3bddea2e--7fef--038eae23f0ad2b0a--1baf136a-14f3bddea2e--8000
37
Wrapper for method=getRuntime, sender=ActiveObject_abs.backend.java.lib.runtime.COG_-1baf136a-14f3bddea2e--7fef--038eae23f0ad2b0a--1baf136a-14f3bddea2e--8000, sequenceNumber=2008732805
1439818496710
ServeStarted
ActiveObject_abs.backend.java.lib.runtime.COG_-1baf136a-14f3bddea2e--7fef--038eae23f0ad2b0a--1baf136a-14f3bddea2e--8000
37
Wrapper for method=getRuntime, sender=ActiveObject_abs.backend.java.lib.runtime.COG_-1baf136a-14f3bddea2e--7fef--038eae23f0ad2b0a--1baf136a-14f3bddea2e--8000, sequenceNumber=2008732806
1439818496711
ServeStopped
ActiveObject_abs.backend.java.lib.runtime.COG_-1baf136a-14f3bddea2e--7fef--038eae23f0ad2b0a--1baf136a-14f3bddea2e--8000
37
Wrapper for method=getRuntime, sender=ActiveObject_abs.backend.java.lib.runtime.COG_-1baf136a-14f3bddea2e--7fef--038eae23f0ad2b0a--1baf136a-14f3bddea2e--8000, sequenceNumber=2008732806
1439818496715
ServeStarted
ActiveObject_abs.backend.java.lib.runtime.COG_-1baf136a-14f3bddea2e--7fef--038eae23f0ad2b0a--1baf136a-14f3bddea2e--8000
37
Wrapper for method=getRuntime, sender=ActiveObject_abs.backend.java.lib.runtime.COG_-1baf136a-14f3bddea2e--7fef--038eae23f0ad2b0a--1baf136a-14f3bddea2e--8000, sequenceNumber=2008732807
1439818496716
ServeStopped
ActiveObject_abs.backend.java.lib.runtime.COG_-1baf136a-14f3bddea2e--7fef--038eae23f0ad2b0a--1baf136a-14f3bddea2e--8000
37
Wrapper for method=getRuntime, sender=ActiveObject_abs.backend.java.lib.runtime.COG_-1baf136a-14f3bddea2e--7fef--038eae23f0ad2b0a--1baf136a-14f3bddea2e--8000, sequenceNumber=2008732807
1439818496720
ServeStarted
ActiveObject_abs.backend.java.lib.runtime.COG_-1baf136a-14f3bddea2e--7fef--038eae23f0ad2b0a--1baf136a-14f3bddea2e--8000
37
Wrapper for method=getRuntime, sender=ActiveObject_abs.backend.java.lib.runtime.COG_-1baf136a-14f3bddea2e--7fef--038eae23f0ad2b0a--1baf136a-14f3bddea2e--8000, sequenceNumber=2008732808
1439818496721
ServeStopped
ActiveObject_abs.backend.java.lib.runtime.COG_-1baf136a-14f3bddea2e--7fef--038eae23f0ad2b0a--1baf136a-14f3bddea2e--8000
37
Wrapper for method=getRuntime, sender=ActiveObject_abs.backend.java.lib.runtime.COG_-1baf136a-14f3bddea2e--7fef--038eae23f0ad2b0a--1baf136a-14f3bddea2e--8000, sequenceNumber=2008732808
1439818496725
ServeStarted
ActiveObject_abs.backend.java.lib.runtime.COG_-1baf136a-14f3bddea2e--7fef--038eae23f0ad2b0a--1baf136a-14f3bddea2e--8000
37
Wrapper for method=getRuntime, sender=ActiveObject_abs.backend.java.lib.runtime.COG_-1baf136a-14f3bddea2e--7fef--038eae23f0ad2b0a--1baf136a-14f3bddea2e--8000, sequenceNumber=2008732809
1439818496726
ServeStopped
ActiveObject_abs.backend.java.lib.runtime.COG_-1baf136a-14f3bddea2e--7fef--038eae23f0ad2b0a--1baf136a-14f3bddea2e--8000
37
Wrapper for method=getRuntime, sender=ActiveObject_abs.backend.java.lib.runtime.COG_-1baf136a-14f3bddea2e--7fef--038eae23f0ad2b0a--1baf136a-14f3bddea2e--8000, sequenceNumber=2008732809
1439818496729
ServeStarted
ActiveObject_abs.backend.java.lib.runtime.COG_-1baf136a-14f3bddea2e--7fef--038eae23f0ad2b0a--1baf136a-14f3bddea2e--8000
37
Wrapper for method=getRuntime, sender=ActiveObject_abs.backend.java.lib.runtime.COG_-1baf136a-14f3bddea2e--7fef--038eae23f0ad2b0a--1baf136a-14f3bddea2e--8000, sequenceNumber=2008732811
1439818496747
ServeStopped
ActiveObject_abs.backend.java.lib.runtime.COG_-1baf136a-14f3bddea2e--7fef--038eae23f0ad2b0a--1baf136a-14f3bddea2e--8000
37
Wrapper for method=getRuntime, sender=ActiveObject_abs.backend.java.lib.runtime.COG_-1baf136a-14f3bddea2e--7fef--038eae23f0ad2b0a--1baf136a-14f3bddea2e--8000, sequenceNumber=2008732811
1439818496752
ServeStopped
ActiveObject_abs.backend.java.lib.runtime.COG_-1baf136a-14f3bddea2e--7fef--038eae23f0ad2b0a--1baf136a-14f3bddea2e--8000
34
Wrapper for method=execute, sender=ActiveObject_abs.backend.java.lib.runtime.COG_-613e2820-14f3bdde9ec--7ff2--068760b28f267db7--613e2820-14f3bdde9ec--8000, sequenceNumber=2008733180
1439818496756
ServeStarted
ActiveObject_abs.backend.java.lib.runtime.COG_-1baf136a-14f3bddea2e--7fef--038eae23f0ad2b0a--1baf136a-14f3bddea2e--8000
34
Wrapper for method=execute, sender=ActiveObject_abs.backend.java.lib.runtime.COG_-613e2820-14f3bdde9ec--7ff2--068760b28f267db7--613e2820-14f3bdde9ec--8000, sequenceNumber=2008733500
1439818513177
ServeStarted
ActiveObject_abs.backend.java.lib.runtime.COG_-1baf136a-14f3bddea2e--7fef--038eae23f0ad2b0a--1baf136a-14f3bddea2e--8000
37
Wrapper for method=getRuntime, sender=ActiveObject_abs.backend.java.lib.runtime.COG_-1baf136a-14f3bddea2e--7fef--038eae23f0ad2b0a--1baf136a-14f3bddea2e--8000, sequenceNumber=2008732813
1439818513181
ServeStopped
ActiveObject_abs.backend.java.lib.runtime.COG_-1baf136a-14f3bddea2e--7fef--038eae23f0ad2b0a--1baf136a-14f3bddea2e--8000
37
Wrapper for method=getRuntime, sender=ActiveObject_abs.backend.java.lib.runtime.COG_-1baf136a-14f3bddea2e--7fef--038eae23f0ad2b0a--1baf136a-14f3bddea2e--8000, sequenceNumber=2008732813
1439818513185
ServeStarted
ActiveObject_abs.backend.java.lib.runtime.COG_-1baf136a-14f3bddea2e--7fef--038eae23f0ad2b0a--1baf136a-14f3bddea2e--8000
37
Wrapper for method=getRuntime, sender=ActiveObject_abs.backend.java.lib.runtime.COG_-1baf136a-14f3bddea2e--7fef--038eae23f0ad2b0a--1baf136a-14f3bddea2e--8000, sequenceNumber=2008732814
1439818513187
ServeStopped
ActiveObject_abs.backend.java.lib.runtime.COG_-1baf136a-14f3bddea2e--7fef--038eae23f0ad2b0a--1baf136a-14f3bddea2e--8000
37
Wrapper for method=getRuntime, sender=ActiveObject_abs.backend.java.lib.runtime.COG_-1baf136a-14f3bddea2e--7fef--038eae23f0ad2b0a--1baf136a-14f3bddea2e--8000, sequenceNumber=2008732814
1439818513191
ServeStarted
ActiveObject_abs.backend.java.lib.runtime.COG_-1baf136a-14f3bddea2e--7fef--038eae23f0ad2b0a--1baf136a-14f3bddea2e--8000
37
Wrapper for method=getRuntime, sender=ActiveObject_abs.backend.java.lib.runtime.COG_-1baf136a-14f3bddea2e--7fef--038eae23f0ad2b0a--1baf136a-14f3bddea2e--8000, sequenceNumber=2008732815
1439818513192
ServeStopped
ActiveObject_abs.backend.java.lib.runtime.COG_-1baf136a-14f3bddea2e--7fef--038eae23f0ad2b0a--1baf136a-14f3bddea2e--8000
37
Wrapper for method=getRuntime, sender=ActiveObject_abs.backend.java.lib.runtime.COG_-1baf136a-14f3bddea2e--7fef--038eae23f0ad2b0a--1baf136a-14f3bddea2e--8000, sequenceNumber=2008732815
1439818513196
ServeStarted
ActiveObject_abs.backend.java.lib.runtime.COG_-1baf136a-14f3bddea2e--7fef--038eae23f0ad2b0a--1baf136a-14f3bddea2e--8000
37
Wrapper for method=getRuntime, sender=ActiveObject_abs.backend.java.lib.runtime.COG_-1baf136a-14f3bddea2e--7fef--038eae23f0ad2b0a--1baf136a-14f3bddea2e--8000, sequenceNumber=2008732816
1439818513198
ServeStopped
ActiveObject_abs.backend.java.lib.runtime.COG_-1baf136a-14f3bddea2e--7fef--038eae23f0ad2b0a--1baf136a-14f3bddea2e--8000
37
Wrapper for method=getRuntime, sender=ActiveObject_abs.backend.java.lib.runtime.COG_-1baf136a-14f3bddea2e--7fef--038eae23f0ad2b0a--1baf136a-14f3bddea2e--8000, sequenceNumber=2008732816
1439818513202
ServeStarted
ActiveObject_abs.backend.java.lib.runtime.COG_-1baf136a-14f3bddea2e--7fef--038eae23f0ad2b0a--1baf136a-14f3bddea2e--8000
37
Wrapper for method=suspend, sender=ActiveObject_abs.backend.java.lib.runtime.COG_-1baf136a-14f3bddea2e--7fef--038eae23f0ad2b0a--1baf136a-14f3bddea2e--8000, sequenceNumber=2008732817
1439818513204
ServeStopped
ActiveObject_abs.backend.java.lib.runtime.COG_-1baf136a-14f3bddea2e--7fef--038eae23f0ad2b0a--1baf136a-14f3bddea2e--8000
37
Wrapper for method=suspend, sender=ActiveObject_abs.backend.java.lib.runtime.COG_-1baf136a-14f3bddea2e--7fef--038eae23f0ad2b0a--1baf136a-14f3bddea2e--8000, sequenceNumber=2008732817
1439818513206
ServeStarted
ActiveObject_abs.backend.java.lib.runtime.COG_-1baf136a-14f3bddea2e--7fef--038eae23f0ad2b0a--1baf136a-14f3bddea2e--8000
37
Wrapper for method=getRuntime, sender=ActiveObject_abs.backend.java.lib.runtime.COG_-1baf136a-14f3bddea2e--7fef--038eae23f0ad2b0a--1baf136a-14f3bddea2e--8000, sequenceNumber=2008732818
1439818519962
ServeStopped
ActiveObject_abs.backend.java.lib.runtime.COG_-1baf136a-14f3bddea2e--7fef--038eae23f0ad2b0a--1baf136a-14f3bddea2e--8000
37
Wrapper for method=getRuntime, sender=ActiveObject_abs.backend.java.lib.runtime.COG_-1baf136a-14f3bddea2e--7fef--038eae23f0ad2b0a--1baf136a-14f3bddea2e--8000, sequenceNumber=2008732818
1439818519965
ServeStarted
ActiveObject_abs.backend.java.lib.runtime.COG_-1baf136a-14f3bddea2e--7fef--038eae23f0ad2b0a--1baf136a-14f3bddea2e--8000
37
Wrapper for method=getRuntime, sender=ActiveObject_abs.backend.java.lib.runtime.COG_-1baf136a-14f3bddea2e--7fef--038eae23f0ad2b0a--1baf136a-14f3bddea2e--8000, sequenceNumber=2008732819
1439818519967
ServeStopped
ActiveObject_abs.backend.java.lib.runtime.COG_-1baf136a-14f3bddea2e--7fef--038eae23f0ad2b0a--1baf136a-14f3bddea2e--8000
37
Wrapper for method=getRuntime, sender=ActiveObject_abs.backend.java.lib.runtime.COG_-1baf136a-14f3bddea2e--7fef--038eae23f0ad2b0a--1baf136a-14f3bddea2e--8000, sequenceNumber=2008732819
1439818519970
ServeStarted
ActiveObject_abs.backend.java.lib.runtime.COG_-1baf136a-14f3bddea2e--7fef--038eae23f0ad2b0a--1baf136a-14f3bddea2e--8000
37
Wrapper for method=getRuntime, sender=ActiveObject_abs.backend.java.lib.runtime.COG_-1baf136a-14f3bddea2e--7fef--038eae23f0ad2b0a--1baf136a-14f3bddea2e--8000, sequenceNumber=2008732820
1439818519972
ServeStopped
ActiveObject_abs.backend.java.lib.runtime.COG_-1baf136a-14f3bddea2e--7fef--038eae23f0ad2b0a--1baf136a-14f3bddea2e--8000
37
Wrapper for method=getRuntime, sender=ActiveObject_abs.backend.java.lib.runtime.COG_-1baf136a-14f3bddea2e--7fef--038eae23f0ad2b0a--1baf136a-14f3bddea2e--8000, sequenceNumber=2008732820
1439818519975
ServeStarted
ActiveObject_abs.backend.java.lib.runtime.COG_-1baf136a-14f3bddea2e--7fef--038eae23f0ad2b0a--1baf136a-14f3bddea2e--8000
37
Wrapper for method=getRuntime, sender=ActiveObject_abs.backend.java.lib.runtime.COG_-1baf136a-14f3bddea2e--7fef--038eae23f0ad2b0a--1baf136a-14f3bddea2e--8000, sequenceNumber=2008732821
1439818519977
ServeStopped
ActiveObject_abs.backend.java.lib.runtime.COG_-1baf136a-14f3bddea2e--7fef--038eae23f0ad2b0a--1baf136a-14f3bddea2e--8000
37
Wrapper for method=getRuntime, sender=ActiveObject_abs.backend.java.lib.runtime.COG_-1baf136a-14f3bddea2e--7fef--038eae23f0ad2b0a--1baf136a-14f3bddea2e--8000, sequenceNumber=2008732821
1439818519980
ServeStarted
ActiveObject_abs.backend.java.lib.runtime.COG_-1baf136a-14f3bddea2e--7fef--038eae23f0ad2b0a--1baf136a-14f3bddea2e--8000
37
Wrapper for method=getRuntime, sender=ActiveObject_abs.backend.java.lib.runtime.COG_-1baf136a-14f3bddea2e--7fef--038eae23f0ad2b0a--1baf136a-14f3bddea2e--8000, sequenceNumber=2008732822
1439818519982
ServeStopped
ActiveObject_abs.backend.java.lib.runtime.COG_-1baf136a-14f3bddea2e--7fef--038eae23f0ad2b0a--1baf136a-14f3bddea2e--8000
37
Wrapper for method=getRuntime, sender=ActiveObject_abs.backend.java.lib.runtime.COG_-1baf136a-14f3bddea2e--7fef--038eae23f0ad2b0a--1baf136a-14f3bddea2e--8000, sequenceNumber=2008732822
1439818519985
ServeStarted
ActiveObject_abs.backend.java.lib.runtime.COG_-1baf136a-14f3bddea2e--7fef--038eae23f0ad2b0a--1baf136a-14f3bddea2e--8000
37
Wrapper for method=getRuntime, sender=ActiveObject_abs.backend.java.lib.runtime.COG_-1baf136a-14f3bddea2e--7fef--038eae23f0ad2b0a--1baf136a-14f3bddea2e--8000, sequenceNumber=2008732823
1439818519987
ServeStopped
ActiveObject_abs.backend.java.lib.runtime.COG_-1baf136a-14f3bddea2e--7fef--038eae23f0ad2b0a--1baf136a-14f3bddea2e--8000
37
Wrapper for method=getRuntime, sender=ActiveObject_abs.backend.java.lib.runtime.COG_-1baf136a-14f3bddea2e--7fef--038eae23f0ad2b0a--1baf136a-14f3bddea2e--8000, sequenceNumber=2008732823
1439818519990
ServeStarted
ActiveObject_abs.backend.java.lib.runtime.COG_-1baf136a-14f3bddea2e--7fef--038eae23f0ad2b0a--1baf136a-14f3bddea2e--8000
37
Wrapper for method=getRuntime, sender=ActiveObject_abs.backend.java.lib.runtime.COG_-1baf136a-14f3bddea2e--7fef--038eae23f0ad2b0a--1baf136a-14f3bddea2e--8000, sequenceNumber=2008732824
1439818519992
ServeStopped
ActiveObject_abs.backend.java.lib.runtime.COG_-1baf136a-14f3bddea2e--7fef--038eae23f0ad2b0a--1baf136a-14f3bddea2e--8000
37
Wrapper for method=getRuntime, sender=ActiveObject_abs.backend.java.lib.runtime.COG_-1baf136a-14f3bddea2e--7fef--038eae23f0ad2b0a--1baf136a-14f3bddea2e--8000, sequenceNumber=2008732824
1439818519995
ServeStarted
ActiveObject_abs.backend.java.lib.runtime.COG_-1baf136a-14f3bddea2e--7fef--038eae23f0ad2b0a--1baf136a-14f3bddea2e--8000
37
Wrapper for method=getRuntime, sender=ActiveObject_abs.backend.java.lib.runtime.COG_-1baf136a-14f3bddea2e--7fef--038eae23f0ad2b0a--1baf136a-14f3bddea2e--8000, sequenceNumber=2008732826
1439818520010
ServeStopped
ActiveObject_abs.backend.java.lib.runtime.COG_-1baf136a-14f3bddea2e--7fef--038eae23f0ad2b0a--1baf136a-14f3bddea2e--8000
37
Wrapper for method=getRuntime, sender=ActiveObject_abs.backend.java.lib.runtime.COG_-1baf136a-14f3bddea2e--7fef--038eae23f0ad2b0a--1baf136a-14f3bddea2e--8000, sequenceNumber=2008732826
1439818520014
ServeStopped
ActiveObject_abs.backend.java.lib.runtime.COG_-1baf136a-14f3bddea2e--7fef--038eae23f0ad2b0a--1baf136a-14f3bddea2e--8000
34
Wrapper for method=execute, sender=ActiveObject_abs.backend.java.lib.runtime.COG_-613e2820-14f3bdde9ec--7ff2--068760b28f267db7--613e2820-14f3bdde9ec--8000, sequenceNumber=2008733500
1439818520019
