ServeStarted
ActiveObject_abs.backend.java.lib.runtime.COG_-4aa5dbd8-14f3bddeac7--7fef--60a6058ce15d5a3f--4aa5dbd8-14f3bddeac7--8000
34
Wrapper for method=getID, sender=ActiveObject_abs.backend.java.lib.runtime.COG_-613e2820-14f3bdde9ec--7ff2--068760b28f267db7--613e2820-14f3bdde9ec--8000, sequenceNumber=2008732923
1439818473141
ServeStopped
ActiveObject_abs.backend.java.lib.runtime.COG_-4aa5dbd8-14f3bddeac7--7fef--60a6058ce15d5a3f--4aa5dbd8-14f3bddeac7--8000
34
Wrapper for method=getID, sender=ActiveObject_abs.backend.java.lib.runtime.COG_-613e2820-14f3bdde9ec--7ff2--068760b28f267db7--613e2820-14f3bdde9ec--8000, sequenceNumber=2008732923
1439818473158
ServeStarted
ActiveObject_abs.backend.java.lib.runtime.COG_-4aa5dbd8-14f3bddeac7--7fef--60a6058ce15d5a3f--4aa5dbd8-14f3bddeac7--8000
34
Wrapper for method=getRuntime, sender=ActiveObject_abs.backend.java.lib.runtime.COG_-613e2820-14f3bdde9ec--7ff2--068760b28f267db7--613e2820-14f3bdde9ec--8000, sequenceNumber=2008732927
1439818473168
ServeStopped
ActiveObject_abs.backend.java.lib.runtime.COG_-4aa5dbd8-14f3bddeac7--7fef--60a6058ce15d5a3f--4aa5dbd8-14f3bddeac7--8000
34
Wrapper for method=getRuntime, sender=ActiveObject_abs.backend.java.lib.runtime.COG_-613e2820-14f3bdde9ec--7ff2--068760b28f267db7--613e2820-14f3bdde9ec--8000, sequenceNumber=2008732927
1439818473175
ServeStarted
ActiveObject_abs.backend.java.lib.runtime.COG_-4aa5dbd8-14f3bddeac7--7fef--60a6058ce15d5a3f--4aa5dbd8-14f3bddeac7--8000
34
Wrapper for method=register, sender=ActiveObject_abs.backend.java.lib.runtime.COG_-613e2820-14f3bdde9ec--7ff2--068760b28f267db7--613e2820-14f3bdde9ec--8000, sequenceNumber=2008732928
1439818473215
ServeStopped
ActiveObject_abs.backend.java.lib.runtime.COG_-4aa5dbd8-14f3bddeac7--7fef--60a6058ce15d5a3f--4aa5dbd8-14f3bddeac7--8000
34
Wrapper for method=register, sender=ActiveObject_abs.backend.java.lib.runtime.COG_-613e2820-14f3bdde9ec--7ff2--068760b28f267db7--613e2820-14f3bdde9ec--8000, sequenceNumber=2008732928
1439818473215
ServeStarted
ActiveObject_abs.backend.java.lib.runtime.COG_-4aa5dbd8-14f3bddeac7--7fef--60a6058ce15d5a3f--4aa5dbd8-14f3bddeac7--8000
34
Wrapper for method=objectCreated, sender=ActiveObject_abs.backend.java.lib.runtime.COG_-613e2820-14f3bdde9ec--7ff2--068760b28f267db7--613e2820-14f3bdde9ec--8000, sequenceNumber=2008732929
1439818473349
ServeStopped
ActiveObject_abs.backend.java.lib.runtime.COG_-4aa5dbd8-14f3bddeac7--7fef--60a6058ce15d5a3f--4aa5dbd8-14f3bddeac7--8000
34
Wrapper for method=objectCreated, sender=ActiveObject_abs.backend.java.lib.runtime.COG_-613e2820-14f3bdde9ec--7ff2--068760b28f267db7--613e2820-14f3bdde9ec--8000, sequenceNumber=2008732929
1439818473350
ServeStarted
ActiveObject_abs.backend.java.lib.runtime.COG_-4aa5dbd8-14f3bddeac7--7fef--60a6058ce15d5a3f--4aa5dbd8-14f3bddeac7--8000
34
Wrapper for method=objectInitialized, sender=ActiveObject_abs.backend.java.lib.runtime.COG_-613e2820-14f3bdde9ec--7ff2--068760b28f267db7--613e2820-14f3bdde9ec--8000, sequenceNumber=2008732930
1439818473398
ServeStopped
ActiveObject_abs.backend.java.lib.runtime.COG_-4aa5dbd8-14f3bddeac7--7fef--60a6058ce15d5a3f--4aa5dbd8-14f3bddeac7--8000
34
Wrapper for method=objectInitialized, sender=ActiveObject_abs.backend.java.lib.runtime.COG_-613e2820-14f3bdde9ec--7ff2--068760b28f267db7--613e2820-14f3bdde9ec--8000, sequenceNumber=2008732930
1439818473398
ServeStarted
ActiveObject_abs.backend.java.lib.runtime.COG_-4aa5dbd8-14f3bddeac7--7fef--60a6058ce15d5a3f--4aa5dbd8-14f3bddeac7--8000
34
Wrapper for method=registerObject, sender=ActiveObject_abs.backend.java.lib.runtime.COG_-613e2820-14f3bdde9ec--7ff2--068760b28f267db7--613e2820-14f3bdde9ec--8000, sequenceNumber=2008732931
1439818473445
ServeStopped
ActiveObject_abs.backend.java.lib.runtime.COG_-4aa5dbd8-14f3bddeac7--7fef--60a6058ce15d5a3f--4aa5dbd8-14f3bddeac7--8000
34
Wrapper for method=registerObject, sender=ActiveObject_abs.backend.java.lib.runtime.COG_-613e2820-14f3bdde9ec--7ff2--068760b28f267db7--613e2820-14f3bdde9ec--8000, sequenceNumber=2008732931
1439818473445
ServeStarted
ActiveObject_abs.backend.java.lib.runtime.COG_-4aa5dbd8-14f3bddeac7--7fef--60a6058ce15d5a3f--4aa5dbd8-14f3bddeac7--8000
34
Wrapper for method=execute, sender=ActiveObject_abs.backend.java.lib.runtime.COG_-613e2820-14f3bdde9ec--7ff2--068760b28f267db7--613e2820-14f3bdde9ec--8000, sequenceNumber=2008733053
1439818480165
ServeStarted
ActiveObject_abs.backend.java.lib.runtime.COG_-4aa5dbd8-14f3bddeac7--7fef--60a6058ce15d5a3f--4aa5dbd8-14f3bddeac7--8000
48
Wrapper for method=getRuntime, sender=ActiveObject_abs.backend.java.lib.runtime.COG_-4aa5dbd8-14f3bddeac7--7fef--60a6058ce15d5a3f--4aa5dbd8-14f3bddeac7--8000, sequenceNumber=2008733089
1439818482180
ServeStopped
ActiveObject_abs.backend.java.lib.runtime.COG_-4aa5dbd8-14f3bddeac7--7fef--60a6058ce15d5a3f--4aa5dbd8-14f3bddeac7--8000
48
Wrapper for method=getRuntime, sender=ActiveObject_abs.backend.java.lib.runtime.COG_-4aa5dbd8-14f3bddeac7--7fef--60a6058ce15d5a3f--4aa5dbd8-14f3bddeac7--8000, sequenceNumber=2008733089
1439818482184
ServeStarted
ActiveObject_abs.backend.java.lib.runtime.COG_-4aa5dbd8-14f3bddeac7--7fef--60a6058ce15d5a3f--4aa5dbd8-14f3bddeac7--8000
48
Wrapper for method=getRuntime, sender=ActiveObject_abs.backend.java.lib.runtime.COG_-4aa5dbd8-14f3bddeac7--7fef--60a6058ce15d5a3f--4aa5dbd8-14f3bddeac7--8000, sequenceNumber=2008733090
1439818482186
ServeStopped
ActiveObject_abs.backend.java.lib.runtime.COG_-4aa5dbd8-14f3bddeac7--7fef--60a6058ce15d5a3f--4aa5dbd8-14f3bddeac7--8000
48
Wrapper for method=getRuntime, sender=ActiveObject_abs.backend.java.lib.runtime.COG_-4aa5dbd8-14f3bddeac7--7fef--60a6058ce15d5a3f--4aa5dbd8-14f3bddeac7--8000, sequenceNumber=2008733090
1439818482189
ServeStarted
ActiveObject_abs.backend.java.lib.runtime.COG_-4aa5dbd8-14f3bddeac7--7fef--60a6058ce15d5a3f--4aa5dbd8-14f3bddeac7--8000
48
Wrapper for method=getRuntime, sender=ActiveObject_abs.backend.java.lib.runtime.COG_-4aa5dbd8-14f3bddeac7--7fef--60a6058ce15d5a3f--4aa5dbd8-14f3bddeac7--8000, sequenceNumber=2008733091
1439818482190
ServeStopped
ActiveObject_abs.backend.java.lib.runtime.COG_-4aa5dbd8-14f3bddeac7--7fef--60a6058ce15d5a3f--4aa5dbd8-14f3bddeac7--8000
48
Wrapper for method=getRuntime, sender=ActiveObject_abs.backend.java.lib.runtime.COG_-4aa5dbd8-14f3bddeac7--7fef--60a6058ce15d5a3f--4aa5dbd8-14f3bddeac7--8000, sequenceNumber=2008733091
1439818482193
ServeStarted
ActiveObject_abs.backend.java.lib.runtime.COG_-4aa5dbd8-14f3bddeac7--7fef--60a6058ce15d5a3f--4aa5dbd8-14f3bddeac7--8000
48
Wrapper for method=getRuntime, sender=ActiveObject_abs.backend.java.lib.runtime.COG_-4aa5dbd8-14f3bddeac7--7fef--60a6058ce15d5a3f--4aa5dbd8-14f3bddeac7--8000, sequenceNumber=2008733092
1439818482196
ServeStopped
ActiveObject_abs.backend.java.lib.runtime.COG_-4aa5dbd8-14f3bddeac7--7fef--60a6058ce15d5a3f--4aa5dbd8-14f3bddeac7--8000
48
Wrapper for method=getRuntime, sender=ActiveObject_abs.backend.java.lib.runtime.COG_-4aa5dbd8-14f3bddeac7--7fef--60a6058ce15d5a3f--4aa5dbd8-14f3bddeac7--8000, sequenceNumber=2008733092
1439818482199
ServeStarted
ActiveObject_abs.backend.java.lib.runtime.COG_-4aa5dbd8-14f3bddeac7--7fef--60a6058ce15d5a3f--4aa5dbd8-14f3bddeac7--8000
48
Wrapper for method=suspend, sender=ActiveObject_abs.backend.java.lib.runtime.COG_-4aa5dbd8-14f3bddeac7--7fef--60a6058ce15d5a3f--4aa5dbd8-14f3bddeac7--8000, sequenceNumber=2008733093
1439818482337
ServeStopped
ActiveObject_abs.backend.java.lib.runtime.COG_-4aa5dbd8-14f3bddeac7--7fef--60a6058ce15d5a3f--4aa5dbd8-14f3bddeac7--8000
48
Wrapper for method=suspend, sender=ActiveObject_abs.backend.java.lib.runtime.COG_-4aa5dbd8-14f3bddeac7--7fef--60a6058ce15d5a3f--4aa5dbd8-14f3bddeac7--8000, sequenceNumber=2008733093
1439818482343
ServeStarted
ActiveObject_abs.backend.java.lib.runtime.COG_-4aa5dbd8-14f3bddeac7--7fef--60a6058ce15d5a3f--4aa5dbd8-14f3bddeac7--8000
48
Wrapper for method=getRuntime, sender=ActiveObject_abs.backend.java.lib.runtime.COG_-4aa5dbd8-14f3bddeac7--7fef--60a6058ce15d5a3f--4aa5dbd8-14f3bddeac7--8000, sequenceNumber=2008733094
1439818489620
ServeStopped
ActiveObject_abs.backend.java.lib.runtime.COG_-4aa5dbd8-14f3bddeac7--7fef--60a6058ce15d5a3f--4aa5dbd8-14f3bddeac7--8000
48
Wrapper for method=getRuntime, sender=ActiveObject_abs.backend.java.lib.runtime.COG_-4aa5dbd8-14f3bddeac7--7fef--60a6058ce15d5a3f--4aa5dbd8-14f3bddeac7--8000, sequenceNumber=2008733094
1439818489624
ServeStarted
ActiveObject_abs.backend.java.lib.runtime.COG_-4aa5dbd8-14f3bddeac7--7fef--60a6058ce15d5a3f--4aa5dbd8-14f3bddeac7--8000
48
Wrapper for method=getRuntime, sender=ActiveObject_abs.backend.java.lib.runtime.COG_-4aa5dbd8-14f3bddeac7--7fef--60a6058ce15d5a3f--4aa5dbd8-14f3bddeac7--8000, sequenceNumber=2008733095
1439818489626
ServeStopped
ActiveObject_abs.backend.java.lib.runtime.COG_-4aa5dbd8-14f3bddeac7--7fef--60a6058ce15d5a3f--4aa5dbd8-14f3bddeac7--8000
48
Wrapper for method=getRuntime, sender=ActiveObject_abs.backend.java.lib.runtime.COG_-4aa5dbd8-14f3bddeac7--7fef--60a6058ce15d5a3f--4aa5dbd8-14f3bddeac7--8000, sequenceNumber=2008733095
1439818489630
ServeStarted
ActiveObject_abs.backend.java.lib.runtime.COG_-4aa5dbd8-14f3bddeac7--7fef--60a6058ce15d5a3f--4aa5dbd8-14f3bddeac7--8000
48
Wrapper for method=getRuntime, sender=ActiveObject_abs.backend.java.lib.runtime.COG_-4aa5dbd8-14f3bddeac7--7fef--60a6058ce15d5a3f--4aa5dbd8-14f3bddeac7--8000, sequenceNumber=2008733096
1439818489631
ServeStopped
ActiveObject_abs.backend.java.lib.runtime.COG_-4aa5dbd8-14f3bddeac7--7fef--60a6058ce15d5a3f--4aa5dbd8-14f3bddeac7--8000
48
Wrapper for method=getRuntime, sender=ActiveObject_abs.backend.java.lib.runtime.COG_-4aa5dbd8-14f3bddeac7--7fef--60a6058ce15d5a3f--4aa5dbd8-14f3bddeac7--8000, sequenceNumber=2008733096
1439818489634
ServeStarted
ActiveObject_abs.backend.java.lib.runtime.COG_-4aa5dbd8-14f3bddeac7--7fef--60a6058ce15d5a3f--4aa5dbd8-14f3bddeac7--8000
48
Wrapper for method=getRuntime, sender=ActiveObject_abs.backend.java.lib.runtime.COG_-4aa5dbd8-14f3bddeac7--7fef--60a6058ce15d5a3f--4aa5dbd8-14f3bddeac7--8000, sequenceNumber=2008733097
1439818489635
ServeStopped
ActiveObject_abs.backend.java.lib.runtime.COG_-4aa5dbd8-14f3bddeac7--7fef--60a6058ce15d5a3f--4aa5dbd8-14f3bddeac7--8000
48
Wrapper for method=getRuntime, sender=ActiveObject_abs.backend.java.lib.runtime.COG_-4aa5dbd8-14f3bddeac7--7fef--60a6058ce15d5a3f--4aa5dbd8-14f3bddeac7--8000, sequenceNumber=2008733097
1439818489638
ServeStarted
ActiveObject_abs.backend.java.lib.runtime.COG_-4aa5dbd8-14f3bddeac7--7fef--60a6058ce15d5a3f--4aa5dbd8-14f3bddeac7--8000
48
Wrapper for method=getRuntime, sender=ActiveObject_abs.backend.java.lib.runtime.COG_-4aa5dbd8-14f3bddeac7--7fef--60a6058ce15d5a3f--4aa5dbd8-14f3bddeac7--8000, sequenceNumber=2008733098
1439818489640
ServeStopped
ActiveObject_abs.backend.java.lib.runtime.COG_-4aa5dbd8-14f3bddeac7--7fef--60a6058ce15d5a3f--4aa5dbd8-14f3bddeac7--8000
48
Wrapper for method=getRuntime, sender=ActiveObject_abs.backend.java.lib.runtime.COG_-4aa5dbd8-14f3bddeac7--7fef--60a6058ce15d5a3f--4aa5dbd8-14f3bddeac7--8000, sequenceNumber=2008733098
1439818489643
ServeStarted
ActiveObject_abs.backend.java.lib.runtime.COG_-4aa5dbd8-14f3bddeac7--7fef--60a6058ce15d5a3f--4aa5dbd8-14f3bddeac7--8000
48
Wrapper for method=getRuntime, sender=ActiveObject_abs.backend.java.lib.runtime.COG_-4aa5dbd8-14f3bddeac7--7fef--60a6058ce15d5a3f--4aa5dbd8-14f3bddeac7--8000, sequenceNumber=2008733099
1439818489645
ServeStopped
ActiveObject_abs.backend.java.lib.runtime.COG_-4aa5dbd8-14f3bddeac7--7fef--60a6058ce15d5a3f--4aa5dbd8-14f3bddeac7--8000
48
Wrapper for method=getRuntime, sender=ActiveObject_abs.backend.java.lib.runtime.COG_-4aa5dbd8-14f3bddeac7--7fef--60a6058ce15d5a3f--4aa5dbd8-14f3bddeac7--8000, sequenceNumber=2008733099
1439818489648
ServeStarted
ActiveObject_abs.backend.java.lib.runtime.COG_-4aa5dbd8-14f3bddeac7--7fef--60a6058ce15d5a3f--4aa5dbd8-14f3bddeac7--8000
48
Wrapper for method=getRuntime, sender=ActiveObject_abs.backend.java.lib.runtime.COG_-4aa5dbd8-14f3bddeac7--7fef--60a6058ce15d5a3f--4aa5dbd8-14f3bddeac7--8000, sequenceNumber=2008733100
1439818489649
ServeStopped
ActiveObject_abs.backend.java.lib.runtime.COG_-4aa5dbd8-14f3bddeac7--7fef--60a6058ce15d5a3f--4aa5dbd8-14f3bddeac7--8000
48
Wrapper for method=getRuntime, sender=ActiveObject_abs.backend.java.lib.runtime.COG_-4aa5dbd8-14f3bddeac7--7fef--60a6058ce15d5a3f--4aa5dbd8-14f3bddeac7--8000, sequenceNumber=2008733100
1439818489652
ServeStarted
ActiveObject_abs.backend.java.lib.runtime.COG_-4aa5dbd8-14f3bddeac7--7fef--60a6058ce15d5a3f--4aa5dbd8-14f3bddeac7--8000
48
Wrapper for method=getRuntime, sender=ActiveObject_abs.backend.java.lib.runtime.COG_-4aa5dbd8-14f3bddeac7--7fef--60a6058ce15d5a3f--4aa5dbd8-14f3bddeac7--8000, sequenceNumber=2008733102
1439818489807
ServeStopped
ActiveObject_abs.backend.java.lib.runtime.COG_-4aa5dbd8-14f3bddeac7--7fef--60a6058ce15d5a3f--4aa5dbd8-14f3bddeac7--8000
48
Wrapper for method=getRuntime, sender=ActiveObject_abs.backend.java.lib.runtime.COG_-4aa5dbd8-14f3bddeac7--7fef--60a6058ce15d5a3f--4aa5dbd8-14f3bddeac7--8000, sequenceNumber=2008733102
1439818489810
ServeStopped
ActiveObject_abs.backend.java.lib.runtime.COG_-4aa5dbd8-14f3bddeac7--7fef--60a6058ce15d5a3f--4aa5dbd8-14f3bddeac7--8000
34
Wrapper for method=execute, sender=ActiveObject_abs.backend.java.lib.runtime.COG_-613e2820-14f3bdde9ec--7ff2--068760b28f267db7--613e2820-14f3bdde9ec--8000, sequenceNumber=2008733053
1439818489814
ServeStarted
ActiveObject_abs.backend.java.lib.runtime.COG_-4aa5dbd8-14f3bddeac7--7fef--60a6058ce15d5a3f--4aa5dbd8-14f3bddeac7--8000
34
Wrapper for method=execute, sender=ActiveObject_abs.backend.java.lib.runtime.COG_-613e2820-14f3bdde9ec--7ff2--068760b28f267db7--613e2820-14f3bdde9ec--8000, sequenceNumber=2008733456
1439818512968
ServeStarted
ActiveObject_abs.backend.java.lib.runtime.COG_-4aa5dbd8-14f3bddeac7--7fef--60a6058ce15d5a3f--4aa5dbd8-14f3bddeac7--8000
48
Wrapper for method=getRuntime, sender=ActiveObject_abs.backend.java.lib.runtime.COG_-4aa5dbd8-14f3bddeac7--7fef--60a6058ce15d5a3f--4aa5dbd8-14f3bddeac7--8000, sequenceNumber=2008733104
1439818512971
ServeStopped
ActiveObject_abs.backend.java.lib.runtime.COG_-4aa5dbd8-14f3bddeac7--7fef--60a6058ce15d5a3f--4aa5dbd8-14f3bddeac7--8000
48
Wrapper for method=getRuntime, sender=ActiveObject_abs.backend.java.lib.runtime.COG_-4aa5dbd8-14f3bddeac7--7fef--60a6058ce15d5a3f--4aa5dbd8-14f3bddeac7--8000, sequenceNumber=2008733104
1439818512974
ServeStarted
ActiveObject_abs.backend.java.lib.runtime.COG_-4aa5dbd8-14f3bddeac7--7fef--60a6058ce15d5a3f--4aa5dbd8-14f3bddeac7--8000
48
Wrapper for method=getRuntime, sender=ActiveObject_abs.backend.java.lib.runtime.COG_-4aa5dbd8-14f3bddeac7--7fef--60a6058ce15d5a3f--4aa5dbd8-14f3bddeac7--8000, sequenceNumber=2008733105
1439818512977
ServeStopped
ActiveObject_abs.backend.java.lib.runtime.COG_-4aa5dbd8-14f3bddeac7--7fef--60a6058ce15d5a3f--4aa5dbd8-14f3bddeac7--8000
48
Wrapper for method=getRuntime, sender=ActiveObject_abs.backend.java.lib.runtime.COG_-4aa5dbd8-14f3bddeac7--7fef--60a6058ce15d5a3f--4aa5dbd8-14f3bddeac7--8000, sequenceNumber=2008733105
1439818512980
ServeStarted
ActiveObject_abs.backend.java.lib.runtime.COG_-4aa5dbd8-14f3bddeac7--7fef--60a6058ce15d5a3f--4aa5dbd8-14f3bddeac7--8000
48
Wrapper for method=getRuntime, sender=ActiveObject_abs.backend.java.lib.runtime.COG_-4aa5dbd8-14f3bddeac7--7fef--60a6058ce15d5a3f--4aa5dbd8-14f3bddeac7--8000, sequenceNumber=2008733106
1439818512981
ServeStopped
ActiveObject_abs.backend.java.lib.runtime.COG_-4aa5dbd8-14f3bddeac7--7fef--60a6058ce15d5a3f--4aa5dbd8-14f3bddeac7--8000
48
Wrapper for method=getRuntime, sender=ActiveObject_abs.backend.java.lib.runtime.COG_-4aa5dbd8-14f3bddeac7--7fef--60a6058ce15d5a3f--4aa5dbd8-14f3bddeac7--8000, sequenceNumber=2008733106
1439818512984
ServeStarted
ActiveObject_abs.backend.java.lib.runtime.COG_-4aa5dbd8-14f3bddeac7--7fef--60a6058ce15d5a3f--4aa5dbd8-14f3bddeac7--8000
48
Wrapper for method=getRuntime, sender=ActiveObject_abs.backend.java.lib.runtime.COG_-4aa5dbd8-14f3bddeac7--7fef--60a6058ce15d5a3f--4aa5dbd8-14f3bddeac7--8000, sequenceNumber=2008733107
1439818512987
ServeStopped
ActiveObject_abs.backend.java.lib.runtime.COG_-4aa5dbd8-14f3bddeac7--7fef--60a6058ce15d5a3f--4aa5dbd8-14f3bddeac7--8000
48
Wrapper for method=getRuntime, sender=ActiveObject_abs.backend.java.lib.runtime.COG_-4aa5dbd8-14f3bddeac7--7fef--60a6058ce15d5a3f--4aa5dbd8-14f3bddeac7--8000, sequenceNumber=2008733107
1439818512990
ServeStarted
ActiveObject_abs.backend.java.lib.runtime.COG_-4aa5dbd8-14f3bddeac7--7fef--60a6058ce15d5a3f--4aa5dbd8-14f3bddeac7--8000
48
Wrapper for method=suspend, sender=ActiveObject_abs.backend.java.lib.runtime.COG_-4aa5dbd8-14f3bddeac7--7fef--60a6058ce15d5a3f--4aa5dbd8-14f3bddeac7--8000, sequenceNumber=2008733108
1439818512993
ServeStopped
ActiveObject_abs.backend.java.lib.runtime.COG_-4aa5dbd8-14f3bddeac7--7fef--60a6058ce15d5a3f--4aa5dbd8-14f3bddeac7--8000
48
Wrapper for method=suspend, sender=ActiveObject_abs.backend.java.lib.runtime.COG_-4aa5dbd8-14f3bddeac7--7fef--60a6058ce15d5a3f--4aa5dbd8-14f3bddeac7--8000, sequenceNumber=2008733108
1439818512995
ServeStarted
ActiveObject_abs.backend.java.lib.runtime.COG_-4aa5dbd8-14f3bddeac7--7fef--60a6058ce15d5a3f--4aa5dbd8-14f3bddeac7--8000
48
Wrapper for method=getRuntime, sender=ActiveObject_abs.backend.java.lib.runtime.COG_-4aa5dbd8-14f3bddeac7--7fef--60a6058ce15d5a3f--4aa5dbd8-14f3bddeac7--8000, sequenceNumber=2008733109
1439818519977
ServeStopped
ActiveObject_abs.backend.java.lib.runtime.COG_-4aa5dbd8-14f3bddeac7--7fef--60a6058ce15d5a3f--4aa5dbd8-14f3bddeac7--8000
48
Wrapper for method=getRuntime, sender=ActiveObject_abs.backend.java.lib.runtime.COG_-4aa5dbd8-14f3bddeac7--7fef--60a6058ce15d5a3f--4aa5dbd8-14f3bddeac7--8000, sequenceNumber=2008733109
1439818519980
ServeStarted
ActiveObject_abs.backend.java.lib.runtime.COG_-4aa5dbd8-14f3bddeac7--7fef--60a6058ce15d5a3f--4aa5dbd8-14f3bddeac7--8000
48
Wrapper for method=getRuntime, sender=ActiveObject_abs.backend.java.lib.runtime.COG_-4aa5dbd8-14f3bddeac7--7fef--60a6058ce15d5a3f--4aa5dbd8-14f3bddeac7--8000, sequenceNumber=2008733110
1439818519982
ServeStopped
ActiveObject_abs.backend.java.lib.runtime.COG_-4aa5dbd8-14f3bddeac7--7fef--60a6058ce15d5a3f--4aa5dbd8-14f3bddeac7--8000
48
Wrapper for method=getRuntime, sender=ActiveObject_abs.backend.java.lib.runtime.COG_-4aa5dbd8-14f3bddeac7--7fef--60a6058ce15d5a3f--4aa5dbd8-14f3bddeac7--8000, sequenceNumber=2008733110
1439818519985
ServeStarted
ActiveObject_abs.backend.java.lib.runtime.COG_-4aa5dbd8-14f3bddeac7--7fef--60a6058ce15d5a3f--4aa5dbd8-14f3bddeac7--8000
48
Wrapper for method=getRuntime, sender=ActiveObject_abs.backend.java.lib.runtime.COG_-4aa5dbd8-14f3bddeac7--7fef--60a6058ce15d5a3f--4aa5dbd8-14f3bddeac7--8000, sequenceNumber=2008733111
1439818519987
ServeStopped
ActiveObject_abs.backend.java.lib.runtime.COG_-4aa5dbd8-14f3bddeac7--7fef--60a6058ce15d5a3f--4aa5dbd8-14f3bddeac7--8000
48
Wrapper for method=getRuntime, sender=ActiveObject_abs.backend.java.lib.runtime.COG_-4aa5dbd8-14f3bddeac7--7fef--60a6058ce15d5a3f--4aa5dbd8-14f3bddeac7--8000, sequenceNumber=2008733111
1439818519990
ServeStarted
ActiveObject_abs.backend.java.lib.runtime.COG_-4aa5dbd8-14f3bddeac7--7fef--60a6058ce15d5a3f--4aa5dbd8-14f3bddeac7--8000
48
Wrapper for method=getRuntime, sender=ActiveObject_abs.backend.java.lib.runtime.COG_-4aa5dbd8-14f3bddeac7--7fef--60a6058ce15d5a3f--4aa5dbd8-14f3bddeac7--8000, sequenceNumber=2008733112
1439818519992
ServeStopped
ActiveObject_abs.backend.java.lib.runtime.COG_-4aa5dbd8-14f3bddeac7--7fef--60a6058ce15d5a3f--4aa5dbd8-14f3bddeac7--8000
48
Wrapper for method=getRuntime, sender=ActiveObject_abs.backend.java.lib.runtime.COG_-4aa5dbd8-14f3bddeac7--7fef--60a6058ce15d5a3f--4aa5dbd8-14f3bddeac7--8000, sequenceNumber=2008733112
1439818519996
ServeStarted
ActiveObject_abs.backend.java.lib.runtime.COG_-4aa5dbd8-14f3bddeac7--7fef--60a6058ce15d5a3f--4aa5dbd8-14f3bddeac7--8000
48
Wrapper for method=getRuntime, sender=ActiveObject_abs.backend.java.lib.runtime.COG_-4aa5dbd8-14f3bddeac7--7fef--60a6058ce15d5a3f--4aa5dbd8-14f3bddeac7--8000, sequenceNumber=2008733113
1439818519997
ServeStopped
ActiveObject_abs.backend.java.lib.runtime.COG_-4aa5dbd8-14f3bddeac7--7fef--60a6058ce15d5a3f--4aa5dbd8-14f3bddeac7--8000
48
Wrapper for method=getRuntime, sender=ActiveObject_abs.backend.java.lib.runtime.COG_-4aa5dbd8-14f3bddeac7--7fef--60a6058ce15d5a3f--4aa5dbd8-14f3bddeac7--8000, sequenceNumber=2008733113
1439818520002
ServeStarted
ActiveObject_abs.backend.java.lib.runtime.COG_-4aa5dbd8-14f3bddeac7--7fef--60a6058ce15d5a3f--4aa5dbd8-14f3bddeac7--8000
50
Wrapper for method=getRuntime, sender=ActiveObject_abs.backend.java.lib.runtime.COG_-4aa5dbd8-14f3bddeac7--7fef--60a6058ce15d5a3f--4aa5dbd8-14f3bddeac7--8000, sequenceNumber=2008733114
1439818520003
ServeStopped
ActiveObject_abs.backend.java.lib.runtime.COG_-4aa5dbd8-14f3bddeac7--7fef--60a6058ce15d5a3f--4aa5dbd8-14f3bddeac7--8000
50
Wrapper for method=getRuntime, sender=ActiveObject_abs.backend.java.lib.runtime.COG_-4aa5dbd8-14f3bddeac7--7fef--60a6058ce15d5a3f--4aa5dbd8-14f3bddeac7--8000, sequenceNumber=2008733114
1439818520006
ServeStarted
ActiveObject_abs.backend.java.lib.runtime.COG_-4aa5dbd8-14f3bddeac7--7fef--60a6058ce15d5a3f--4aa5dbd8-14f3bddeac7--8000
50
Wrapper for method=getRuntime, sender=ActiveObject_abs.backend.java.lib.runtime.COG_-4aa5dbd8-14f3bddeac7--7fef--60a6058ce15d5a3f--4aa5dbd8-14f3bddeac7--8000, sequenceNumber=2008733115
1439818520008
ServeStopped
ActiveObject_abs.backend.java.lib.runtime.COG_-4aa5dbd8-14f3bddeac7--7fef--60a6058ce15d5a3f--4aa5dbd8-14f3bddeac7--8000
50
Wrapper for method=getRuntime, sender=ActiveObject_abs.backend.java.lib.runtime.COG_-4aa5dbd8-14f3bddeac7--7fef--60a6058ce15d5a3f--4aa5dbd8-14f3bddeac7--8000, sequenceNumber=2008733115
1439818520011
ServeStarted
ActiveObject_abs.backend.java.lib.runtime.COG_-4aa5dbd8-14f3bddeac7--7fef--60a6058ce15d5a3f--4aa5dbd8-14f3bddeac7--8000
50
Wrapper for method=getRuntime, sender=ActiveObject_abs.backend.java.lib.runtime.COG_-4aa5dbd8-14f3bddeac7--7fef--60a6058ce15d5a3f--4aa5dbd8-14f3bddeac7--8000, sequenceNumber=2008733117
1439818520048
ServeStopped
ActiveObject_abs.backend.java.lib.runtime.COG_-4aa5dbd8-14f3bddeac7--7fef--60a6058ce15d5a3f--4aa5dbd8-14f3bddeac7--8000
50
Wrapper for method=getRuntime, sender=ActiveObject_abs.backend.java.lib.runtime.COG_-4aa5dbd8-14f3bddeac7--7fef--60a6058ce15d5a3f--4aa5dbd8-14f3bddeac7--8000, sequenceNumber=2008733117
1439818520052
ServeStopped
ActiveObject_abs.backend.java.lib.runtime.COG_-4aa5dbd8-14f3bddeac7--7fef--60a6058ce15d5a3f--4aa5dbd8-14f3bddeac7--8000
34
Wrapper for method=execute, sender=ActiveObject_abs.backend.java.lib.runtime.COG_-613e2820-14f3bdde9ec--7ff2--068760b28f267db7--613e2820-14f3bdde9ec--8000, sequenceNumber=2008733456
1439818520057
