ServeStarted
ActiveObject_abs.backend.java.lib.runtime.COG_-511b52b6-14f3bddeaaa--7fef--412952ea8ace6ef8--511b52b6-14f3bddeaaa--8000
34
Wrapper for method=getID, sender=ActiveObject_abs.backend.java.lib.runtime.COG_-613e2820-14f3bdde9ec--7ff2--068760b28f267db7--613e2820-14f3bdde9ec--8000, sequenceNumber=2008732956
1439818474865
ServeStopped
ActiveObject_abs.backend.java.lib.runtime.COG_-511b52b6-14f3bddeaaa--7fef--412952ea8ace6ef8--511b52b6-14f3bddeaaa--8000
34
Wrapper for method=getID, sender=ActiveObject_abs.backend.java.lib.runtime.COG_-613e2820-14f3bdde9ec--7ff2--068760b28f267db7--613e2820-14f3bdde9ec--8000, sequenceNumber=2008732956
1439818474883
ServeStarted
ActiveObject_abs.backend.java.lib.runtime.COG_-511b52b6-14f3bddeaaa--7fef--412952ea8ace6ef8--511b52b6-14f3bddeaaa--8000
34
Wrapper for method=getRuntime, sender=ActiveObject_abs.backend.java.lib.runtime.COG_-613e2820-14f3bdde9ec--7ff2--068760b28f267db7--613e2820-14f3bdde9ec--8000, sequenceNumber=2008732957
1439818474892
ServeStopped
ActiveObject_abs.backend.java.lib.runtime.COG_-511b52b6-14f3bddeaaa--7fef--412952ea8ace6ef8--511b52b6-14f3bddeaaa--8000
34
Wrapper for method=getRuntime, sender=ActiveObject_abs.backend.java.lib.runtime.COG_-613e2820-14f3bdde9ec--7ff2--068760b28f267db7--613e2820-14f3bdde9ec--8000, sequenceNumber=2008732957
1439818474899
ServeStarted
ActiveObject_abs.backend.java.lib.runtime.COG_-511b52b6-14f3bddeaaa--7fef--412952ea8ace6ef8--511b52b6-14f3bddeaaa--8000
34
Wrapper for method=register, sender=ActiveObject_abs.backend.java.lib.runtime.COG_-613e2820-14f3bdde9ec--7ff2--068760b28f267db7--613e2820-14f3bdde9ec--8000, sequenceNumber=2008732958
1439818474933
ServeStopped
ActiveObject_abs.backend.java.lib.runtime.COG_-511b52b6-14f3bddeaaa--7fef--412952ea8ace6ef8--511b52b6-14f3bddeaaa--8000
34
Wrapper for method=register, sender=ActiveObject_abs.backend.java.lib.runtime.COG_-613e2820-14f3bdde9ec--7ff2--068760b28f267db7--613e2820-14f3bdde9ec--8000, sequenceNumber=2008732958
1439818474933
ServeStarted
ActiveObject_abs.backend.java.lib.runtime.COG_-511b52b6-14f3bddeaaa--7fef--412952ea8ace6ef8--511b52b6-14f3bddeaaa--8000
34
Wrapper for method=objectCreated, sender=ActiveObject_abs.backend.java.lib.runtime.COG_-613e2820-14f3bdde9ec--7ff2--068760b28f267db7--613e2820-14f3bdde9ec--8000, sequenceNumber=2008732959
1439818475085
ServeStopped
ActiveObject_abs.backend.java.lib.runtime.COG_-511b52b6-14f3bddeaaa--7fef--412952ea8ace6ef8--511b52b6-14f3bddeaaa--8000
34
Wrapper for method=objectCreated, sender=ActiveObject_abs.backend.java.lib.runtime.COG_-613e2820-14f3bdde9ec--7ff2--068760b28f267db7--613e2820-14f3bdde9ec--8000, sequenceNumber=2008732959
1439818475086
ServeStarted
ActiveObject_abs.backend.java.lib.runtime.COG_-511b52b6-14f3bddeaaa--7fef--412952ea8ace6ef8--511b52b6-14f3bddeaaa--8000
34
Wrapper for method=objectInitialized, sender=ActiveObject_abs.backend.java.lib.runtime.COG_-613e2820-14f3bdde9ec--7ff2--068760b28f267db7--613e2820-14f3bdde9ec--8000, sequenceNumber=2008732960
1439818475142
ServeStopped
ActiveObject_abs.backend.java.lib.runtime.COG_-511b52b6-14f3bddeaaa--7fef--412952ea8ace6ef8--511b52b6-14f3bddeaaa--8000
34
Wrapper for method=objectInitialized, sender=ActiveObject_abs.backend.java.lib.runtime.COG_-613e2820-14f3bdde9ec--7ff2--068760b28f267db7--613e2820-14f3bdde9ec--8000, sequenceNumber=2008732960
1439818475142
ServeStarted
ActiveObject_abs.backend.java.lib.runtime.COG_-511b52b6-14f3bddeaaa--7fef--412952ea8ace6ef8--511b52b6-14f3bddeaaa--8000
34
Wrapper for method=registerObject, sender=ActiveObject_abs.backend.java.lib.runtime.COG_-613e2820-14f3bdde9ec--7ff2--068760b28f267db7--613e2820-14f3bdde9ec--8000, sequenceNumber=2008732961
1439818475195
ServeStopped
ActiveObject_abs.backend.java.lib.runtime.COG_-511b52b6-14f3bddeaaa--7fef--412952ea8ace6ef8--511b52b6-14f3bddeaaa--8000
34
Wrapper for method=registerObject, sender=ActiveObject_abs.backend.java.lib.runtime.COG_-613e2820-14f3bdde9ec--7ff2--068760b28f267db7--613e2820-14f3bdde9ec--8000, sequenceNumber=2008732961
1439818475196
ServeStarted
ActiveObject_abs.backend.java.lib.runtime.COG_-511b52b6-14f3bddeaaa--7fef--412952ea8ace6ef8--511b52b6-14f3bddeaaa--8000
34
Wrapper for method=execute, sender=ActiveObject_abs.backend.java.lib.runtime.COG_-613e2820-14f3bdde9ec--7ff2--068760b28f267db7--613e2820-14f3bdde9ec--8000, sequenceNumber=2008733115
1439818484776
ServeStarted
ActiveObject_abs.backend.java.lib.runtime.COG_-511b52b6-14f3bddeaaa--7fef--412952ea8ace6ef8--511b52b6-14f3bddeaaa--8000
52
Wrapper for method=getRuntime, sender=ActiveObject_abs.backend.java.lib.runtime.COG_-511b52b6-14f3bddeaaa--7fef--412952ea8ace6ef8--511b52b6-14f3bddeaaa--8000, sequenceNumber=2008733031
1439818486876
ServeStopped
ActiveObject_abs.backend.java.lib.runtime.COG_-511b52b6-14f3bddeaaa--7fef--412952ea8ace6ef8--511b52b6-14f3bddeaaa--8000
52
Wrapper for method=getRuntime, sender=ActiveObject_abs.backend.java.lib.runtime.COG_-511b52b6-14f3bddeaaa--7fef--412952ea8ace6ef8--511b52b6-14f3bddeaaa--8000, sequenceNumber=2008733031
1439818486880
ServeStarted
ActiveObject_abs.backend.java.lib.runtime.COG_-511b52b6-14f3bddeaaa--7fef--412952ea8ace6ef8--511b52b6-14f3bddeaaa--8000
52
Wrapper for method=getRuntime, sender=ActiveObject_abs.backend.java.lib.runtime.COG_-511b52b6-14f3bddeaaa--7fef--412952ea8ace6ef8--511b52b6-14f3bddeaaa--8000, sequenceNumber=2008733032
1439818486882
ServeStopped
ActiveObject_abs.backend.java.lib.runtime.COG_-511b52b6-14f3bddeaaa--7fef--412952ea8ace6ef8--511b52b6-14f3bddeaaa--8000
52
Wrapper for method=getRuntime, sender=ActiveObject_abs.backend.java.lib.runtime.COG_-511b52b6-14f3bddeaaa--7fef--412952ea8ace6ef8--511b52b6-14f3bddeaaa--8000, sequenceNumber=2008733032
1439818486885
ServeStarted
ActiveObject_abs.backend.java.lib.runtime.COG_-511b52b6-14f3bddeaaa--7fef--412952ea8ace6ef8--511b52b6-14f3bddeaaa--8000
52
Wrapper for method=getRuntime, sender=ActiveObject_abs.backend.java.lib.runtime.COG_-511b52b6-14f3bddeaaa--7fef--412952ea8ace6ef8--511b52b6-14f3bddeaaa--8000, sequenceNumber=2008733033
1439818486887
ServeStopped
ActiveObject_abs.backend.java.lib.runtime.COG_-511b52b6-14f3bddeaaa--7fef--412952ea8ace6ef8--511b52b6-14f3bddeaaa--8000
52
Wrapper for method=getRuntime, sender=ActiveObject_abs.backend.java.lib.runtime.COG_-511b52b6-14f3bddeaaa--7fef--412952ea8ace6ef8--511b52b6-14f3bddeaaa--8000, sequenceNumber=2008733033
1439818486890
ServeStarted
ActiveObject_abs.backend.java.lib.runtime.COG_-511b52b6-14f3bddeaaa--7fef--412952ea8ace6ef8--511b52b6-14f3bddeaaa--8000
52
Wrapper for method=getRuntime, sender=ActiveObject_abs.backend.java.lib.runtime.COG_-511b52b6-14f3bddeaaa--7fef--412952ea8ace6ef8--511b52b6-14f3bddeaaa--8000, sequenceNumber=2008733034
1439818486893
ServeStopped
ActiveObject_abs.backend.java.lib.runtime.COG_-511b52b6-14f3bddeaaa--7fef--412952ea8ace6ef8--511b52b6-14f3bddeaaa--8000
52
Wrapper for method=getRuntime, sender=ActiveObject_abs.backend.java.lib.runtime.COG_-511b52b6-14f3bddeaaa--7fef--412952ea8ace6ef8--511b52b6-14f3bddeaaa--8000, sequenceNumber=2008733034
1439818486896
ServeStarted
ActiveObject_abs.backend.java.lib.runtime.COG_-511b52b6-14f3bddeaaa--7fef--412952ea8ace6ef8--511b52b6-14f3bddeaaa--8000
52
Wrapper for method=suspend, sender=ActiveObject_abs.backend.java.lib.runtime.COG_-511b52b6-14f3bddeaaa--7fef--412952ea8ace6ef8--511b52b6-14f3bddeaaa--8000, sequenceNumber=2008733035
1439818487064
ServeStopped
ActiveObject_abs.backend.java.lib.runtime.COG_-511b52b6-14f3bddeaaa--7fef--412952ea8ace6ef8--511b52b6-14f3bddeaaa--8000
52
Wrapper for method=suspend, sender=ActiveObject_abs.backend.java.lib.runtime.COG_-511b52b6-14f3bddeaaa--7fef--412952ea8ace6ef8--511b52b6-14f3bddeaaa--8000, sequenceNumber=2008733035
1439818487071
ServeStarted
ActiveObject_abs.backend.java.lib.runtime.COG_-511b52b6-14f3bddeaaa--7fef--412952ea8ace6ef8--511b52b6-14f3bddeaaa--8000
52
Wrapper for method=getRuntime, sender=ActiveObject_abs.backend.java.lib.runtime.COG_-511b52b6-14f3bddeaaa--7fef--412952ea8ace6ef8--511b52b6-14f3bddeaaa--8000, sequenceNumber=2008733036
1439818494362
ServeStopped
ActiveObject_abs.backend.java.lib.runtime.COG_-511b52b6-14f3bddeaaa--7fef--412952ea8ace6ef8--511b52b6-14f3bddeaaa--8000
52
Wrapper for method=getRuntime, sender=ActiveObject_abs.backend.java.lib.runtime.COG_-511b52b6-14f3bddeaaa--7fef--412952ea8ace6ef8--511b52b6-14f3bddeaaa--8000, sequenceNumber=2008733036
1439818494367
ServeStarted
ActiveObject_abs.backend.java.lib.runtime.COG_-511b52b6-14f3bddeaaa--7fef--412952ea8ace6ef8--511b52b6-14f3bddeaaa--8000
52
Wrapper for method=getRuntime, sender=ActiveObject_abs.backend.java.lib.runtime.COG_-511b52b6-14f3bddeaaa--7fef--412952ea8ace6ef8--511b52b6-14f3bddeaaa--8000, sequenceNumber=2008733037
1439818494369
ServeStopped
ActiveObject_abs.backend.java.lib.runtime.COG_-511b52b6-14f3bddeaaa--7fef--412952ea8ace6ef8--511b52b6-14f3bddeaaa--8000
52
Wrapper for method=getRuntime, sender=ActiveObject_abs.backend.java.lib.runtime.COG_-511b52b6-14f3bddeaaa--7fef--412952ea8ace6ef8--511b52b6-14f3bddeaaa--8000, sequenceNumber=2008733037
1439818494373
ServeStarted
ActiveObject_abs.backend.java.lib.runtime.COG_-511b52b6-14f3bddeaaa--7fef--412952ea8ace6ef8--511b52b6-14f3bddeaaa--8000
52
Wrapper for method=getRuntime, sender=ActiveObject_abs.backend.java.lib.runtime.COG_-511b52b6-14f3bddeaaa--7fef--412952ea8ace6ef8--511b52b6-14f3bddeaaa--8000, sequenceNumber=2008733038
1439818494374
ServeStopped
ActiveObject_abs.backend.java.lib.runtime.COG_-511b52b6-14f3bddeaaa--7fef--412952ea8ace6ef8--511b52b6-14f3bddeaaa--8000
52
Wrapper for method=getRuntime, sender=ActiveObject_abs.backend.java.lib.runtime.COG_-511b52b6-14f3bddeaaa--7fef--412952ea8ace6ef8--511b52b6-14f3bddeaaa--8000, sequenceNumber=2008733038
1439818494377
ServeStarted
ActiveObject_abs.backend.java.lib.runtime.COG_-511b52b6-14f3bddeaaa--7fef--412952ea8ace6ef8--511b52b6-14f3bddeaaa--8000
52
Wrapper for method=getRuntime, sender=ActiveObject_abs.backend.java.lib.runtime.COG_-511b52b6-14f3bddeaaa--7fef--412952ea8ace6ef8--511b52b6-14f3bddeaaa--8000, sequenceNumber=2008733039
1439818494379
ServeStopped
ActiveObject_abs.backend.java.lib.runtime.COG_-511b52b6-14f3bddeaaa--7fef--412952ea8ace6ef8--511b52b6-14f3bddeaaa--8000
52
Wrapper for method=getRuntime, sender=ActiveObject_abs.backend.java.lib.runtime.COG_-511b52b6-14f3bddeaaa--7fef--412952ea8ace6ef8--511b52b6-14f3bddeaaa--8000, sequenceNumber=2008733039
1439818494382
ServeStarted
ActiveObject_abs.backend.java.lib.runtime.COG_-511b52b6-14f3bddeaaa--7fef--412952ea8ace6ef8--511b52b6-14f3bddeaaa--8000
52
Wrapper for method=getRuntime, sender=ActiveObject_abs.backend.java.lib.runtime.COG_-511b52b6-14f3bddeaaa--7fef--412952ea8ace6ef8--511b52b6-14f3bddeaaa--8000, sequenceNumber=2008733040
1439818494384
ServeStopped
ActiveObject_abs.backend.java.lib.runtime.COG_-511b52b6-14f3bddeaaa--7fef--412952ea8ace6ef8--511b52b6-14f3bddeaaa--8000
52
Wrapper for method=getRuntime, sender=ActiveObject_abs.backend.java.lib.runtime.COG_-511b52b6-14f3bddeaaa--7fef--412952ea8ace6ef8--511b52b6-14f3bddeaaa--8000, sequenceNumber=2008733040
1439818494387
ServeStarted
ActiveObject_abs.backend.java.lib.runtime.COG_-511b52b6-14f3bddeaaa--7fef--412952ea8ace6ef8--511b52b6-14f3bddeaaa--8000
52
Wrapper for method=getRuntime, sender=ActiveObject_abs.backend.java.lib.runtime.COG_-511b52b6-14f3bddeaaa--7fef--412952ea8ace6ef8--511b52b6-14f3bddeaaa--8000, sequenceNumber=2008733041
1439818494389
ServeStopped
ActiveObject_abs.backend.java.lib.runtime.COG_-511b52b6-14f3bddeaaa--7fef--412952ea8ace6ef8--511b52b6-14f3bddeaaa--8000
52
Wrapper for method=getRuntime, sender=ActiveObject_abs.backend.java.lib.runtime.COG_-511b52b6-14f3bddeaaa--7fef--412952ea8ace6ef8--511b52b6-14f3bddeaaa--8000, sequenceNumber=2008733041
1439818494393
ServeStarted
ActiveObject_abs.backend.java.lib.runtime.COG_-511b52b6-14f3bddeaaa--7fef--412952ea8ace6ef8--511b52b6-14f3bddeaaa--8000
52
Wrapper for method=getRuntime, sender=ActiveObject_abs.backend.java.lib.runtime.COG_-511b52b6-14f3bddeaaa--7fef--412952ea8ace6ef8--511b52b6-14f3bddeaaa--8000, sequenceNumber=2008733042
1439818494394
ServeStopped
ActiveObject_abs.backend.java.lib.runtime.COG_-511b52b6-14f3bddeaaa--7fef--412952ea8ace6ef8--511b52b6-14f3bddeaaa--8000
52
Wrapper for method=getRuntime, sender=ActiveObject_abs.backend.java.lib.runtime.COG_-511b52b6-14f3bddeaaa--7fef--412952ea8ace6ef8--511b52b6-14f3bddeaaa--8000, sequenceNumber=2008733042
1439818494397
ServeStarted
ActiveObject_abs.backend.java.lib.runtime.COG_-511b52b6-14f3bddeaaa--7fef--412952ea8ace6ef8--511b52b6-14f3bddeaaa--8000
52
Wrapper for method=getRuntime, sender=ActiveObject_abs.backend.java.lib.runtime.COG_-511b52b6-14f3bddeaaa--7fef--412952ea8ace6ef8--511b52b6-14f3bddeaaa--8000, sequenceNumber=2008733044
1439818494564
ServeStopped
ActiveObject_abs.backend.java.lib.runtime.COG_-511b52b6-14f3bddeaaa--7fef--412952ea8ace6ef8--511b52b6-14f3bddeaaa--8000
52
Wrapper for method=getRuntime, sender=ActiveObject_abs.backend.java.lib.runtime.COG_-511b52b6-14f3bddeaaa--7fef--412952ea8ace6ef8--511b52b6-14f3bddeaaa--8000, sequenceNumber=2008733044
1439818494567
ServeStopped
ActiveObject_abs.backend.java.lib.runtime.COG_-511b52b6-14f3bddeaaa--7fef--412952ea8ace6ef8--511b52b6-14f3bddeaaa--8000
34
Wrapper for method=execute, sender=ActiveObject_abs.backend.java.lib.runtime.COG_-613e2820-14f3bdde9ec--7ff2--068760b28f267db7--613e2820-14f3bdde9ec--8000, sequenceNumber=2008733115
1439818494572
ServeStarted
ActiveObject_abs.backend.java.lib.runtime.COG_-511b52b6-14f3bddeaaa--7fef--412952ea8ace6ef8--511b52b6-14f3bddeaaa--8000
34
Wrapper for method=execute, sender=ActiveObject_abs.backend.java.lib.runtime.COG_-613e2820-14f3bdde9ec--7ff2--068760b28f267db7--613e2820-14f3bdde9ec--8000, sequenceNumber=2008733488
1439818513126
ServeStarted
ActiveObject_abs.backend.java.lib.runtime.COG_-511b52b6-14f3bddeaaa--7fef--412952ea8ace6ef8--511b52b6-14f3bddeaaa--8000
52
Wrapper for method=getRuntime, sender=ActiveObject_abs.backend.java.lib.runtime.COG_-511b52b6-14f3bddeaaa--7fef--412952ea8ace6ef8--511b52b6-14f3bddeaaa--8000, sequenceNumber=2008733046
1439818513130
ServeStopped
ActiveObject_abs.backend.java.lib.runtime.COG_-511b52b6-14f3bddeaaa--7fef--412952ea8ace6ef8--511b52b6-14f3bddeaaa--8000
52
Wrapper for method=getRuntime, sender=ActiveObject_abs.backend.java.lib.runtime.COG_-511b52b6-14f3bddeaaa--7fef--412952ea8ace6ef8--511b52b6-14f3bddeaaa--8000, sequenceNumber=2008733046
1439818513133
ServeStarted
ActiveObject_abs.backend.java.lib.runtime.COG_-511b52b6-14f3bddeaaa--7fef--412952ea8ace6ef8--511b52b6-14f3bddeaaa--8000
52
Wrapper for method=getRuntime, sender=ActiveObject_abs.backend.java.lib.runtime.COG_-511b52b6-14f3bddeaaa--7fef--412952ea8ace6ef8--511b52b6-14f3bddeaaa--8000, sequenceNumber=2008733047
1439818513135
ServeStopped
ActiveObject_abs.backend.java.lib.runtime.COG_-511b52b6-14f3bddeaaa--7fef--412952ea8ace6ef8--511b52b6-14f3bddeaaa--8000
52
Wrapper for method=getRuntime, sender=ActiveObject_abs.backend.java.lib.runtime.COG_-511b52b6-14f3bddeaaa--7fef--412952ea8ace6ef8--511b52b6-14f3bddeaaa--8000, sequenceNumber=2008733047
1439818513139
ServeStarted
ActiveObject_abs.backend.java.lib.runtime.COG_-511b52b6-14f3bddeaaa--7fef--412952ea8ace6ef8--511b52b6-14f3bddeaaa--8000
52
Wrapper for method=getRuntime, sender=ActiveObject_abs.backend.java.lib.runtime.COG_-511b52b6-14f3bddeaaa--7fef--412952ea8ace6ef8--511b52b6-14f3bddeaaa--8000, sequenceNumber=2008733048
1439818513140
ServeStopped
ActiveObject_abs.backend.java.lib.runtime.COG_-511b52b6-14f3bddeaaa--7fef--412952ea8ace6ef8--511b52b6-14f3bddeaaa--8000
52
Wrapper for method=getRuntime, sender=ActiveObject_abs.backend.java.lib.runtime.COG_-511b52b6-14f3bddeaaa--7fef--412952ea8ace6ef8--511b52b6-14f3bddeaaa--8000, sequenceNumber=2008733048
1439818513143
ServeStarted
ActiveObject_abs.backend.java.lib.runtime.COG_-511b52b6-14f3bddeaaa--7fef--412952ea8ace6ef8--511b52b6-14f3bddeaaa--8000
52
Wrapper for method=getRuntime, sender=ActiveObject_abs.backend.java.lib.runtime.COG_-511b52b6-14f3bddeaaa--7fef--412952ea8ace6ef8--511b52b6-14f3bddeaaa--8000, sequenceNumber=2008733049
1439818513146
ServeStopped
ActiveObject_abs.backend.java.lib.runtime.COG_-511b52b6-14f3bddeaaa--7fef--412952ea8ace6ef8--511b52b6-14f3bddeaaa--8000
52
Wrapper for method=getRuntime, sender=ActiveObject_abs.backend.java.lib.runtime.COG_-511b52b6-14f3bddeaaa--7fef--412952ea8ace6ef8--511b52b6-14f3bddeaaa--8000, sequenceNumber=2008733049
1439818513153
ServeStarted
ActiveObject_abs.backend.java.lib.runtime.COG_-511b52b6-14f3bddeaaa--7fef--412952ea8ace6ef8--511b52b6-14f3bddeaaa--8000
53
Wrapper for method=suspend, sender=ActiveObject_abs.backend.java.lib.runtime.COG_-511b52b6-14f3bddeaaa--7fef--412952ea8ace6ef8--511b52b6-14f3bddeaaa--8000, sequenceNumber=2008733050
1439818513155
ServeStopped
ActiveObject_abs.backend.java.lib.runtime.COG_-511b52b6-14f3bddeaaa--7fef--412952ea8ace6ef8--511b52b6-14f3bddeaaa--8000
53
Wrapper for method=suspend, sender=ActiveObject_abs.backend.java.lib.runtime.COG_-511b52b6-14f3bddeaaa--7fef--412952ea8ace6ef8--511b52b6-14f3bddeaaa--8000, sequenceNumber=2008733050
1439818513170
ServeStarted
ActiveObject_abs.backend.java.lib.runtime.COG_-511b52b6-14f3bddeaaa--7fef--412952ea8ace6ef8--511b52b6-14f3bddeaaa--8000
53
Wrapper for method=getRuntime, sender=ActiveObject_abs.backend.java.lib.runtime.COG_-511b52b6-14f3bddeaaa--7fef--412952ea8ace6ef8--511b52b6-14f3bddeaaa--8000, sequenceNumber=2008733051
1439818520309
ServeStopped
ActiveObject_abs.backend.java.lib.runtime.COG_-511b52b6-14f3bddeaaa--7fef--412952ea8ace6ef8--511b52b6-14f3bddeaaa--8000
53
Wrapper for method=getRuntime, sender=ActiveObject_abs.backend.java.lib.runtime.COG_-511b52b6-14f3bddeaaa--7fef--412952ea8ace6ef8--511b52b6-14f3bddeaaa--8000, sequenceNumber=2008733051
1439818520313
ServeStarted
ActiveObject_abs.backend.java.lib.runtime.COG_-511b52b6-14f3bddeaaa--7fef--412952ea8ace6ef8--511b52b6-14f3bddeaaa--8000
53
Wrapper for method=getRuntime, sender=ActiveObject_abs.backend.java.lib.runtime.COG_-511b52b6-14f3bddeaaa--7fef--412952ea8ace6ef8--511b52b6-14f3bddeaaa--8000, sequenceNumber=2008733052
1439818520315
ServeStopped
ActiveObject_abs.backend.java.lib.runtime.COG_-511b52b6-14f3bddeaaa--7fef--412952ea8ace6ef8--511b52b6-14f3bddeaaa--8000
53
Wrapper for method=getRuntime, sender=ActiveObject_abs.backend.java.lib.runtime.COG_-511b52b6-14f3bddeaaa--7fef--412952ea8ace6ef8--511b52b6-14f3bddeaaa--8000, sequenceNumber=2008733052
1439818520318
ServeStarted
ActiveObject_abs.backend.java.lib.runtime.COG_-511b52b6-14f3bddeaaa--7fef--412952ea8ace6ef8--511b52b6-14f3bddeaaa--8000
53
Wrapper for method=getRuntime, sender=ActiveObject_abs.backend.java.lib.runtime.COG_-511b52b6-14f3bddeaaa--7fef--412952ea8ace6ef8--511b52b6-14f3bddeaaa--8000, sequenceNumber=2008733053
1439818520319
ServeStopped
ActiveObject_abs.backend.java.lib.runtime.COG_-511b52b6-14f3bddeaaa--7fef--412952ea8ace6ef8--511b52b6-14f3bddeaaa--8000
53
Wrapper for method=getRuntime, sender=ActiveObject_abs.backend.java.lib.runtime.COG_-511b52b6-14f3bddeaaa--7fef--412952ea8ace6ef8--511b52b6-14f3bddeaaa--8000, sequenceNumber=2008733053
1439818520323
ServeStarted
ActiveObject_abs.backend.java.lib.runtime.COG_-511b52b6-14f3bddeaaa--7fef--412952ea8ace6ef8--511b52b6-14f3bddeaaa--8000
53
Wrapper for method=getRuntime, sender=ActiveObject_abs.backend.java.lib.runtime.COG_-511b52b6-14f3bddeaaa--7fef--412952ea8ace6ef8--511b52b6-14f3bddeaaa--8000, sequenceNumber=2008733054
1439818520325
ServeStopped
ActiveObject_abs.backend.java.lib.runtime.COG_-511b52b6-14f3bddeaaa--7fef--412952ea8ace6ef8--511b52b6-14f3bddeaaa--8000
53
Wrapper for method=getRuntime, sender=ActiveObject_abs.backend.java.lib.runtime.COG_-511b52b6-14f3bddeaaa--7fef--412952ea8ace6ef8--511b52b6-14f3bddeaaa--8000, sequenceNumber=2008733054
1439818520329
ServeStarted
ActiveObject_abs.backend.java.lib.runtime.COG_-511b52b6-14f3bddeaaa--7fef--412952ea8ace6ef8--511b52b6-14f3bddeaaa--8000
53
Wrapper for method=getRuntime, sender=ActiveObject_abs.backend.java.lib.runtime.COG_-511b52b6-14f3bddeaaa--7fef--412952ea8ace6ef8--511b52b6-14f3bddeaaa--8000, sequenceNumber=2008733055
1439818520330
ServeStopped
ActiveObject_abs.backend.java.lib.runtime.COG_-511b52b6-14f3bddeaaa--7fef--412952ea8ace6ef8--511b52b6-14f3bddeaaa--8000
53
Wrapper for method=getRuntime, sender=ActiveObject_abs.backend.java.lib.runtime.COG_-511b52b6-14f3bddeaaa--7fef--412952ea8ace6ef8--511b52b6-14f3bddeaaa--8000, sequenceNumber=2008733055
1439818520334
ServeStarted
ActiveObject_abs.backend.java.lib.runtime.COG_-511b52b6-14f3bddeaaa--7fef--412952ea8ace6ef8--511b52b6-14f3bddeaaa--8000
53
Wrapper for method=getRuntime, sender=ActiveObject_abs.backend.java.lib.runtime.COG_-511b52b6-14f3bddeaaa--7fef--412952ea8ace6ef8--511b52b6-14f3bddeaaa--8000, sequenceNumber=2008733056
1439818520336
ServeStopped
ActiveObject_abs.backend.java.lib.runtime.COG_-511b52b6-14f3bddeaaa--7fef--412952ea8ace6ef8--511b52b6-14f3bddeaaa--8000
53
Wrapper for method=getRuntime, sender=ActiveObject_abs.backend.java.lib.runtime.COG_-511b52b6-14f3bddeaaa--7fef--412952ea8ace6ef8--511b52b6-14f3bddeaaa--8000, sequenceNumber=2008733056
1439818520339
ServeStarted
ActiveObject_abs.backend.java.lib.runtime.COG_-511b52b6-14f3bddeaaa--7fef--412952ea8ace6ef8--511b52b6-14f3bddeaaa--8000
53
Wrapper for method=getRuntime, sender=ActiveObject_abs.backend.java.lib.runtime.COG_-511b52b6-14f3bddeaaa--7fef--412952ea8ace6ef8--511b52b6-14f3bddeaaa--8000, sequenceNumber=2008733057
1439818520340
ServeStopped
ActiveObject_abs.backend.java.lib.runtime.COG_-511b52b6-14f3bddeaaa--7fef--412952ea8ace6ef8--511b52b6-14f3bddeaaa--8000
53
Wrapper for method=getRuntime, sender=ActiveObject_abs.backend.java.lib.runtime.COG_-511b52b6-14f3bddeaaa--7fef--412952ea8ace6ef8--511b52b6-14f3bddeaaa--8000, sequenceNumber=2008733057
1439818520343
ServeStarted
ActiveObject_abs.backend.java.lib.runtime.COG_-511b52b6-14f3bddeaaa--7fef--412952ea8ace6ef8--511b52b6-14f3bddeaaa--8000
53
Wrapper for method=getRuntime, sender=ActiveObject_abs.backend.java.lib.runtime.COG_-511b52b6-14f3bddeaaa--7fef--412952ea8ace6ef8--511b52b6-14f3bddeaaa--8000, sequenceNumber=2008733059
1439818520389
ServeStopped
ActiveObject_abs.backend.java.lib.runtime.COG_-511b52b6-14f3bddeaaa--7fef--412952ea8ace6ef8--511b52b6-14f3bddeaaa--8000
53
Wrapper for method=getRuntime, sender=ActiveObject_abs.backend.java.lib.runtime.COG_-511b52b6-14f3bddeaaa--7fef--412952ea8ace6ef8--511b52b6-14f3bddeaaa--8000, sequenceNumber=2008733059
1439818520393
ServeStopped
ActiveObject_abs.backend.java.lib.runtime.COG_-511b52b6-14f3bddeaaa--7fef--412952ea8ace6ef8--511b52b6-14f3bddeaaa--8000
34
Wrapper for method=execute, sender=ActiveObject_abs.backend.java.lib.runtime.COG_-613e2820-14f3bdde9ec--7ff2--068760b28f267db7--613e2820-14f3bdde9ec--8000, sequenceNumber=2008733488
1439818520399
