deliverrequest ActiveObject_abs.backend.java.lib.runtime.COG_5499d7aa-14f3bddeaef--7fef--4fe1f284defedd31-5499d7aa-14f3bddeaef--8000 24 getRuntime 2008733266 1439818497938 ActiveObject_abs.backend.java.lib.runtime.COG_-613e2820-14f3bdde9ec--7ff2--068760b28f267db7--613e2820-14f3bdde9ec--8000
deliverrequest ActiveObject_abs.backend.java.lib.runtime.COG_5499d7aa-14f3bddeaef--7fef--4fe1f284defedd31-5499d7aa-14f3bddeaef--8000 24 register 2008733267 1439818497978 ActiveObject_abs.backend.java.lib.runtime.COG_-613e2820-14f3bdde9ec--7ff2--068760b28f267db7--613e2820-14f3bdde9ec--8000
deliverrequest ActiveObject_abs.backend.java.lib.runtime.COG_5499d7aa-14f3bddeaef--7fef--4fe1f284defedd31-5499d7aa-14f3bddeaef--8000 24 objectCreated 2008733268 1439818498550 ActiveObject_abs.backend.java.lib.runtime.COG_-613e2820-14f3bdde9ec--7ff2--068760b28f267db7--613e2820-14f3bdde9ec--8000
deliverrequest ActiveObject_abs.backend.java.lib.runtime.COG_5499d7aa-14f3bddeaef--7fef--4fe1f284defedd31-5499d7aa-14f3bddeaef--8000 24 objectInitialized 2008733269 1439818498760 ActiveObject_abs.backend.java.lib.runtime.COG_-613e2820-14f3bdde9ec--7ff2--068760b28f267db7--613e2820-14f3bdde9ec--8000
deliverrequest ActiveObject_abs.backend.java.lib.runtime.COG_5499d7aa-14f3bddeaef--7fef--4fe1f284defedd31-5499d7aa-14f3bddeaef--8000 24 registerObject 2008733270 1439818498913 ActiveObject_abs.backend.java.lib.runtime.COG_-613e2820-14f3bdde9ec--7ff2--068760b28f267db7--613e2820-14f3bdde9ec--8000
deliverrequest ActiveObject_abs.backend.java.lib.runtime.COG_5499d7aa-14f3bddeaef--7fef--4fe1f284defedd31-5499d7aa-14f3bddeaef--8000 24 execute 2008733508 1439818513208 ActiveObject_abs.backend.java.lib.runtime.COG_-613e2820-14f3bdde9ec--7ff2--068760b28f267db7--613e2820-14f3bdde9ec--8000
beforerequestsent ActiveObject_abs.backend.java.lib.runtime.COG_5499d7aa-14f3bddeaef--7fef--4fe1f284defedd31-5499d7aa-14f3bddeaef--8000 32 toString 2008733168 1439818513211 ActiveObject_abs.backend.java.lib.runtime.COG_5499d7aa-14f3bddeaef--7fef--4fe1f284defedd31-5499d7aa-14f3bddeaef--8000
beforerequestsent ActiveObject_abs.backend.java.lib.runtime.COG_5499d7aa-14f3bddeaef--7fef--4fe1f284defedd31-5499d7aa-14f3bddeaef--8000 32 getRuntime 2008733169 1439818515466 ActiveObject_abs.backend.java.lib.runtime.COG_5499d7aa-14f3bddeaef--7fef--4fe1f284defedd31-5499d7aa-14f3bddeaef--8000
deliverrequest ActiveObject_abs.backend.java.lib.runtime.COG_5499d7aa-14f3bddeaef--7fef--4fe1f284defedd31-5499d7aa-14f3bddeaef--8000 32 getRuntime 2008733169 1439818515466 ActiveObject_abs.backend.java.lib.runtime.COG_5499d7aa-14f3bddeaef--7fef--4fe1f284defedd31-5499d7aa-14f3bddeaef--8000
beforerequestsent ActiveObject_abs.backend.java.lib.runtime.COG_5499d7aa-14f3bddeaef--7fef--4fe1f284defedd31-5499d7aa-14f3bddeaef--8000 32 getRuntime 2008733170 1439818515472 ActiveObject_abs.backend.java.lib.runtime.COG_5499d7aa-14f3bddeaef--7fef--4fe1f284defedd31-5499d7aa-14f3bddeaef--8000
deliverrequest ActiveObject_abs.backend.java.lib.runtime.COG_5499d7aa-14f3bddeaef--7fef--4fe1f284defedd31-5499d7aa-14f3bddeaef--8000 32 getRuntime 2008733170 1439818515473 ActiveObject_abs.backend.java.lib.runtime.COG_5499d7aa-14f3bddeaef--7fef--4fe1f284defedd31-5499d7aa-14f3bddeaef--8000
beforerequestsent ActiveObject_abs.backend.java.lib.runtime.COG_5499d7aa-14f3bddeaef--7fef--4fe1f284defedd31-5499d7aa-14f3bddeaef--8000 32 getRuntime 2008733171 1439818515485 ActiveObject_abs.backend.java.lib.runtime.COG_5499d7aa-14f3bddeaef--7fef--4fe1f284defedd31-5499d7aa-14f3bddeaef--8000
deliverrequest ActiveObject_abs.backend.java.lib.runtime.COG_5499d7aa-14f3bddeaef--7fef--4fe1f284defedd31-5499d7aa-14f3bddeaef--8000 32 getRuntime 2008733171 1439818515485 ActiveObject_abs.backend.java.lib.runtime.COG_5499d7aa-14f3bddeaef--7fef--4fe1f284defedd31-5499d7aa-14f3bddeaef--8000
beforerequestsent ActiveObject_abs.backend.java.lib.runtime.COG_5499d7aa-14f3bddeaef--7fef--4fe1f284defedd31-5499d7aa-14f3bddeaef--8000 32 getRuntime 2008733172 1439818515490 ActiveObject_abs.backend.java.lib.runtime.COG_5499d7aa-14f3bddeaef--7fef--4fe1f284defedd31-5499d7aa-14f3bddeaef--8000
deliverrequest ActiveObject_abs.backend.java.lib.runtime.COG_5499d7aa-14f3bddeaef--7fef--4fe1f284defedd31-5499d7aa-14f3bddeaef--8000 32 getRuntime 2008733172 1439818515491 ActiveObject_abs.backend.java.lib.runtime.COG_5499d7aa-14f3bddeaef--7fef--4fe1f284defedd31-5499d7aa-14f3bddeaef--8000
beforerequestsent ActiveObject_abs.backend.java.lib.runtime.COG_5499d7aa-14f3bddeaef--7fef--4fe1f284defedd31-5499d7aa-14f3bddeaef--8000 32 suspend 2008733173 1439818515744 ActiveObject_abs.backend.java.lib.runtime.COG_5499d7aa-14f3bddeaef--7fef--4fe1f284defedd31-5499d7aa-14f3bddeaef--8000
deliverrequest ActiveObject_abs.backend.java.lib.runtime.COG_5499d7aa-14f3bddeaef--7fef--4fe1f284defedd31-5499d7aa-14f3bddeaef--8000 32 suspend 2008733173 1439818515745 ActiveObject_abs.backend.java.lib.runtime.COG_5499d7aa-14f3bddeaef--7fef--4fe1f284defedd31-5499d7aa-14f3bddeaef--8000
beforerequestsent ActiveObject_abs.backend.java.lib.runtime.COG_5499d7aa-14f3bddeaef--7fef--4fe1f284defedd31-5499d7aa-14f3bddeaef--8000 32 getRuntime 2008733174 1439818523497 ActiveObject_abs.backend.java.lib.runtime.COG_5499d7aa-14f3bddeaef--7fef--4fe1f284defedd31-5499d7aa-14f3bddeaef--8000
deliverrequest ActiveObject_abs.backend.java.lib.runtime.COG_5499d7aa-14f3bddeaef--7fef--4fe1f284defedd31-5499d7aa-14f3bddeaef--8000 32 getRuntime 2008733174 1439818523498 ActiveObject_abs.backend.java.lib.runtime.COG_5499d7aa-14f3bddeaef--7fef--4fe1f284defedd31-5499d7aa-14f3bddeaef--8000
beforerequestsent ActiveObject_abs.backend.java.lib.runtime.COG_5499d7aa-14f3bddeaef--7fef--4fe1f284defedd31-5499d7aa-14f3bddeaef--8000 32 getRuntime 2008733175 1439818523503 ActiveObject_abs.backend.java.lib.runtime.COG_5499d7aa-14f3bddeaef--7fef--4fe1f284defedd31-5499d7aa-14f3bddeaef--8000
deliverrequest ActiveObject_abs.backend.java.lib.runtime.COG_5499d7aa-14f3bddeaef--7fef--4fe1f284defedd31-5499d7aa-14f3bddeaef--8000 32 getRuntime 2008733175 1439818523504 ActiveObject_abs.backend.java.lib.runtime.COG_5499d7aa-14f3bddeaef--7fef--4fe1f284defedd31-5499d7aa-14f3bddeaef--8000
beforerequestsent ActiveObject_abs.backend.java.lib.runtime.COG_5499d7aa-14f3bddeaef--7fef--4fe1f284defedd31-5499d7aa-14f3bddeaef--8000 32 getRuntime 2008733176 1439818523510 ActiveObject_abs.backend.java.lib.runtime.COG_5499d7aa-14f3bddeaef--7fef--4fe1f284defedd31-5499d7aa-14f3bddeaef--8000
deliverrequest ActiveObject_abs.backend.java.lib.runtime.COG_5499d7aa-14f3bddeaef--7fef--4fe1f284defedd31-5499d7aa-14f3bddeaef--8000 32 getRuntime 2008733176 1439818523510 ActiveObject_abs.backend.java.lib.runtime.COG_5499d7aa-14f3bddeaef--7fef--4fe1f284defedd31-5499d7aa-14f3bddeaef--8000
beforerequestsent ActiveObject_abs.backend.java.lib.runtime.COG_5499d7aa-14f3bddeaef--7fef--4fe1f284defedd31-5499d7aa-14f3bddeaef--8000 32 getRuntime 2008733177 1439818523514 ActiveObject_abs.backend.java.lib.runtime.COG_5499d7aa-14f3bddeaef--7fef--4fe1f284defedd31-5499d7aa-14f3bddeaef--8000
deliverrequest ActiveObject_abs.backend.java.lib.runtime.COG_5499d7aa-14f3bddeaef--7fef--4fe1f284defedd31-5499d7aa-14f3bddeaef--8000 32 getRuntime 2008733177 1439818523515 ActiveObject_abs.backend.java.lib.runtime.COG_5499d7aa-14f3bddeaef--7fef--4fe1f284defedd31-5499d7aa-14f3bddeaef--8000
beforerequestsent ActiveObject_abs.backend.java.lib.runtime.COG_5499d7aa-14f3bddeaef--7fef--4fe1f284defedd31-5499d7aa-14f3bddeaef--8000 32 getRuntime 2008733178 1439818523519 ActiveObject_abs.backend.java.lib.runtime.COG_5499d7aa-14f3bddeaef--7fef--4fe1f284defedd31-5499d7aa-14f3bddeaef--8000
deliverrequest ActiveObject_abs.backend.java.lib.runtime.COG_5499d7aa-14f3bddeaef--7fef--4fe1f284defedd31-5499d7aa-14f3bddeaef--8000 32 getRuntime 2008733178 1439818523520 ActiveObject_abs.backend.java.lib.runtime.COG_5499d7aa-14f3bddeaef--7fef--4fe1f284defedd31-5499d7aa-14f3bddeaef--8000
beforerequestsent ActiveObject_abs.backend.java.lib.runtime.COG_5499d7aa-14f3bddeaef--7fef--4fe1f284defedd31-5499d7aa-14f3bddeaef--8000 32 getRuntime 2008733179 1439818523528 ActiveObject_abs.backend.java.lib.runtime.COG_5499d7aa-14f3bddeaef--7fef--4fe1f284defedd31-5499d7aa-14f3bddeaef--8000
deliverrequest ActiveObject_abs.backend.java.lib.runtime.COG_5499d7aa-14f3bddeaef--7fef--4fe1f284defedd31-5499d7aa-14f3bddeaef--8000 32 getRuntime 2008733179 1439818523529 ActiveObject_abs.backend.java.lib.runtime.COG_5499d7aa-14f3bddeaef--7fef--4fe1f284defedd31-5499d7aa-14f3bddeaef--8000
beforerequestsent ActiveObject_abs.backend.java.lib.runtime.COG_5499d7aa-14f3bddeaef--7fef--4fe1f284defedd31-5499d7aa-14f3bddeaef--8000 32 getRuntime 2008733180 1439818523532 ActiveObject_abs.backend.java.lib.runtime.COG_5499d7aa-14f3bddeaef--7fef--4fe1f284defedd31-5499d7aa-14f3bddeaef--8000
deliverrequest ActiveObject_abs.backend.java.lib.runtime.COG_5499d7aa-14f3bddeaef--7fef--4fe1f284defedd31-5499d7aa-14f3bddeaef--8000 32 getRuntime 2008733180 1439818523533 ActiveObject_abs.backend.java.lib.runtime.COG_5499d7aa-14f3bddeaef--7fef--4fe1f284defedd31-5499d7aa-14f3bddeaef--8000
beforerequestsent ActiveObject_abs.backend.java.lib.runtime.COG_5499d7aa-14f3bddeaef--7fef--4fe1f284defedd31-5499d7aa-14f3bddeaef--8000 32 execute 2008733181 1439818523655 ActiveObject_abs.backend.java.lib.runtime.COG_5499d7aa-14f3bddeaef--7fef--4fe1f284defedd31-5499d7aa-14f3bddeaef--8000
beforerequestsent ActiveObject_abs.backend.java.lib.runtime.COG_5499d7aa-14f3bddeaef--7fef--4fe1f284defedd31-5499d7aa-14f3bddeaef--8000 32 getRuntime 2008733182 1439818523875 ActiveObject_abs.backend.java.lib.runtime.COG_5499d7aa-14f3bddeaef--7fef--4fe1f284defedd31-5499d7aa-14f3bddeaef--8000
deliverrequest ActiveObject_abs.backend.java.lib.runtime.COG_5499d7aa-14f3bddeaef--7fef--4fe1f284defedd31-5499d7aa-14f3bddeaef--8000 32 getRuntime 2008733182 1439818523875 ActiveObject_abs.backend.java.lib.runtime.COG_5499d7aa-14f3bddeaef--7fef--4fe1f284defedd31-5499d7aa-14f3bddeaef--8000
