deliverrequest ActiveObject_abs.backend.java.lib.runtime.COG_-4aa5dbd8-14f3bddeac7--7fef--60a6058ce15d5a3f--4aa5dbd8-14f3bddeac7--8000 26 getRuntime 2008732927 1439818473167 ActiveObject_abs.backend.java.lib.runtime.COG_-613e2820-14f3bdde9ec--7ff2--068760b28f267db7--613e2820-14f3bdde9ec--8000
deliverrequest ActiveObject_abs.backend.java.lib.runtime.COG_-4aa5dbd8-14f3bddeac7--7fef--60a6058ce15d5a3f--4aa5dbd8-14f3bddeac7--8000 26 register 2008732928 1439818473213 ActiveObject_abs.backend.java.lib.runtime.COG_-613e2820-14f3bdde9ec--7ff2--068760b28f267db7--613e2820-14f3bdde9ec--8000
deliverrequest ActiveObject_abs.backend.java.lib.runtime.COG_-4aa5dbd8-14f3bddeac7--7fef--60a6058ce15d5a3f--4aa5dbd8-14f3bddeac7--8000 26 objectCreated 2008732929 1439818473348 ActiveObject_abs.backend.java.lib.runtime.COG_-613e2820-14f3bdde9ec--7ff2--068760b28f267db7--613e2820-14f3bdde9ec--8000
deliverrequest ActiveObject_abs.backend.java.lib.runtime.COG_-4aa5dbd8-14f3bddeac7--7fef--60a6058ce15d5a3f--4aa5dbd8-14f3bddeac7--8000 26 objectInitialized 2008732930 1439818473397 ActiveObject_abs.backend.java.lib.runtime.COG_-613e2820-14f3bdde9ec--7ff2--068760b28f267db7--613e2820-14f3bdde9ec--8000
deliverrequest ActiveObject_abs.backend.java.lib.runtime.COG_-4aa5dbd8-14f3bddeac7--7fef--60a6058ce15d5a3f--4aa5dbd8-14f3bddeac7--8000 26 registerObject 2008732931 1439818473444 ActiveObject_abs.backend.java.lib.runtime.COG_-613e2820-14f3bdde9ec--7ff2--068760b28f267db7--613e2820-14f3bdde9ec--8000
deliverrequest ActiveObject_abs.backend.java.lib.runtime.COG_-4aa5dbd8-14f3bddeac7--7fef--60a6058ce15d5a3f--4aa5dbd8-14f3bddeac7--8000 26 execute 2008733053 1439818480165 ActiveObject_abs.backend.java.lib.runtime.COG_-613e2820-14f3bdde9ec--7ff2--068760b28f267db7--613e2820-14f3bdde9ec--8000
beforerequestsent ActiveObject_abs.backend.java.lib.runtime.COG_-4aa5dbd8-14f3bddeac7--7fef--60a6058ce15d5a3f--4aa5dbd8-14f3bddeac7--8000 34 toString 2008733088 1439818480168 ActiveObject_abs.backend.java.lib.runtime.COG_-4aa5dbd8-14f3bddeac7--7fef--60a6058ce15d5a3f--4aa5dbd8-14f3bddeac7--8000
beforerequestsent ActiveObject_abs.backend.java.lib.runtime.COG_-4aa5dbd8-14f3bddeac7--7fef--60a6058ce15d5a3f--4aa5dbd8-14f3bddeac7--8000 34 getRuntime 2008733089 1439818482178 ActiveObject_abs.backend.java.lib.runtime.COG_-4aa5dbd8-14f3bddeac7--7fef--60a6058ce15d5a3f--4aa5dbd8-14f3bddeac7--8000
deliverrequest ActiveObject_abs.backend.java.lib.runtime.COG_-4aa5dbd8-14f3bddeac7--7fef--60a6058ce15d5a3f--4aa5dbd8-14f3bddeac7--8000 34 getRuntime 2008733089 1439818482179 ActiveObject_abs.backend.java.lib.runtime.COG_-4aa5dbd8-14f3bddeac7--7fef--60a6058ce15d5a3f--4aa5dbd8-14f3bddeac7--8000
beforerequestsent ActiveObject_abs.backend.java.lib.runtime.COG_-4aa5dbd8-14f3bddeac7--7fef--60a6058ce15d5a3f--4aa5dbd8-14f3bddeac7--8000 34 getRuntime 2008733090 1439818482185 ActiveObject_abs.backend.java.lib.runtime.COG_-4aa5dbd8-14f3bddeac7--7fef--60a6058ce15d5a3f--4aa5dbd8-14f3bddeac7--8000
deliverrequest ActiveObject_abs.backend.java.lib.runtime.COG_-4aa5dbd8-14f3bddeac7--7fef--60a6058ce15d5a3f--4aa5dbd8-14f3bddeac7--8000 34 getRuntime 2008733090 1439818482186 ActiveObject_abs.backend.java.lib.runtime.COG_-4aa5dbd8-14f3bddeac7--7fef--60a6058ce15d5a3f--4aa5dbd8-14f3bddeac7--8000
beforerequestsent ActiveObject_abs.backend.java.lib.runtime.COG_-4aa5dbd8-14f3bddeac7--7fef--60a6058ce15d5a3f--4aa5dbd8-14f3bddeac7--8000 34 getRuntime 2008733091 1439818482190 ActiveObject_abs.backend.java.lib.runtime.COG_-4aa5dbd8-14f3bddeac7--7fef--60a6058ce15d5a3f--4aa5dbd8-14f3bddeac7--8000
deliverrequest ActiveObject_abs.backend.java.lib.runtime.COG_-4aa5dbd8-14f3bddeac7--7fef--60a6058ce15d5a3f--4aa5dbd8-14f3bddeac7--8000 34 getRuntime 2008733091 1439818482190 ActiveObject_abs.backend.java.lib.runtime.COG_-4aa5dbd8-14f3bddeac7--7fef--60a6058ce15d5a3f--4aa5dbd8-14f3bddeac7--8000
beforerequestsent ActiveObject_abs.backend.java.lib.runtime.COG_-4aa5dbd8-14f3bddeac7--7fef--60a6058ce15d5a3f--4aa5dbd8-14f3bddeac7--8000 34 getRuntime 2008733092 1439818482195 ActiveObject_abs.backend.java.lib.runtime.COG_-4aa5dbd8-14f3bddeac7--7fef--60a6058ce15d5a3f--4aa5dbd8-14f3bddeac7--8000
deliverrequest ActiveObject_abs.backend.java.lib.runtime.COG_-4aa5dbd8-14f3bddeac7--7fef--60a6058ce15d5a3f--4aa5dbd8-14f3bddeac7--8000 34 getRuntime 2008733092 1439818482195 ActiveObject_abs.backend.java.lib.runtime.COG_-4aa5dbd8-14f3bddeac7--7fef--60a6058ce15d5a3f--4aa5dbd8-14f3bddeac7--8000
beforerequestsent ActiveObject_abs.backend.java.lib.runtime.COG_-4aa5dbd8-14f3bddeac7--7fef--60a6058ce15d5a3f--4aa5dbd8-14f3bddeac7--8000 34 suspend 2008733093 1439818482336 ActiveObject_abs.backend.java.lib.runtime.COG_-4aa5dbd8-14f3bddeac7--7fef--60a6058ce15d5a3f--4aa5dbd8-14f3bddeac7--8000
deliverrequest ActiveObject_abs.backend.java.lib.runtime.COG_-4aa5dbd8-14f3bddeac7--7fef--60a6058ce15d5a3f--4aa5dbd8-14f3bddeac7--8000 34 suspend 2008733093 1439818482336 ActiveObject_abs.backend.java.lib.runtime.COG_-4aa5dbd8-14f3bddeac7--7fef--60a6058ce15d5a3f--4aa5dbd8-14f3bddeac7--8000
beforerequestsent ActiveObject_abs.backend.java.lib.runtime.COG_-4aa5dbd8-14f3bddeac7--7fef--60a6058ce15d5a3f--4aa5dbd8-14f3bddeac7--8000 34 getRuntime 2008733094 1439818489619 ActiveObject_abs.backend.java.lib.runtime.COG_-4aa5dbd8-14f3bddeac7--7fef--60a6058ce15d5a3f--4aa5dbd8-14f3bddeac7--8000
deliverrequest ActiveObject_abs.backend.java.lib.runtime.COG_-4aa5dbd8-14f3bddeac7--7fef--60a6058ce15d5a3f--4aa5dbd8-14f3bddeac7--8000 34 getRuntime 2008733094 1439818489620 ActiveObject_abs.backend.java.lib.runtime.COG_-4aa5dbd8-14f3bddeac7--7fef--60a6058ce15d5a3f--4aa5dbd8-14f3bddeac7--8000
beforerequestsent ActiveObject_abs.backend.java.lib.runtime.COG_-4aa5dbd8-14f3bddeac7--7fef--60a6058ce15d5a3f--4aa5dbd8-14f3bddeac7--8000 34 getRuntime 2008733095 1439818489625 ActiveObject_abs.backend.java.lib.runtime.COG_-4aa5dbd8-14f3bddeac7--7fef--60a6058ce15d5a3f--4aa5dbd8-14f3bddeac7--8000
deliverrequest ActiveObject_abs.backend.java.lib.runtime.COG_-4aa5dbd8-14f3bddeac7--7fef--60a6058ce15d5a3f--4aa5dbd8-14f3bddeac7--8000 34 getRuntime 2008733095 1439818489625 ActiveObject_abs.backend.java.lib.runtime.COG_-4aa5dbd8-14f3bddeac7--7fef--60a6058ce15d5a3f--4aa5dbd8-14f3bddeac7--8000
beforerequestsent ActiveObject_abs.backend.java.lib.runtime.COG_-4aa5dbd8-14f3bddeac7--7fef--60a6058ce15d5a3f--4aa5dbd8-14f3bddeac7--8000 34 getRuntime 2008733096 1439818489630 ActiveObject_abs.backend.java.lib.runtime.COG_-4aa5dbd8-14f3bddeac7--7fef--60a6058ce15d5a3f--4aa5dbd8-14f3bddeac7--8000
deliverrequest ActiveObject_abs.backend.java.lib.runtime.COG_-4aa5dbd8-14f3bddeac7--7fef--60a6058ce15d5a3f--4aa5dbd8-14f3bddeac7--8000 34 getRuntime 2008733096 1439818489630 ActiveObject_abs.backend.java.lib.runtime.COG_-4aa5dbd8-14f3bddeac7--7fef--60a6058ce15d5a3f--4aa5dbd8-14f3bddeac7--8000
beforerequestsent ActiveObject_abs.backend.java.lib.runtime.COG_-4aa5dbd8-14f3bddeac7--7fef--60a6058ce15d5a3f--4aa5dbd8-14f3bddeac7--8000 34 getRuntime 2008733097 1439818489635 ActiveObject_abs.backend.java.lib.runtime.COG_-4aa5dbd8-14f3bddeac7--7fef--60a6058ce15d5a3f--4aa5dbd8-14f3bddeac7--8000
deliverrequest ActiveObject_abs.backend.java.lib.runtime.COG_-4aa5dbd8-14f3bddeac7--7fef--60a6058ce15d5a3f--4aa5dbd8-14f3bddeac7--8000 34 getRuntime 2008733097 1439818489635 ActiveObject_abs.backend.java.lib.runtime.COG_-4aa5dbd8-14f3bddeac7--7fef--60a6058ce15d5a3f--4aa5dbd8-14f3bddeac7--8000
beforerequestsent ActiveObject_abs.backend.java.lib.runtime.COG_-4aa5dbd8-14f3bddeac7--7fef--60a6058ce15d5a3f--4aa5dbd8-14f3bddeac7--8000 34 getRuntime 2008733098 1439818489639 ActiveObject_abs.backend.java.lib.runtime.COG_-4aa5dbd8-14f3bddeac7--7fef--60a6058ce15d5a3f--4aa5dbd8-14f3bddeac7--8000
deliverrequest ActiveObject_abs.backend.java.lib.runtime.COG_-4aa5dbd8-14f3bddeac7--7fef--60a6058ce15d5a3f--4aa5dbd8-14f3bddeac7--8000 34 getRuntime 2008733098 1439818489639 ActiveObject_abs.backend.java.lib.runtime.COG_-4aa5dbd8-14f3bddeac7--7fef--60a6058ce15d5a3f--4aa5dbd8-14f3bddeac7--8000
beforerequestsent ActiveObject_abs.backend.java.lib.runtime.COG_-4aa5dbd8-14f3bddeac7--7fef--60a6058ce15d5a3f--4aa5dbd8-14f3bddeac7--8000 34 getRuntime 2008733099 1439818489644 ActiveObject_abs.backend.java.lib.runtime.COG_-4aa5dbd8-14f3bddeac7--7fef--60a6058ce15d5a3f--4aa5dbd8-14f3bddeac7--8000
deliverrequest ActiveObject_abs.backend.java.lib.runtime.COG_-4aa5dbd8-14f3bddeac7--7fef--60a6058ce15d5a3f--4aa5dbd8-14f3bddeac7--8000 34 getRuntime 2008733099 1439818489645 ActiveObject_abs.backend.java.lib.runtime.COG_-4aa5dbd8-14f3bddeac7--7fef--60a6058ce15d5a3f--4aa5dbd8-14f3bddeac7--8000
beforerequestsent ActiveObject_abs.backend.java.lib.runtime.COG_-4aa5dbd8-14f3bddeac7--7fef--60a6058ce15d5a3f--4aa5dbd8-14f3bddeac7--8000 34 getRuntime 2008733100 1439818489649 ActiveObject_abs.backend.java.lib.runtime.COG_-4aa5dbd8-14f3bddeac7--7fef--60a6058ce15d5a3f--4aa5dbd8-14f3bddeac7--8000
deliverrequest ActiveObject_abs.backend.java.lib.runtime.COG_-4aa5dbd8-14f3bddeac7--7fef--60a6058ce15d5a3f--4aa5dbd8-14f3bddeac7--8000 34 getRuntime 2008733100 1439818489649 ActiveObject_abs.backend.java.lib.runtime.COG_-4aa5dbd8-14f3bddeac7--7fef--60a6058ce15d5a3f--4aa5dbd8-14f3bddeac7--8000
beforerequestsent ActiveObject_abs.backend.java.lib.runtime.COG_-4aa5dbd8-14f3bddeac7--7fef--60a6058ce15d5a3f--4aa5dbd8-14f3bddeac7--8000 34 execute 2008733101 1439818489766 ActiveObject_abs.backend.java.lib.runtime.COG_-4aa5dbd8-14f3bddeac7--7fef--60a6058ce15d5a3f--4aa5dbd8-14f3bddeac7--8000
beforerequestsent ActiveObject_abs.backend.java.lib.runtime.COG_-4aa5dbd8-14f3bddeac7--7fef--60a6058ce15d5a3f--4aa5dbd8-14f3bddeac7--8000 34 getRuntime 2008733102 1439818489806 ActiveObject_abs.backend.java.lib.runtime.COG_-4aa5dbd8-14f3bddeac7--7fef--60a6058ce15d5a3f--4aa5dbd8-14f3bddeac7--8000
deliverrequest ActiveObject_abs.backend.java.lib.runtime.COG_-4aa5dbd8-14f3bddeac7--7fef--60a6058ce15d5a3f--4aa5dbd8-14f3bddeac7--8000 34 getRuntime 2008733102 1439818489806 ActiveObject_abs.backend.java.lib.runtime.COG_-4aa5dbd8-14f3bddeac7--7fef--60a6058ce15d5a3f--4aa5dbd8-14f3bddeac7--8000
deliverrequest ActiveObject_abs.backend.java.lib.runtime.COG_-4aa5dbd8-14f3bddeac7--7fef--60a6058ce15d5a3f--4aa5dbd8-14f3bddeac7--8000 26 execute 2008733456 1439818512967 ActiveObject_abs.backend.java.lib.runtime.COG_-613e2820-14f3bdde9ec--7ff2--068760b28f267db7--613e2820-14f3bdde9ec--8000
beforerequestsent ActiveObject_abs.backend.java.lib.runtime.COG_-4aa5dbd8-14f3bddeac7--7fef--60a6058ce15d5a3f--4aa5dbd8-14f3bddeac7--8000 34 toString 2008733103 1439818512968 ActiveObject_abs.backend.java.lib.runtime.COG_-4aa5dbd8-14f3bddeac7--7fef--60a6058ce15d5a3f--4aa5dbd8-14f3bddeac7--8000
beforerequestsent ActiveObject_abs.backend.java.lib.runtime.COG_-4aa5dbd8-14f3bddeac7--7fef--60a6058ce15d5a3f--4aa5dbd8-14f3bddeac7--8000 34 getRuntime 2008733104 1439818512970 ActiveObject_abs.backend.java.lib.runtime.COG_-4aa5dbd8-14f3bddeac7--7fef--60a6058ce15d5a3f--4aa5dbd8-14f3bddeac7--8000
deliverrequest ActiveObject_abs.backend.java.lib.runtime.COG_-4aa5dbd8-14f3bddeac7--7fef--60a6058ce15d5a3f--4aa5dbd8-14f3bddeac7--8000 34 getRuntime 2008733104 1439818512971 ActiveObject_abs.backend.java.lib.runtime.COG_-4aa5dbd8-14f3bddeac7--7fef--60a6058ce15d5a3f--4aa5dbd8-14f3bddeac7--8000
beforerequestsent ActiveObject_abs.backend.java.lib.runtime.COG_-4aa5dbd8-14f3bddeac7--7fef--60a6058ce15d5a3f--4aa5dbd8-14f3bddeac7--8000 34 getRuntime 2008733105 1439818512976 ActiveObject_abs.backend.java.lib.runtime.COG_-4aa5dbd8-14f3bddeac7--7fef--60a6058ce15d5a3f--4aa5dbd8-14f3bddeac7--8000
deliverrequest ActiveObject_abs.backend.java.lib.runtime.COG_-4aa5dbd8-14f3bddeac7--7fef--60a6058ce15d5a3f--4aa5dbd8-14f3bddeac7--8000 34 getRuntime 2008733105 1439818512976 ActiveObject_abs.backend.java.lib.runtime.COG_-4aa5dbd8-14f3bddeac7--7fef--60a6058ce15d5a3f--4aa5dbd8-14f3bddeac7--8000
beforerequestsent ActiveObject_abs.backend.java.lib.runtime.COG_-4aa5dbd8-14f3bddeac7--7fef--60a6058ce15d5a3f--4aa5dbd8-14f3bddeac7--8000 34 getRuntime 2008733106 1439818512980 ActiveObject_abs.backend.java.lib.runtime.COG_-4aa5dbd8-14f3bddeac7--7fef--60a6058ce15d5a3f--4aa5dbd8-14f3bddeac7--8000
deliverrequest ActiveObject_abs.backend.java.lib.runtime.COG_-4aa5dbd8-14f3bddeac7--7fef--60a6058ce15d5a3f--4aa5dbd8-14f3bddeac7--8000 34 getRuntime 2008733106 1439818512981 ActiveObject_abs.backend.java.lib.runtime.COG_-4aa5dbd8-14f3bddeac7--7fef--60a6058ce15d5a3f--4aa5dbd8-14f3bddeac7--8000
beforerequestsent ActiveObject_abs.backend.java.lib.runtime.COG_-4aa5dbd8-14f3bddeac7--7fef--60a6058ce15d5a3f--4aa5dbd8-14f3bddeac7--8000 34 getRuntime 2008733107 1439818512986 ActiveObject_abs.backend.java.lib.runtime.COG_-4aa5dbd8-14f3bddeac7--7fef--60a6058ce15d5a3f--4aa5dbd8-14f3bddeac7--8000
deliverrequest ActiveObject_abs.backend.java.lib.runtime.COG_-4aa5dbd8-14f3bddeac7--7fef--60a6058ce15d5a3f--4aa5dbd8-14f3bddeac7--8000 34 getRuntime 2008733107 1439818512986 ActiveObject_abs.backend.java.lib.runtime.COG_-4aa5dbd8-14f3bddeac7--7fef--60a6058ce15d5a3f--4aa5dbd8-14f3bddeac7--8000
beforerequestsent ActiveObject_abs.backend.java.lib.runtime.COG_-4aa5dbd8-14f3bddeac7--7fef--60a6058ce15d5a3f--4aa5dbd8-14f3bddeac7--8000 34 suspend 2008733108 1439818512992 ActiveObject_abs.backend.java.lib.runtime.COG_-4aa5dbd8-14f3bddeac7--7fef--60a6058ce15d5a3f--4aa5dbd8-14f3bddeac7--8000
deliverrequest ActiveObject_abs.backend.java.lib.runtime.COG_-4aa5dbd8-14f3bddeac7--7fef--60a6058ce15d5a3f--4aa5dbd8-14f3bddeac7--8000 34 suspend 2008733108 1439818512993 ActiveObject_abs.backend.java.lib.runtime.COG_-4aa5dbd8-14f3bddeac7--7fef--60a6058ce15d5a3f--4aa5dbd8-14f3bddeac7--8000
beforerequestsent ActiveObject_abs.backend.java.lib.runtime.COG_-4aa5dbd8-14f3bddeac7--7fef--60a6058ce15d5a3f--4aa5dbd8-14f3bddeac7--8000 34 getRuntime 2008733109 1439818519976 ActiveObject_abs.backend.java.lib.runtime.COG_-4aa5dbd8-14f3bddeac7--7fef--60a6058ce15d5a3f--4aa5dbd8-14f3bddeac7--8000
deliverrequest ActiveObject_abs.backend.java.lib.runtime.COG_-4aa5dbd8-14f3bddeac7--7fef--60a6058ce15d5a3f--4aa5dbd8-14f3bddeac7--8000 34 getRuntime 2008733109 1439818519976 ActiveObject_abs.backend.java.lib.runtime.COG_-4aa5dbd8-14f3bddeac7--7fef--60a6058ce15d5a3f--4aa5dbd8-14f3bddeac7--8000
beforerequestsent ActiveObject_abs.backend.java.lib.runtime.COG_-4aa5dbd8-14f3bddeac7--7fef--60a6058ce15d5a3f--4aa5dbd8-14f3bddeac7--8000 34 getRuntime 2008733110 1439818519981 ActiveObject_abs.backend.java.lib.runtime.COG_-4aa5dbd8-14f3bddeac7--7fef--60a6058ce15d5a3f--4aa5dbd8-14f3bddeac7--8000
deliverrequest ActiveObject_abs.backend.java.lib.runtime.COG_-4aa5dbd8-14f3bddeac7--7fef--60a6058ce15d5a3f--4aa5dbd8-14f3bddeac7--8000 34 getRuntime 2008733110 1439818519982 ActiveObject_abs.backend.java.lib.runtime.COG_-4aa5dbd8-14f3bddeac7--7fef--60a6058ce15d5a3f--4aa5dbd8-14f3bddeac7--8000
beforerequestsent ActiveObject_abs.backend.java.lib.runtime.COG_-4aa5dbd8-14f3bddeac7--7fef--60a6058ce15d5a3f--4aa5dbd8-14f3bddeac7--8000 34 getRuntime 2008733111 1439818519986 ActiveObject_abs.backend.java.lib.runtime.COG_-4aa5dbd8-14f3bddeac7--7fef--60a6058ce15d5a3f--4aa5dbd8-14f3bddeac7--8000
deliverrequest ActiveObject_abs.backend.java.lib.runtime.COG_-4aa5dbd8-14f3bddeac7--7fef--60a6058ce15d5a3f--4aa5dbd8-14f3bddeac7--8000 34 getRuntime 2008733111 1439818519986 ActiveObject_abs.backend.java.lib.runtime.COG_-4aa5dbd8-14f3bddeac7--7fef--60a6058ce15d5a3f--4aa5dbd8-14f3bddeac7--8000
beforerequestsent ActiveObject_abs.backend.java.lib.runtime.COG_-4aa5dbd8-14f3bddeac7--7fef--60a6058ce15d5a3f--4aa5dbd8-14f3bddeac7--8000 34 getRuntime 2008733112 1439818519991 ActiveObject_abs.backend.java.lib.runtime.COG_-4aa5dbd8-14f3bddeac7--7fef--60a6058ce15d5a3f--4aa5dbd8-14f3bddeac7--8000
deliverrequest ActiveObject_abs.backend.java.lib.runtime.COG_-4aa5dbd8-14f3bddeac7--7fef--60a6058ce15d5a3f--4aa5dbd8-14f3bddeac7--8000 34 getRuntime 2008733112 1439818519991 ActiveObject_abs.backend.java.lib.runtime.COG_-4aa5dbd8-14f3bddeac7--7fef--60a6058ce15d5a3f--4aa5dbd8-14f3bddeac7--8000
beforerequestsent ActiveObject_abs.backend.java.lib.runtime.COG_-4aa5dbd8-14f3bddeac7--7fef--60a6058ce15d5a3f--4aa5dbd8-14f3bddeac7--8000 34 getRuntime 2008733113 1439818519996 ActiveObject_abs.backend.java.lib.runtime.COG_-4aa5dbd8-14f3bddeac7--7fef--60a6058ce15d5a3f--4aa5dbd8-14f3bddeac7--8000
deliverrequest ActiveObject_abs.backend.java.lib.runtime.COG_-4aa5dbd8-14f3bddeac7--7fef--60a6058ce15d5a3f--4aa5dbd8-14f3bddeac7--8000 34 getRuntime 2008733113 1439818519997 ActiveObject_abs.backend.java.lib.runtime.COG_-4aa5dbd8-14f3bddeac7--7fef--60a6058ce15d5a3f--4aa5dbd8-14f3bddeac7--8000
beforerequestsent ActiveObject_abs.backend.java.lib.runtime.COG_-4aa5dbd8-14f3bddeac7--7fef--60a6058ce15d5a3f--4aa5dbd8-14f3bddeac7--8000 34 getRuntime 2008733114 1439818520001 ActiveObject_abs.backend.java.lib.runtime.COG_-4aa5dbd8-14f3bddeac7--7fef--60a6058ce15d5a3f--4aa5dbd8-14f3bddeac7--8000
deliverrequest ActiveObject_abs.backend.java.lib.runtime.COG_-4aa5dbd8-14f3bddeac7--7fef--60a6058ce15d5a3f--4aa5dbd8-14f3bddeac7--8000 34 getRuntime 2008733114 1439818520002 ActiveObject_abs.backend.java.lib.runtime.COG_-4aa5dbd8-14f3bddeac7--7fef--60a6058ce15d5a3f--4aa5dbd8-14f3bddeac7--8000
beforerequestsent ActiveObject_abs.backend.java.lib.runtime.COG_-4aa5dbd8-14f3bddeac7--7fef--60a6058ce15d5a3f--4aa5dbd8-14f3bddeac7--8000 34 getRuntime 2008733115 1439818520007 ActiveObject_abs.backend.java.lib.runtime.COG_-4aa5dbd8-14f3bddeac7--7fef--60a6058ce15d5a3f--4aa5dbd8-14f3bddeac7--8000
deliverrequest ActiveObject_abs.backend.java.lib.runtime.COG_-4aa5dbd8-14f3bddeac7--7fef--60a6058ce15d5a3f--4aa5dbd8-14f3bddeac7--8000 34 getRuntime 2008733115 1439818520007 ActiveObject_abs.backend.java.lib.runtime.COG_-4aa5dbd8-14f3bddeac7--7fef--60a6058ce15d5a3f--4aa5dbd8-14f3bddeac7--8000
beforerequestsent ActiveObject_abs.backend.java.lib.runtime.COG_-4aa5dbd8-14f3bddeac7--7fef--60a6058ce15d5a3f--4aa5dbd8-14f3bddeac7--8000 34 execute 2008733116 1439818520012 ActiveObject_abs.backend.java.lib.runtime.COG_-4aa5dbd8-14f3bddeac7--7fef--60a6058ce15d5a3f--4aa5dbd8-14f3bddeac7--8000
beforerequestsent ActiveObject_abs.backend.java.lib.runtime.COG_-4aa5dbd8-14f3bddeac7--7fef--60a6058ce15d5a3f--4aa5dbd8-14f3bddeac7--8000 34 getRuntime 2008733117 1439818520047 ActiveObject_abs.backend.java.lib.runtime.COG_-4aa5dbd8-14f3bddeac7--7fef--60a6058ce15d5a3f--4aa5dbd8-14f3bddeac7--8000
deliverrequest ActiveObject_abs.backend.java.lib.runtime.COG_-4aa5dbd8-14f3bddeac7--7fef--60a6058ce15d5a3f--4aa5dbd8-14f3bddeac7--8000 34 getRuntime 2008733117 1439818520047 ActiveObject_abs.backend.java.lib.runtime.COG_-4aa5dbd8-14f3bddeac7--7fef--60a6058ce15d5a3f--4aa5dbd8-14f3bddeac7--8000
