deliverrequest ActiveObject_abs.backend.java.lib.runtime.COG_-1078f97d-14f3bddeb18--7fef--fb54cf86baca9fe3--1078f97d-14f3bddeb18--8000 24 getRuntime 2008733218 1439818493277 ActiveObject_abs.backend.java.lib.runtime.COG_-613e2820-14f3bdde9ec--7ff2--068760b28f267db7--613e2820-14f3bdde9ec--8000
deliverrequest ActiveObject_abs.backend.java.lib.runtime.COG_-1078f97d-14f3bddeb18--7fef--fb54cf86baca9fe3--1078f97d-14f3bddeb18--8000 24 register 2008733219 1439818493319 ActiveObject_abs.backend.java.lib.runtime.COG_-613e2820-14f3bdde9ec--7ff2--068760b28f267db7--613e2820-14f3bdde9ec--8000
deliverrequest ActiveObject_abs.backend.java.lib.runtime.COG_-1078f97d-14f3bddeb18--7fef--fb54cf86baca9fe3--1078f97d-14f3bddeb18--8000 24 objectCreated 2008733220 1439818493888 ActiveObject_abs.backend.java.lib.runtime.COG_-613e2820-14f3bdde9ec--7ff2--068760b28f267db7--613e2820-14f3bdde9ec--8000
deliverrequest ActiveObject_abs.backend.java.lib.runtime.COG_-1078f97d-14f3bddeb18--7fef--fb54cf86baca9fe3--1078f97d-14f3bddeb18--8000 24 objectInitialized 2008733221 1439818494145 ActiveObject_abs.backend.java.lib.runtime.COG_-613e2820-14f3bdde9ec--7ff2--068760b28f267db7--613e2820-14f3bdde9ec--8000
deliverrequest ActiveObject_abs.backend.java.lib.runtime.COG_-1078f97d-14f3bddeb18--7fef--fb54cf86baca9fe3--1078f97d-14f3bddeb18--8000 24 registerObject 2008733222 1439818494273 ActiveObject_abs.backend.java.lib.runtime.COG_-613e2820-14f3bdde9ec--7ff2--068760b28f267db7--613e2820-14f3bdde9ec--8000
deliverrequest ActiveObject_abs.backend.java.lib.runtime.COG_-1078f97d-14f3bddeb18--7fef--fb54cf86baca9fe3--1078f97d-14f3bddeb18--8000 24 execute 2008733480 1439818513086 ActiveObject_abs.backend.java.lib.runtime.COG_-613e2820-14f3bdde9ec--7ff2--068760b28f267db7--613e2820-14f3bdde9ec--8000
beforerequestsent ActiveObject_abs.backend.java.lib.runtime.COG_-1078f97d-14f3bddeb18--7fef--fb54cf86baca9fe3--1078f97d-14f3bddeb18--8000 32 toString 2008733250 1439818513089 ActiveObject_abs.backend.java.lib.runtime.COG_-1078f97d-14f3bddeb18--7fef--fb54cf86baca9fe3--1078f97d-14f3bddeb18--8000
beforerequestsent ActiveObject_abs.backend.java.lib.runtime.COG_-1078f97d-14f3bddeb18--7fef--fb54cf86baca9fe3--1078f97d-14f3bddeb18--8000 32 getRuntime 2008733251 1439818515306 ActiveObject_abs.backend.java.lib.runtime.COG_-1078f97d-14f3bddeb18--7fef--fb54cf86baca9fe3--1078f97d-14f3bddeb18--8000
deliverrequest ActiveObject_abs.backend.java.lib.runtime.COG_-1078f97d-14f3bddeb18--7fef--fb54cf86baca9fe3--1078f97d-14f3bddeb18--8000 32 getRuntime 2008733251 1439818515307 ActiveObject_abs.backend.java.lib.runtime.COG_-1078f97d-14f3bddeb18--7fef--fb54cf86baca9fe3--1078f97d-14f3bddeb18--8000
beforerequestsent ActiveObject_abs.backend.java.lib.runtime.COG_-1078f97d-14f3bddeb18--7fef--fb54cf86baca9fe3--1078f97d-14f3bddeb18--8000 32 getRuntime 2008733252 1439818515313 ActiveObject_abs.backend.java.lib.runtime.COG_-1078f97d-14f3bddeb18--7fef--fb54cf86baca9fe3--1078f97d-14f3bddeb18--8000
deliverrequest ActiveObject_abs.backend.java.lib.runtime.COG_-1078f97d-14f3bddeb18--7fef--fb54cf86baca9fe3--1078f97d-14f3bddeb18--8000 32 getRuntime 2008733252 1439818515314 ActiveObject_abs.backend.java.lib.runtime.COG_-1078f97d-14f3bddeb18--7fef--fb54cf86baca9fe3--1078f97d-14f3bddeb18--8000
beforerequestsent ActiveObject_abs.backend.java.lib.runtime.COG_-1078f97d-14f3bddeb18--7fef--fb54cf86baca9fe3--1078f97d-14f3bddeb18--8000 32 getRuntime 2008733253 1439818515317 ActiveObject_abs.backend.java.lib.runtime.COG_-1078f97d-14f3bddeb18--7fef--fb54cf86baca9fe3--1078f97d-14f3bddeb18--8000
deliverrequest ActiveObject_abs.backend.java.lib.runtime.COG_-1078f97d-14f3bddeb18--7fef--fb54cf86baca9fe3--1078f97d-14f3bddeb18--8000 32 getRuntime 2008733253 1439818515318 ActiveObject_abs.backend.java.lib.runtime.COG_-1078f97d-14f3bddeb18--7fef--fb54cf86baca9fe3--1078f97d-14f3bddeb18--8000
beforerequestsent ActiveObject_abs.backend.java.lib.runtime.COG_-1078f97d-14f3bddeb18--7fef--fb54cf86baca9fe3--1078f97d-14f3bddeb18--8000 32 getRuntime 2008733254 1439818515324 ActiveObject_abs.backend.java.lib.runtime.COG_-1078f97d-14f3bddeb18--7fef--fb54cf86baca9fe3--1078f97d-14f3bddeb18--8000
deliverrequest ActiveObject_abs.backend.java.lib.runtime.COG_-1078f97d-14f3bddeb18--7fef--fb54cf86baca9fe3--1078f97d-14f3bddeb18--8000 32 getRuntime 2008733254 1439818515324 ActiveObject_abs.backend.java.lib.runtime.COG_-1078f97d-14f3bddeb18--7fef--fb54cf86baca9fe3--1078f97d-14f3bddeb18--8000
beforerequestsent ActiveObject_abs.backend.java.lib.runtime.COG_-1078f97d-14f3bddeb18--7fef--fb54cf86baca9fe3--1078f97d-14f3bddeb18--8000 32 suspend 2008733255 1439818515540 ActiveObject_abs.backend.java.lib.runtime.COG_-1078f97d-14f3bddeb18--7fef--fb54cf86baca9fe3--1078f97d-14f3bddeb18--8000
deliverrequest ActiveObject_abs.backend.java.lib.runtime.COG_-1078f97d-14f3bddeb18--7fef--fb54cf86baca9fe3--1078f97d-14f3bddeb18--8000 32 suspend 2008733255 1439818515540 ActiveObject_abs.backend.java.lib.runtime.COG_-1078f97d-14f3bddeb18--7fef--fb54cf86baca9fe3--1078f97d-14f3bddeb18--8000
beforerequestsent ActiveObject_abs.backend.java.lib.runtime.COG_-1078f97d-14f3bddeb18--7fef--fb54cf86baca9fe3--1078f97d-14f3bddeb18--8000 32 getRuntime 2008733256 1439818523190 ActiveObject_abs.backend.java.lib.runtime.COG_-1078f97d-14f3bddeb18--7fef--fb54cf86baca9fe3--1078f97d-14f3bddeb18--8000
deliverrequest ActiveObject_abs.backend.java.lib.runtime.COG_-1078f97d-14f3bddeb18--7fef--fb54cf86baca9fe3--1078f97d-14f3bddeb18--8000 32 getRuntime 2008733256 1439818523191 ActiveObject_abs.backend.java.lib.runtime.COG_-1078f97d-14f3bddeb18--7fef--fb54cf86baca9fe3--1078f97d-14f3bddeb18--8000
beforerequestsent ActiveObject_abs.backend.java.lib.runtime.COG_-1078f97d-14f3bddeb18--7fef--fb54cf86baca9fe3--1078f97d-14f3bddeb18--8000 32 getRuntime 2008733257 1439818523196 ActiveObject_abs.backend.java.lib.runtime.COG_-1078f97d-14f3bddeb18--7fef--fb54cf86baca9fe3--1078f97d-14f3bddeb18--8000
deliverrequest ActiveObject_abs.backend.java.lib.runtime.COG_-1078f97d-14f3bddeb18--7fef--fb54cf86baca9fe3--1078f97d-14f3bddeb18--8000 32 getRuntime 2008733257 1439818523196 ActiveObject_abs.backend.java.lib.runtime.COG_-1078f97d-14f3bddeb18--7fef--fb54cf86baca9fe3--1078f97d-14f3bddeb18--8000
beforerequestsent ActiveObject_abs.backend.java.lib.runtime.COG_-1078f97d-14f3bddeb18--7fef--fb54cf86baca9fe3--1078f97d-14f3bddeb18--8000 32 getRuntime 2008733258 1439818523201 ActiveObject_abs.backend.java.lib.runtime.COG_-1078f97d-14f3bddeb18--7fef--fb54cf86baca9fe3--1078f97d-14f3bddeb18--8000
deliverrequest ActiveObject_abs.backend.java.lib.runtime.COG_-1078f97d-14f3bddeb18--7fef--fb54cf86baca9fe3--1078f97d-14f3bddeb18--8000 32 getRuntime 2008733258 1439818523201 ActiveObject_abs.backend.java.lib.runtime.COG_-1078f97d-14f3bddeb18--7fef--fb54cf86baca9fe3--1078f97d-14f3bddeb18--8000
beforerequestsent ActiveObject_abs.backend.java.lib.runtime.COG_-1078f97d-14f3bddeb18--7fef--fb54cf86baca9fe3--1078f97d-14f3bddeb18--8000 32 getRuntime 2008733259 1439818523205 ActiveObject_abs.backend.java.lib.runtime.COG_-1078f97d-14f3bddeb18--7fef--fb54cf86baca9fe3--1078f97d-14f3bddeb18--8000
deliverrequest ActiveObject_abs.backend.java.lib.runtime.COG_-1078f97d-14f3bddeb18--7fef--fb54cf86baca9fe3--1078f97d-14f3bddeb18--8000 32 getRuntime 2008733259 1439818523206 ActiveObject_abs.backend.java.lib.runtime.COG_-1078f97d-14f3bddeb18--7fef--fb54cf86baca9fe3--1078f97d-14f3bddeb18--8000
beforerequestsent ActiveObject_abs.backend.java.lib.runtime.COG_-1078f97d-14f3bddeb18--7fef--fb54cf86baca9fe3--1078f97d-14f3bddeb18--8000 32 getRuntime 2008733260 1439818523209 ActiveObject_abs.backend.java.lib.runtime.COG_-1078f97d-14f3bddeb18--7fef--fb54cf86baca9fe3--1078f97d-14f3bddeb18--8000
deliverrequest ActiveObject_abs.backend.java.lib.runtime.COG_-1078f97d-14f3bddeb18--7fef--fb54cf86baca9fe3--1078f97d-14f3bddeb18--8000 32 getRuntime 2008733260 1439818523210 ActiveObject_abs.backend.java.lib.runtime.COG_-1078f97d-14f3bddeb18--7fef--fb54cf86baca9fe3--1078f97d-14f3bddeb18--8000
beforerequestsent ActiveObject_abs.backend.java.lib.runtime.COG_-1078f97d-14f3bddeb18--7fef--fb54cf86baca9fe3--1078f97d-14f3bddeb18--8000 32 getRuntime 2008733261 1439818523214 ActiveObject_abs.backend.java.lib.runtime.COG_-1078f97d-14f3bddeb18--7fef--fb54cf86baca9fe3--1078f97d-14f3bddeb18--8000
deliverrequest ActiveObject_abs.backend.java.lib.runtime.COG_-1078f97d-14f3bddeb18--7fef--fb54cf86baca9fe3--1078f97d-14f3bddeb18--8000 32 getRuntime 2008733261 1439818523215 ActiveObject_abs.backend.java.lib.runtime.COG_-1078f97d-14f3bddeb18--7fef--fb54cf86baca9fe3--1078f97d-14f3bddeb18--8000
beforerequestsent ActiveObject_abs.backend.java.lib.runtime.COG_-1078f97d-14f3bddeb18--7fef--fb54cf86baca9fe3--1078f97d-14f3bddeb18--8000 32 getRuntime 2008733262 1439818523219 ActiveObject_abs.backend.java.lib.runtime.COG_-1078f97d-14f3bddeb18--7fef--fb54cf86baca9fe3--1078f97d-14f3bddeb18--8000
deliverrequest ActiveObject_abs.backend.java.lib.runtime.COG_-1078f97d-14f3bddeb18--7fef--fb54cf86baca9fe3--1078f97d-14f3bddeb18--8000 32 getRuntime 2008733262 1439818523219 ActiveObject_abs.backend.java.lib.runtime.COG_-1078f97d-14f3bddeb18--7fef--fb54cf86baca9fe3--1078f97d-14f3bddeb18--8000
beforerequestsent ActiveObject_abs.backend.java.lib.runtime.COG_-1078f97d-14f3bddeb18--7fef--fb54cf86baca9fe3--1078f97d-14f3bddeb18--8000 32 execute 2008733263 1439818523339 ActiveObject_abs.backend.java.lib.runtime.COG_-1078f97d-14f3bddeb18--7fef--fb54cf86baca9fe3--1078f97d-14f3bddeb18--8000
beforerequestsent ActiveObject_abs.backend.java.lib.runtime.COG_-1078f97d-14f3bddeb18--7fef--fb54cf86baca9fe3--1078f97d-14f3bddeb18--8000 32 getRuntime 2008733264 1439818523517 ActiveObject_abs.backend.java.lib.runtime.COG_-1078f97d-14f3bddeb18--7fef--fb54cf86baca9fe3--1078f97d-14f3bddeb18--8000
deliverrequest ActiveObject_abs.backend.java.lib.runtime.COG_-1078f97d-14f3bddeb18--7fef--fb54cf86baca9fe3--1078f97d-14f3bddeb18--8000 32 getRuntime 2008733264 1439818523518 ActiveObject_abs.backend.java.lib.runtime.COG_-1078f97d-14f3bddeb18--7fef--fb54cf86baca9fe3--1078f97d-14f3bddeb18--8000
